processor.vcd
$date
	Fri Oct 25 19:37:33 2024
$end
$version
	Icarus Verilog
$end
$timescale
	1ps
$end
$scope module testbench $end
$var wire 1 ! reset $end
$var wire 32 " output_register_file [31:0] $end
$var wire 32 # output_OF_PC [31:0] $end
$var wire 32 $ output_OF_IR [31:0] $end
$var wire 22 % output_MA_controlBus [21:0] $end
$var wire 32 & output_MA_PC [31:0] $end
$var wire 32 ' output_MA_IR [31:0] $end
$var wire 32 ( output_MA_ALU_Result [31:0] $end
$var wire 22 ) output_EX_controlBus [21:0] $end
$var wire 32 * output_EX_PC [31:0] $end
$var wire 32 + output_EX_IR [31:0] $end
$var wire 32 , outputPC [31:0] $end
$var wire 1 - is_Branch_Taken $end
$var wire 4 . isStore_result [3:0] $end
$var wire 4 / isReturn_result [3:0] $end
$var wire 22 0 input_RW_controlBus [21:0] $end
$var wire 32 1 input_RW_PC [31:0] $end
$var wire 32 2 input_RW_Ld_Result [31:0] $end
$var wire 32 3 input_RW_IR [31:0] $end
$var wire 32 4 input_RW_ALU_Result [31:0] $end
$var wire 32 5 input_OF_PC [31:0] $end
$var wire 32 6 input_MA_op2 [31:0] $end
$var wire 22 7 input_MA_controlBus [21:0] $end
$var wire 32 8 input_MA_PC [31:0] $end
$var wire 32 9 input_MA_IR [31:0] $end
$var wire 32 : input_MA_ALU_Result [31:0] $end
$var wire 32 ; input_EX_PC [31:0] $end
$var wire 32 < input_EX_IR [31:0] $end
$var wire 32 = branchTarget [31:0] $end
$var wire 32 > branchPC [31:0] $end
$var wire 4 ? RW_rd [3:0] $end
$var wire 1 @ RW_isWb $end
$var wire 32 A RW_Data_value [31:0] $end
$var wire 32 B PC [31:0] $end
$var wire 22 C Output_OF_controlBus [21:0] $end
$var wire 32 D Operand_EX_B [31:0] $end
$var wire 32 E Operand_EX_A [31:0] $end
$var wire 32 F Operand_EX_2 [31:0] $end
$var wire 32 G Operand_B [31:0] $end
$var wire 32 H Operand_A [31:0] $end
$var wire 32 I Operand_2 [31:0] $end
$var wire 32 J MDR [31:0] $end
$var wire 1 K MA_writeEnable $end
$var wire 32 L MA_Ld_Result [31:0] $end
$var wire 22 M Input_OF_controlBus [21:0] $end
$var wire 32 N Input_OF_IR [31:0] $end
$var wire 22 O Input_EX_controlBus [21:0] $end
$var wire 32 P IR [31:0] $end
$var wire 32 Q EX_op2 [31:0] $end
$var wire 32 R EX_branchTarget [31:0] $end
$var wire 32 S ALU_Result [31:0] $end
$var reg 1 T clk $end
$scope module processor $end
$var wire 32 U EX_branchPC [31:0] $end
$var wire 1 V EX_is_Branch_Taken $end
$var wire 32 W address [31:0] $end
$var wire 1 T clk $end
$var wire 32 X writeData [31:0] $end
$var wire 1 Y writeEnable $end
$var wire 32 Z readData [31:0] $end
$var wire 32 [ output_register_file [31:0] $end
$var wire 32 \ output_OF_PC [31:0] $end
$var wire 32 ] output_OF_IR [31:0] $end
$var wire 22 ^ output_MA_controlBus [21:0] $end
$var wire 32 _ output_MA_PC [31:0] $end
$var wire 32 ` output_MA_IR [31:0] $end
$var wire 32 a output_MA_ALU_Result [31:0] $end
$var wire 32 b output_IF_PC [31:0] $end
$var wire 22 c output_EX_controlBus [21:0] $end
$var wire 32 d output_EX_PC [31:0] $end
$var wire 32 e output_EX_IR [31:0] $end
$var wire 32 f op2 [31:0] $end
$var wire 32 g op1 [31:0] $end
$var wire 1 - is_Branch_Taken $end
$var wire 4 h isStore_result [3:0] $end
$var wire 4 i isReturn_result [3:0] $end
$var wire 22 j input_RW_controlBus [21:0] $end
$var wire 32 k input_RW_PC [31:0] $end
$var wire 32 l input_RW_Ld_Result [31:0] $end
$var wire 32 m input_RW_IR [31:0] $end
$var wire 32 n input_RW_ALU_Result [31:0] $end
$var wire 32 o input_OF_PC [31:0] $end
$var wire 32 p input_MA_op2 [31:0] $end
$var wire 22 q input_MA_controlBus [21:0] $end
$var wire 32 r input_MA_PC [31:0] $end
$var wire 32 s input_MA_IR [31:0] $end
$var wire 32 t input_MA_ALU_Result [31:0] $end
$var wire 32 u input_EX_PC [31:0] $end
$var wire 32 v input_EX_IR [31:0] $end
$var wire 32 w branchTarget [31:0] $end
$var wire 32 x branchPC [31:0] $end
$var wire 4 y RW_rd [3:0] $end
$var wire 1 @ RW_isWb $end
$var wire 32 z RW_Data_value [31:0] $end
$var wire 22 { Output_OF_controlBus [21:0] $end
$var wire 32 | Operand_EX_B [31:0] $end
$var wire 32 } Operand_EX_A [31:0] $end
$var wire 32 ~ Operand_EX_2 [31:0] $end
$var wire 32 !" Operand_B [31:0] $end
$var wire 32 "" Operand_A [31:0] $end
$var wire 32 #" Operand_2 [31:0] $end
$var wire 32 $" MDR [31:0] $end
$var wire 1 K MA_writeEnable $end
$var wire 32 %" MA_Ld_Result [31:0] $end
$var wire 22 &" Input_OF_controlBus [21:0] $end
$var wire 32 '" Input_OF_IR [31:0] $end
$var wire 22 (" Input_EX_controlBus [21:0] $end
$var wire 32 )" IR [31:0] $end
$var wire 32 *" EX_op2 [31:0] $end
$var wire 32 +" EX_branchTarget [31:0] $end
$var wire 32 ," ALU_Result [31:0] $end
$var reg 32 -" PC [31:0] $end
$var reg 1 ! reset $end
$scope module ALU_cycle $end
$var wire 32 ." input_EX_PC [31:0] $end
$var wire 32 /" input_EX_IR [31:0] $end
$var wire 2 0" flags [1:0] $end
$var wire 32 1" Operand_EX_B [31:0] $end
$var wire 32 2" Operand_EX_A [31:0] $end
$var wire 32 3" Operand_EX_2 [31:0] $end
$var wire 22 4" Input_EX_controlBus [21:0] $end
$var wire 1 - EX_is_Branch_Taken $end
$var wire 32 5" EX_branchTarget [31:0] $end
$var wire 32 6" EX_branchPC [31:0] $end
$var wire 32 7" ALU_Result [31:0] $end
$var reg 32 8" EX_op2 [31:0] $end
$var reg 32 9" output_EX_IR [31:0] $end
$var reg 32 :" output_EX_PC [31:0] $end
$var reg 22 ;" output_EX_controlBus [21:0] $end
$scope module ALU_module $end
$var wire 13 <" ALU_Signals [21:9] $end
$var wire 32 =" Operand_EX_B [31:0] $end
$var wire 32 >" Operand_EX_A [31:0] $end
$var reg 32 ?" EX_ALU_Result [31:0] $end
$var reg 2 @" flags [1:0] $end
$var reg 1 A" isAdd $end
$var reg 1 B" isAnd $end
$var reg 1 C" isAsr $end
$var reg 1 D" isCmp $end
$var reg 1 E" isDiv $end
$var reg 1 F" isLsl $end
$var reg 1 G" isLsr $end
$var reg 1 H" isMod $end
$var reg 1 I" isMov $end
$var reg 1 J" isMul $end
$var reg 1 K" isNot $end
$var reg 1 L" isOr $end
$var reg 1 M" isSub $end
$upscope $end
$scope module branchUnit $end
$var wire 2 N" flags [1:0] $end
$var wire 32 O" Operand_EX_A [31:0] $end
$var wire 22 P" Input_EX_controlBus [21:0] $end
$var wire 32 Q" EX_branchTarget [31:0] $end
$var wire 32 R" EX_branchPC [31:0] $end
$var reg 1 - EX_is_Branch_Taken $end
$var reg 1 S" isBeq $end
$var reg 1 T" isBgt $end
$var reg 1 U" isRet $end
$var reg 1 V" isUbranch $end
$scope module isReturn_mux $end
$var wire 1 U" selectLine $end
$var wire 32 W" input1 [31:0] $end
$var wire 32 X" input0 [31:0] $end
$var parameter 32 Y" regSize $end
$var reg 32 Z" output_y [31:0] $end
$upscope $end
$upscope $end
$upscope $end
$scope module MA_cycle $end
$var wire 32 [" readData [31:0] $end
$var wire 32 \" input_MA_op2 [31:0] $end
$var wire 22 ]" input_MA_controlBus [21:0] $end
$var wire 32 ^" input_MA_PC [31:0] $end
$var wire 32 _" input_MA_IR [31:0] $end
$var wire 32 `" input_MA_ALU_Result [31:0] $end
$var reg 32 a" MAR [31:0] $end
$var reg 32 b" MA_Ld_Result [31:0] $end
$var reg 1 K MA_writeEnable $end
$var reg 32 c" MDR [31:0] $end
$var reg 1 d" isLd $end
$var reg 1 e" isSt $end
$var reg 32 f" output_MA_ALU_Result [31:0] $end
$var reg 32 g" output_MA_IR [31:0] $end
$var reg 32 h" output_MA_PC [31:0] $end
$var reg 22 i" output_MA_controlBus [21:0] $end
$upscope $end
$scope module OperandFetch $end
$var wire 1 T clk $end
$var wire 32 j" op2 [31:0] $end
$var wire 32 k" op1 [31:0] $end
$var wire 4 l" isStore_result [3:0] $end
$var wire 4 m" isReturn_result [3:0] $end
$var wire 32 n" immediateVlaue [31:0] $end
$var wire 32 o" branchTarget [31:0] $end
$var wire 32 p" Operand_B [31:0] $end
$var wire 22 q" Input_OF_controlBus [21:0] $end
$var wire 32 r" Input_OF_PC [31:0] $end
$var wire 32 s" Input_OF_IR [31:0] $end
$var reg 32 t" Operand_2 [31:0] $end
$var reg 32 u" Operand_A [31:0] $end
$var reg 22 v" Output_OF_controlBus [21:0] $end
$var reg 1 w" isImmediate $end
$var reg 1 x" isReturn $end
$var reg 1 y" isStore $end
$var reg 32 z" output_OF_IR [31:0] $end
$var reg 32 {" output_OF_PC [31:0] $end
$var reg 4 |" ra [3:0] $end
$var reg 4 }" rd [3:0] $end
$var reg 4 ~" rs1 [3:0] $end
$var reg 4 !# rs2 [3:0] $end
$scope module calc_Immx_branchTarget $end
$var wire 1 "# uModifier $end
$var wire 32 ## instruction [31:0] $end
$var wire 32 $# input_OF_PC [31:0] $end
$var wire 1 %# hModifier $end
$var reg 32 &# Immx [31:0] $end
$var reg 32 '# branchTarget [31:0] $end
$var reg 32 (# tempBranchTarget [31:0] $end
$upscope $end
$scope module isImmediate_mux $end
$var wire 32 )# input1 [31:0] $end
$var wire 1 w" selectLine $end
$var wire 32 *# input0 [31:0] $end
$var parameter 32 +# regSize $end
$var reg 32 ,# output_y [31:0] $end
$upscope $end
$scope module isRet_Mux $end
$var wire 4 -# input0 [3:0] $end
$var wire 4 .# input1 [3:0] $end
$var wire 1 x" selectLine $end
$var parameter 32 /# regSize $end
$var reg 4 0# output_y [3:0] $end
$upscope $end
$scope module isStore_mux $end
$var wire 4 1# input0 [3:0] $end
$var wire 4 2# input1 [3:0] $end
$var wire 1 y" selectLine $end
$var parameter 32 3# regSize $end
$var reg 4 4# output_y [3:0] $end
$upscope $end
$upscope $end
$scope module controlUnit $end
$var wire 1 ! reset $end
$var wire 32 5# Input_OF_IR [31:0] $end
$var reg 1 6# I $end
$var reg 22 7# controlBus [21:0] $end
$var reg 1 8# isAdd $end
$var reg 1 9# isAnd $end
$var reg 1 :# isAsr $end
$var reg 1 ;# isBeq $end
$var reg 1 <# isBgt $end
$var reg 1 =# isCall $end
$var reg 1 ># isCmp $end
$var reg 1 ?# isDiv $end
$var reg 1 @# isImmediate $end
$var reg 1 A# isLd $end
$var reg 1 B# isLsl $end
$var reg 1 C# isLsr $end
$var reg 1 D# isMod $end
$var reg 1 E# isMov $end
$var reg 1 F# isMul $end
$var reg 1 G# isNot $end
$var reg 1 H# isOr $end
$var reg 1 I# isRet $end
$var reg 1 J# isSt $end
$var reg 1 K# isSub $end
$var reg 1 L# isUbranch $end
$var reg 1 M# isWb $end
$var reg 1 N# op1 $end
$var reg 1 O# op2 $end
$var reg 1 P# op3 $end
$var reg 1 Q# op4 $end
$var reg 1 R# op5 $end
$upscope $end
$scope module data_memory $end
$var wire 32 S# address [31:0] $end
$var wire 1 T clk $end
$var wire 1 ! reset $end
$var wire 32 T# writeData [31:0] $end
$var wire 1 K writeEnable $end
$var reg 32 U# readData [31:0] $end
$var integer 32 V# i [31:0] $end
$upscope $end
$scope module ex_ma_latch $end
$var wire 32 W# ALU_Result [31:0] $end
$var wire 32 X# EX_op2 [31:0] $end
$var wire 1 T clk $end
$var wire 32 Y# output_EX_IR [31:0] $end
$var wire 32 Z# output_EX_PC [31:0] $end
$var wire 22 [# output_EX_controlBus [21:0] $end
$var reg 32 \# input_MA_ALU_Result [31:0] $end
$var reg 32 ]# input_MA_IR [31:0] $end
$var reg 32 ^# input_MA_PC [31:0] $end
$var reg 22 _# input_MA_controlBus [21:0] $end
$var reg 32 `# input_MA_op2 [31:0] $end
$upscope $end
$scope module iFetch $end
$var wire 32 a# branchPC [31:0] $end
$var wire 1 T clk $end
$var wire 32 b# inputPC [31:0] $end
$var wire 1 - is_Branch_Taken $end
$var wire 1 ! reset $end
$var wire 32 c# mux_nextPC [31:0] $end
$var wire 32 d# IR [31:0] $end
$var reg 32 e# PC [31:0] $end
$var reg 32 f# address [31:0] $end
$var reg 32 g# outputPC [31:0] $end
$scope module iMemory $end
$var wire 32 h# address [31:0] $end
$var reg 32 i# instruction [31:0] $end
$var reg 32 j# temp [31:0] $end
$var integer 32 k# file [31:0] $end
$var integer 32 l# i [31:0] $end
$var integer 32 m# readResult [31:0] $end
$upscope $end
$scope module pc_mux $end
$var wire 32 n# input0 [31:0] $end
$var wire 32 o# input1 [31:0] $end
$var wire 1 - selectLine $end
$var parameter 32 p# regSize $end
$var reg 32 q# output_y [31:0] $end
$upscope $end
$upscope $end
$scope module latch_if_of $end
$var wire 32 r# IF_instruction [31:0] $end
$var wire 1 T clk $end
$var wire 32 s# output_IF_PC [31:0] $end
$var reg 32 t# Input_OF_PC [31:0] $end
$var reg 32 u# OF_instruction [31:0] $end
$upscope $end
$scope module ma_ra_latch $end
$var wire 32 v# MA_Ld_Result [31:0] $end
$var wire 1 T clk $end
$var wire 32 w# output_MA_ALU_Result [31:0] $end
$var wire 32 x# output_MA_IR [31:0] $end
$var wire 32 y# output_MA_PC [31:0] $end
$var wire 22 z# output_MA_controlBus [21:0] $end
$var reg 32 {# input_RW_ALU_Result [31:0] $end
$var reg 32 |# input_RW_IR [31:0] $end
$var reg 32 }# input_RW_Ld_Result [31:0] $end
$var reg 32 ~# input_RW_PC [31:0] $end
$var reg 22 !$ input_RW_controlBus [21:0] $end
$upscope $end
$scope module of_ex_latch $end
$var wire 32 "$ OF_branchTarget [31:0] $end
$var wire 32 #$ Operand_OF_2 [31:0] $end
$var wire 32 $$ Operand_OF_A [31:0] $end
$var wire 32 %$ Operand_OF_B [31:0] $end
$var wire 22 &$ Output_OF_controlBus [21:0] $end
$var wire 1 T clk $end
$var wire 32 '$ output_OF_IR [31:0] $end
$var wire 32 ($ output_OF_PC [31:0] $end
$var reg 32 )$ EX_branchTarget [31:0] $end
$var reg 22 *$ Input_EX_controlBus [21:0] $end
$var reg 32 +$ Operand_EX_2 [31:0] $end
$var reg 32 ,$ Operand_EX_A [31:0] $end
$var reg 32 -$ Operand_EX_B [31:0] $end
$var reg 32 .$ input_EX_IR [31:0] $end
$var reg 32 /$ input_EX_PC [31:0] $end
$upscope $end
$scope module r_File_processor $end
$var wire 1 T clk $end
$var wire 4 0$ op1 [3:0] $end
$var wire 4 1$ op2 [3:0] $end
$var wire 1 ! reset $end
$var wire 1 @ writeEnable $end
$var wire 32 2$ wrData [31:0] $end
$var wire 4 3$ dReg [3:0] $end
$var reg 32 4$ output_register_file [31:0] $end
$var reg 32 5$ rdData1 [31:0] $end
$var reg 32 6$ rdData2 [31:0] $end
$var reg 1 7$ temp $end
$var integer 32 8$ k [31:0] $end
$upscope $end
$scope module rw_stage $end
$var wire 32 9$ input_RW_ALU_Result [31:0] $end
$var wire 32 :$ input_RW_IR [31:0] $end
$var wire 32 ;$ input_RW_Ld_Result [31:0] $end
$var wire 32 <$ input_RW_PC [31:0] $end
$var wire 22 =$ input_RW_controlBus [21:0] $end
$var wire 4 >$ RW_rd [3:0] $end
$var wire 32 ?$ RW_Data_value [31:0] $end
$var reg 1 @ RW_isWb $end
$var reg 1 @$ isCall $end
$var reg 1 A$ isLd $end
$var reg 2 B$ mux_selectLines [1:0] $end
$var reg 4 C$ ra [3:0] $end
$var reg 4 D$ rd [3:0] $end
$scope module isCall_mux $end
$var wire 4 E$ input0 [3:0] $end
$var wire 4 F$ input1 [3:0] $end
$var wire 1 @$ selectLine $end
$var parameter 32 G$ regSize $end
$var reg 4 H$ output_y [3:0] $end
$upscope $end
$scope module isLD_or_isCall_MUX $end
$var wire 32 I$ input0 [31:0] $end
$var wire 32 J$ input1 [31:0] $end
$var wire 32 K$ input2 [31:0] $end
$var wire 2 L$ selectLine [1:0] $end
$var parameter 32 M$ regSize $end
$var reg 32 N$ output_y [31:0] $end
$upscope $end
$upscope $end
$upscope $end
$upscope $end
$enddefinitions $end
$comment Show the parameter values. $end
$dumpall
b100000 M$
b100 G$
b100000 p#
b100 3#
b100 /#
b100000 +#
b100000 Y"
$end
#0
$dumpvars
bx N$
bx L$
bx K$
bx J$
bx I$
bx H$
b1111 F$
bx E$
bx D$
b1111 C$
bx B$
xA$
x@$
bx ?$
bx >$
bx =$
bx <$
bx ;$
bx :$
bx 9$
b10000 8$
07$
bx 6$
bx 5$
bx 4$
bx 3$
bx 2$
bx 1$
bx 0$
bx /$
bx .$
bx -$
bx ,$
bx +$
bx *$
bx )$
bx ($
bx '$
b0 &$
bx %$
bx $$
bx #$
bx "$
bx !$
bx ~#
bx }#
bx |#
bx {#
bx z#
bx y#
bx x#
bx w#
bx v#
bx u#
bx t#
bx s#
bx r#
b100 q#
bx o#
b100 n#
b1 m#
b111 l#
b10000000000000000000000000000011 k#
b1110111110010001111010101011011 j#
bx i#
bx h#
bx g#
bx f#
b0 e#
bx d#
b100 c#
bx b#
bx a#
bx `#
bx _#
bx ^#
bx ]#
bx \#
bx [#
bx Z#
bx Y#
bx X#
bx W#
b111110100000 V#
bx U#
bx T#
bx S#
xR#
xQ#
xP#
xO#
xN#
xM#
xL#
xK#
xJ#
xI#
xH#
xG#
xF#
xE#
xD#
xC#
xB#
xA#
x@#
x?#
x>#
x=#
x<#
x;#
x:#
x9#
x8#
b0 7#
x6#
bx 5#
bx 4#
bx 2#
bx 1#
bx 0#
b1111 .#
bx -#
bx ,#
bx *#
bx )#
bx (#
bx '#
bx &#
x%#
bx $#
bx ##
x"#
bx !#
bx ~"
bx }"
b1111 |"
bx {"
bx z"
0y"
0x"
0w"
b0 v"
bx u"
bx t"
bx s"
bx r"
b0 q"
bx p"
bx o"
bx n"
bx m"
bx l"
bx k"
bx j"
bx i"
bx h"
bx g"
bx f"
xe"
xd"
bx c"
bx b"
bx a"
bx `"
bx _"
bx ^"
bx ]"
bx \"
bx ["
bx Z"
bx X"
bx W"
xV"
xU"
xT"
xS"
bx R"
bx Q"
bx P"
bx O"
bx N"
xM"
xL"
xK"
xJ"
xI"
xH"
xG"
xF"
xE"
xD"
xC"
xB"
xA"
bx @"
bx ?"
bx >"
bx ="
bx <"
bx ;"
bx :"
bx 9"
bx 8"
bx 7"
bx 6"
bx 5"
bx 4"
bx 3"
bx 2"
bx 1"
bx 0"
bx /"
bx ."
bx -"
bx ,"
bx +"
bx *"
bx )"
bx ("
bx '"
b0 &"
bx %"
bx $"
bx #"
bx ""
bx !"
bx ~
bx }
bx |
b0 {
bx z
bx y
bx x
bx w
bx v
bx u
bx t
bx s
bx r
bx q
bx p
bx o
bx n
bx m
bx l
bx k
bx j
bx i
bx h
bx g
bx f
bx e
bx d
bx c
bx b
bx a
bx `
bx _
bx ^
bx ]
bx \
bx [
bx Z
zY
bz X
bz W
zV
bz U
1T
bx S
bx R
bx Q
bx P
bx O
bx N
b0 M
bx L
xK
bx J
bx I
bx H
bx G
bx F
bx E
bx D
b0 C
bx B
bx A
x@
bx ?
bx >
bx =
bx <
bx ;
bx :
bx 9
bx 8
bx 7
bx 6
bx 5
bx 4
bx 3
bx 2
bx 1
bx 0
bx /
bx .
x-
bx ,
bx +
bx *
bx )
bx (
bx '
bx &
bx %
bx $
bx #
bx "
1!
$end
#2000
0!
#5000
0-
b0 )
b0 c
b0 ;"
b0 [#
0V"
0T"
0S"
0U"
b1001100000000000000010011010010 P
b1001100000000000000010011010010 )"
b1001100000000000000010011010010 d#
b1001100000000000000010011010010 i#
b1001100000000000000010011010010 r#
b0 0"
b0 @"
b0 N"
b0 S
b0 ,"
b0 7"
b0 ?"
b0 W#
0I"
0K"
0B"
0L"
0C"
0G"
0F"
0H"
0E"
0J"
0D"
0M"
0A"
b0 <"
b1000 c#
b1000 q#
b0 O
b0 ("
b0 4"
b0 P"
b0 *$
b1000 n#
b100 e#
b0 ,
b0 b
b0 g#
b0 s#
b0 f#
b0 h#
0T
#10000
1T
#15000
b0 H
b0 ""
b0 u"
b0 $$
b0 I
b0 #"
b0 t"
b0 #$
b1000000000000001100000 C
b1000000000000001100000 {
b1000000000000001100000 v"
b1000000000000001100000 &$
1w"
0x"
0y"
1E#
0G#
09#
0H#
0:#
0C#
0B#
0D#
0?#
0F#
0>#
0K#
08#
0=#
0L#
1M#
1@#
0I#
0<#
0;#
0A#
0J#
b10011010010 G
b10011010010 !"
b10011010010 p"
b10011010010 ,#
b10011010010 %$
b0 f
b0 j"
b0 *#
b0 6$
b0 g
b0 k"
b0 5$
b0 /
b0 i
b0 m"
b0 0#
b0 0$
b0 .
b0 h
b0 l"
b0 4#
b0 1$
b10011010010 n"
b10011010010 &#
b10011010010 )#
b0 %
b0 ^
b0 i"
b0 z#
b0 (
b0 a
b0 f"
b0 S#
b0 w#
b0 a"
0d"
0e"
0K
b1000000000000001100000 M
b1000000000000001100000 &"
b1000000000000001100000 q"
b1000000000000001100000 7#
0R#
1Q#
0P#
0O#
1N#
16#
b1001100000000000000010011010010 $
b1001100000000000000010011010010 ]
b1001100000000000000010011010010 z"
b1001100000000000000010011010010 '$
b0 #
b0 \
b0 {"
b0 ($
b0 !#
b0 1#
b0 ~"
b0 -#
b0 }"
b0 2#
bx100000000000000010011010010xx (#
b1001100010000000000000000000000 P
b1001100010000000000000000000000 )"
b1001100010000000000000000000000 d#
b1001100010000000000000000000000 i#
b1001100010000000000000000000000 r#
0%#
0"#
b1100 c#
b1100 q#
b0 7
b0 q
b0 ]"
b0 _#
b0 :
b0 t
b0 `"
b0 \#
b1001100000000000000010011010010 N
b1001100000000000000010011010010 '"
b1001100000000000000010011010010 s"
b1001100000000000000010011010010 ##
b1001100000000000000010011010010 5#
b1001100000000000000010011010010 u#
b0 5
b0 o
b0 r"
b0 $#
b0 t#
b1100 n#
b1000 e#
b100 ,
b100 b
b100 g#
b100 s#
b100 f#
b100 h#
0T
#16000
b111100000000000000010011010010xx (#
#17000
b11110000000000000001001101001000 (#
#18000
b11110000000000000001001101001000 =
b11110000000000000001001101001000 w
b11110000000000000001001101001000 o"
b11110000000000000001001101001000 '#
b11110000000000000001001101001000 "$
#20000
1T
#25000
b0 A
b0 z
b0 2$
b0 ?$
b0 N$
b0 B$
b0 L$
b0 G
b0 !"
b0 p"
b0 ,#
b0 %$
b0 L
b0 %"
b0 b"
b0 v#
b0 n"
b0 &#
b0 )#
b1001100010000000000000000000000 $
b1001100010000000000000000000000 ]
b1001100010000000000000000000000 z"
b1001100010000000000000000000000 '$
b100 #
b100 \
b100 {"
b100 ($
b1 }"
b1 2#
b11110001000000000000000000000000 (#
b0 Q
b0 *"
b0 8"
b0 X#
b1000000000000001100000 )
b1000000000000001100000 c
b1000000000000001100000 ;"
b1000000000000001100000 [#
b1001100000000000000010011010010 +
b1001100000000000000010011010010 e
b1001100000000000000010011010010 9"
b1001100000000000000010011010010 Y#
b0 *
b0 d
b0 :"
b0 Z#
0@
0@$
0A$
b1111100000001000000010011010100 P
b1111100000001000000010011010100 )"
b1111100000001000000010011010100 d#
b1111100000001000000010011010100 i#
b1111100000001000000010011010100 r#
b10011010010 S
b10011010010 ,"
b10011010010 7"
b10011010010 ?"
b10011010010 W#
1I"
b1000000000000 <"
b11110000000000000001001101001000 >
b11110000000000000001001101001000 x
b11110000000000000001001101001000 6"
b11110000000000000001001101001000 R"
b11110000000000000001001101001000 Z"
b11110000000000000001001101001000 a#
b11110000000000000001001101001000 o#
b10000 c#
b10000 q#
b0 Z
b0 ["
b0 U#
b1001100010000000000000000000000 N
b1001100010000000000000000000000 '"
b1001100010000000000000000000000 s"
b1001100010000000000000000000000 ##
b1001100010000000000000000000000 5#
b1001100010000000000000000000000 u#
b100 5
b100 o
b100 r"
b100 $#
b100 t#
b1000000000000001100000 O
b1000000000000001100000 ("
b1000000000000001100000 4"
b1000000000000001100000 P"
b1000000000000001100000 *$
b1001100000000000000010011010010 <
b1001100000000000000010011010010 v
b1001100000000000000010011010010 /"
b1001100000000000000010011010010 .$
b0 F
b0 ~
b0 3"
b0 +$
b10011010010 D
b10011010010 |
b10011010010 1"
b10011010010 ="
b10011010010 -$
b0 E
b0 }
b0 2"
b0 >"
b0 O"
b0 W"
b0 ,$
b11110000000000000001001101001000 R
b11110000000000000001001101001000 +"
b11110000000000000001001101001000 5"
b11110000000000000001001101001000 Q"
b11110000000000000001001101001000 X"
b11110000000000000001001101001000 )$
b0 ;
b0 u
b0 ."
b0 /$
b0 0
b0 j
b0 !$
b0 =$
b0 4
b0 n
b0 {#
b0 9$
b0 I$
b10000 n#
b1100 e#
b1000 ,
b1000 b
b1000 g#
b1000 s#
b1000 f#
b1000 h#
0T
#28000
b11110001000000000000000000000100 =
b11110001000000000000000000000100 w
b11110001000000000000000000000100 o"
b11110001000000000000000000000100 '#
b11110001000000000000000000000100 "$
#30000
1T
#35000
b1000100001 C
b1000100001 {
b1000100001 v"
b1000100001 &$
1y"
b1000100001 M
b1000100001 &"
b1000100001 q"
b1000100001 7#
0E#
18#
0M#
1J#
b10011010100 G
b10011010100 !"
b10011010100 p"
b10011010100 ,#
b10011010100 %$
b1 /
b1 i
b1 m"
b1 0#
b1 0$
b1000000000000001100000 %
b1000000000000001100000 ^
b1000000000000001100000 i"
b1000000000000001100000 z#
b1001100000000000000010011010010 '
b1001100000000000000010011010010 `
b1001100000000000000010011010010 g"
b1001100000000000000010011010010 x#
b10011010010 (
b10011010010 a
b10011010010 f"
b10011010010 S#
b10011010010 w#
b0 &
b0 _
b0 h"
b0 y#
b0 J
b0 $"
b0 c"
b0 T#
b10011010010 a"
b1001100010000000000000000000000 +
b1001100010000000000000000000000 e
b1001100010000000000000000000000 9"
b1001100010000000000000000000000 Y#
b100 *
b100 d
b100 :"
b100 Z#
b10011010100 n"
b10011010100 &#
b10011010100 )#
1P#
1O#
b1111100000001000000010011010100 $
b1111100000001000000010011010100 ]
b1111100000001000000010011010100 z"
b1111100000001000000010011010100 '$
b1000 #
b1000 \
b1000 {"
b1000 ($
b1 ~"
b1 -#
b0 }"
b0 2#
b11110000000100000001001101010000 (#
b1001100100000000000110000110101 P
b1001100100000000000110000110101 )"
b1001100100000000000110000110101 d#
b1001100100000000000110000110101 i#
b1001100100000000000110000110101 r#
b0 S
b0 ,"
b0 7"
b0 ?"
b0 W#
b11110001000000000000000000000100 >
b11110001000000000000000000000100 x
b11110001000000000000000000000100 6"
b11110001000000000000000000000100 R"
b11110001000000000000000000000100 Z"
b11110001000000000000000000000100 a#
b11110001000000000000000000000100 o#
b10100 c#
b10100 q#
b0 2
b0 l
b0 }#
b0 ;$
b0 J$
b1000000000000001100000 7
b1000000000000001100000 q
b1000000000000001100000 ]"
b1000000000000001100000 _#
b1001100000000000000010011010010 9
b1001100000000000000010011010010 s
b1001100000000000000010011010010 _"
b1001100000000000000010011010010 ]#
b0 6
b0 p
b0 \"
b0 `#
b10011010010 :
b10011010010 t
b10011010010 `"
b10011010010 \#
b0 8
b0 r
b0 ^"
b0 ^#
b1001100010000000000000000000000 <
b1001100010000000000000000000000 v
b1001100010000000000000000000000 /"
b1001100010000000000000000000000 .$
b0 D
b0 |
b0 1"
b0 ="
b0 -$
b11110001000000000000000000000100 R
b11110001000000000000000000000100 +"
b11110001000000000000000000000100 5"
b11110001000000000000000000000100 Q"
b11110001000000000000000000000100 X"
b11110001000000000000000000000100 )$
b100 ;
b100 u
b100 ."
b100 /$
b1111100000001000000010011010100 N
b1111100000001000000010011010100 '"
b1111100000001000000010011010100 s"
b1111100000001000000010011010100 ##
b1111100000001000000010011010100 5#
b1111100000001000000010011010100 u#
b1000 5
b1000 o
b1000 r"
b1000 $#
b1000 t#
b10100 n#
b10000 e#
b1100 ,
b1100 b
b1100 g#
b1100 s#
b1100 f#
b1100 h#
0T
#38000
b11110000000100000001001101011000 =
b11110000000100000001001101011000 w
b11110000000100000001001101011000 o"
b11110000000100000001001101011000 '#
b11110000000100000001001101011000 "$
#40000
1T
