processor_1.vcd
$date
	Thu Oct 17 13:07:17 2024
$end
$version
	Icarus Verilog
$end
$timescale
	1ps
$end
$scope module testbench $end
$scope module processor $end
$var wire 1 ! clk $end
$var wire 10 " nextPC [9:0] $end
$var wire 32 # IR [31:0] $end
$var reg 10 $ PC [9:0] $end
$var reg 10 % branchPC [9:0] $end
$var reg 1 & is_Branch_Taken $end
$var reg 1 ' reset $end
$scope module iFetch $end
$var wire 10 ( PC [9:0] $end
$var wire 10 ) branchPC [9:0] $end
$var wire 1 ! clk $end
$var wire 1 & is_Branch_Taken $end
$var wire 10 * nextPC [9:0] $end
$var wire 1 ' reset $end
$var wire 10 + mux_nextPC [9:0] $end
$var wire 32 , instruction [31:0] $end
$var reg 32 - IR [31:0] $end
$var reg 10 . address [9:0] $end
$scope module mem $end
$var wire 10 / address [9:0] $end
$var wire 1 ! clk $end
$var wire 32 0 writeData [31:0] $end
$var wire 1 1 writeEnable $end
$var reg 32 2 instruction [31:0] $end
$upscope $end
$scope module pc_mux $end
$var wire 10 3 input0 [9:0] $end
$var wire 10 4 input1 [9:0] $end
$var wire 1 & selectLine $end
$var reg 10 5 output_y [9:0] $end
$upscope $end
$upscope $end
$upscope $end
$upscope $end
$scope module testbench $end
$var wire 32 6 instruction [31:0] $end
$var reg 10 7 address [9:0] $end
$var reg 1 ! clk $end
$var reg 1 8 reset $end
$var reg 1 9 writeEnable $end
$var reg 32 : writeInstruction [31:0] $end
$var integer 32 ; i [31:0] $end
$scope module mem $end
$var wire 10 < address [9:0] $end
$var wire 1 ! clk $end
$var wire 32 = writeData [31:0] $end
$var wire 1 9 writeEnable $end
$var reg 32 > instruction [31:0] $end
$upscope $end
$scope module processor $end
$scope module iFetch $end
$scope module mem $end
$upscope $end
$scope module pc_mux $end
$upscope $end
$upscope $end
$upscope $end
$upscope $end
$enddefinitions $end
$comment Show the parameter values. $end
$dumpall
$end
#0
$dumpvars
bx >
bx =
bx <
bx ;
bx :
x9
18
bx 7
bx 6
bx 5
bx 4
b100 3
bx 2
01
b0 0
b0 /
b0 .
b0 -
bx ,
bx +
bx *
bx )
b0 (
1'
x&
bx %
b0 $
b0 #
bx "
0!
$end
#5000
1!
#10000
b0 7
b0 <
b1001100000000000000010011010010 :
b1001100000000000000010011010010 =
0!
19
b1 ;
08
#15000
1!
#20000
b1001100000000000000010011010010 6
b1001100000000000000010011010010 >
0!
#25000
1!
#30000
bx 6
bx >
b10 ;
b100 7
b100 <
b1001100010000000000000000000000 :
b1001100010000000000000000000000 =
0!
#35000
1!
#40000
b1001100010000000000000000000000 6
b1001100010000000000000000000000 >
0!
#45000
1!
#50000
bx 6
bx >
b11 ;
b1000 7
b1000 <
b1111100000001000000010011010100 :
b1111100000001000000010011010100 =
0!
#55000
1!
#60000
b1111100000001000000010011010100 6
b1111100000001000000010011010100 >
0!
#65000
1!
#70000
bx 6
bx >
b100 ;
b1100 7
b1100 <
b1001100100000000000110000110101 :
b1001100100000000000110000110101 =
0!
#75000
1!
#80000
b1001100100000000000110000110101 6
b1001100100000000000110000110101 >
0!
#85000
1!
#90000
bx 6
bx >
b101 ;
b10000 7
b10000 <
b1111100100010001111010101011011 :
b1111100100010001111010101011011 =
0!
#95000
1!
#100000
b1111100100010001111010101011011 6
b1111100100010001111010101011011 >
0!
#105000
1!
#110000
bx 6
bx >
b110 ;
b10100 7
b10100 <
b1110111100001000000010011010100 :
b1110111100001000000010011010100 =
0!
#115000
1!
#120000
b1110111100001000000010011010100 6
b1110111100001000000010011010100 >
0!
#125000
1!
#130000
bx 6
bx >
b111 ;
b11000 7
b11000 <
b1110111110010001111010101011011 :
b1110111110010001111010101011011 =
0!
#135000
1!
#140000
b1110111110010001111010101011011 6
b1110111110010001111010101011011 >
0!
#145000
1!
#150000
bx 6
bx >
b1000 ;
b11100 7
b11100 <
b1111100000001000000010011010100 :
b1111100000001000000010011010100 =
0!
#155000
1!
#160000
b1111100000001000000010011010100 6
b1111100000001000000010011010100 >
0!
#165000
1!
#170000
bx 6
bx >
b1001 ;
b100000 7
b100000 <
b1001100100000000000110000110101 :
b1001100100000000000110000110101 =
0!
#175000
1!
#180000
b1001100100000000000110000110101 6
b1001100100000000000110000110101 >
0!
#185000
1!
#190000
bx 6
bx >
b1010 ;
b100100 7
b100100 <
b1111100000001000000010011010100 :
b1111100000001000000010011010100 =
0!
#195000
1!
#200000
b1111100000001000000010011010100 6
b1111100000001000000010011010100 >
0!
#205000
1!
#210000
bx 6
bx >
b1011 ;
b101000 7
b101000 <
b1001100100000000000110000110101 :
b1001100100000000000110000110101 =
0!
#215000
1!
#220000
b1001100100000000000110000110101 6
b1001100100000000000110000110101 >
0!
#225000
1!
#230000
bx 6
bx >
b1100 ;
b101100 7
b101100 <
b1111100100010001111010101011011 :
b1111100100010001111010101011011 =
0!
#235000
1!
#240000
b1111100100010001111010101011011 6
b1111100100010001111010101011011 >
0!
#245000
1!
#250000
bx 6
bx >
b1101 ;
b110000 7
b110000 <
b1001100000000000000010011010010 :
b1001100000000000000010011010010 =
0!
#255000
1!
#260000
b1001100000000000000010011010010 6
b1001100000000000000010011010010 >
0!
#265000
1!
#270000
bx 6
bx >
b1110 ;
b110100 7
b110100 <
b1001100010000000000000000000000 :
b1001100010000000000000000000000 =
0!
#275000
1!
#280000
b1001100010000000000000000000000 6
b1001100010000000000000000000000 >
0!
#285000
1!
#290000
bx 6
bx >
b1111 ;
b111000 7
b111000 <
b1111100000001000000010011010100 :
b1111100000001000000010011010100 =
0!
#295000
1!
#300000
b1111100000001000000010011010100 6
b1111100000001000000010011010100 >
0!
#305000
1!
#310000
bx 6
bx >
b10000 ;
b111100 7
b111100 <
b1001100100000000000110000110101 :
b1001100100000000000110000110101 =
0!
#315000
1!
#320000
b1001100100000000000110000110101 6
b1001100100000000000110000110101 >
0!
#325000
1!
#330000
bx 6
bx >
b10001 ;
b1000000 7
b1000000 <
b1111100100010001111010101011011 :
b1111100100010001111010101011011 =
0!
#335000
1!
#340000
b1111100100010001111010101011011 6
b1111100100010001111010101011011 >
0!
#345000
1!
#350000
bx 6
bx >
b10010 ;
b1000100 7
b1000100 <
b1110111100001000000010011010100 :
b1110111100001000000010011010100 =
0!
#355000
1!
#360000
b1110111100001000000010011010100 6
b1110111100001000000010011010100 >
0!
#365000
1!
#370000
bx 6
bx >
b10011 ;
b1001000 7
b1001000 <
b1110111110010001111010101011011 :
b1110111110010001111010101011011 =
0!
#375000
1!
#380000
b1110111110010001111010101011011 6
b1110111110010001111010101011011 >
0!
#385000
1!
#390000
bx 6
bx >
b10100 ;
b1001100 7
b1001100 <
b1111100000001000000010011010100 :
b1111100000001000000010011010100 =
0!
#395000
1!
#400000
b1111100000001000000010011010100 6
b1111100000001000000010011010100 >
0!
#405000
1!
#410000
bx 6
bx >
b10101 ;
b1010000 7
b1010000 <
b1001100100000000000110000110101 :
b1001100100000000000110000110101 =
0!
#415000
1!
#420000
b1001100100000000000110000110101 6
b1001100100000000000110000110101 >
0!
#425000
1!
#430000
bx 6
bx >
b10110 ;
b1010100 7
b1010100 <
b1111100000001000000010011010100 :
b1111100000001000000010011010100 =
0!
#435000
1!
#440000
b1111100000001000000010011010100 6
b1111100000001000000010011010100 >
0!
#445000
1!
#450000
bx 6
bx >
b10111 ;
b1011000 7
b1011000 <
b1001100100000000000110000110101 :
b1001100100000000000110000110101 =
0!
#455000
1!
#460000
b1001100100000000000110000110101 6
b1001100100000000000110000110101 >
0!
#465000
1!
#470000
bx 6
bx >
b11000 ;
b1011100 7
b1011100 <
b1111100100010001111010101011011 :
b1111100100010001111010101011011 =
0!
#475000
1!
#480000
b1111100100010001111010101011011 6
b1111100100010001111010101011011 >
0!
#485000
1!
#490000
bx 6
bx >
b11001 ;
b1100000 7
b1100000 <
b1001100000000000000010011010010 :
b1001100000000000000010011010010 =
0!
#495000
1!
#500000
b1001100000000000000010011010010 6
b1001100000000000000010011010010 >
0!
#505000
1!
#510000
bx 6
bx >
b11010 ;
b1100100 7
b1100100 <
b1001100010000000000000000000000 :
b1001100010000000000000000000000 =
0!
#515000
1!
#520000
b1001100010000000000000000000000 6
b1001100010000000000000000000000 >
0!
#525000
1!
#530000
bx 6
bx >
b11011 ;
b1101000 7
b1101000 <
b1111100000001000000010011010100 :
b1111100000001000000010011010100 =
0!
#535000
1!
#540000
b1111100000001000000010011010100 6
b1111100000001000000010011010100 >
0!
#545000
1!
#550000
bx 6
bx >
b11100 ;
b1101100 7
b1101100 <
b1001100100000000000110000110101 :
b1001100100000000000110000110101 =
0!
#555000
1!
#560000
b1001100100000000000110000110101 6
b1001100100000000000110000110101 >
0!
#565000
1!
#570000
bx 6
bx >
b11101 ;
b1110000 7
b1110000 <
b1111100100010001111010101011011 :
b1111100100010001111010101011011 =
0!
#575000
1!
#580000
b1111100100010001111010101011011 6
b1111100100010001111010101011011 >
0!
#585000
1!
#590000
bx 6
bx >
b11110 ;
b1110100 7
b1110100 <
b1110111100001000000010011010100 :
b1110111100001000000010011010100 =
0!
#595000
1!
#600000
b1110111100001000000010011010100 6
b1110111100001000000010011010100 >
0!
#605000
1!
#610000
bx 6
bx >
b11111 ;
b1111000 7
b1111000 <
b1110111110010001111010101011011 :
b1110111110010001111010101011011 =
0!
#615000
1!
#620000
b1110111110010001111010101011011 6
b1110111110010001111010101011011 >
0!
#625000
1!
#630000
bx 6
bx >
b100000 ;
b1111100 7
b1111100 <
b1111100000001000000010011010100 :
b1111100000001000000010011010100 =
0!
#635000
1!
#640000
b1111100000001000000010011010100 6
b1111100000001000000010011010100 >
0!
#645000
1!
#650000
bx 6
bx >
b100001 ;
b10000000 7
b10000000 <
b1001100100000000000110000110101 :
b1001100100000000000110000110101 =
0!
#655000
1!
#660000
b1001100100000000000110000110101 6
b1001100100000000000110000110101 >
0!
#665000
1!
#670000
bx 6
bx >
b100010 ;
b10000100 7
b10000100 <
b1111100000001000000010011010100 :
b1111100000001000000010011010100 =
0!
#675000
1!
#680000
b1111100000001000000010011010100 6
b1111100000001000000010011010100 >
0!
#685000
1!
#690000
bx 6
bx >
b100011 ;
b10001000 7
b10001000 <
b1001100100000000000110000110101 :
b1001100100000000000110000110101 =
0!
#695000
1!
#700000
b1001100100000000000110000110101 6
b1001100100000000000110000110101 >
0!
#705000
1!
#710000
bx 6
bx >
b100100 ;
b10001100 7
b10001100 <
b1111100100010001111010101011011 :
b1111100100010001111010101011011 =
0!
#715000
1!
#720000
b1111100100010001111010101011011 6
b1111100100010001111010101011011 >
0!
#725000
1!
#730000
bx 6
bx >
b100101 ;
b10010000 7
b10010000 <
b1001100000000000000010011010010 :
b1001100000000000000010011010010 =
0!
#735000
1!
#740000
b1001100000000000000010011010010 6
b1001100000000000000010011010010 >
0!
#745000
1!
#750000
bx 6
bx >
b100110 ;
b10010100 7
b10010100 <
b1001100010000000000000000000000 :
b1001100010000000000000000000000 =
0!
#755000
1!
#760000
b1001100010000000000000000000000 6
b1001100010000000000000000000000 >
0!
#765000
1!
#770000
bx 6
bx >
b100111 ;
b10011000 7
b10011000 <
b1111100000001000000010011010100 :
b1111100000001000000010011010100 =
0!
#775000
1!
#780000
b1111100000001000000010011010100 6
b1111100000001000000010011010100 >
0!
#785000
1!
#790000
bx 6
bx >
b101000 ;
b10011100 7
b10011100 <
b1001100100000000000110000110101 :
b1001100100000000000110000110101 =
0!
#795000
1!
#800000
b1001100100000000000110000110101 6
b1001100100000000000110000110101 >
0!
#805000
1!
#810000
bx 6
bx >
b101001 ;
b10100000 7
b10100000 <
b1111100100010001111010101011011 :
b1111100100010001111010101011011 =
0!
#815000
1!
#820000
b1111100100010001111010101011011 6
b1111100100010001111010101011011 >
0!
#825000
1!
#830000
bx 6
bx >
b101010 ;
b10100100 7
b10100100 <
b1110111100001000000010011010100 :
b1110111100001000000010011010100 =
0!
#835000
1!
#840000
b1110111100001000000010011010100 6
b1110111100001000000010011010100 >
0!
#845000
1!
#850000
bx 6
bx >
b101011 ;
b10101000 7
b10101000 <
b1110111110010001111010101011011 :
b1110111110010001111010101011011 =
0!
#855000
1!
#860000
b1110111110010001111010101011011 6
b1110111110010001111010101011011 >
0!
#865000
1!
#870000
bx 6
bx >
b101100 ;
b10101100 7
b10101100 <
b1111100000001000000010011010100 :
b1111100000001000000010011010100 =
0!
#875000
1!
#880000
b1111100000001000000010011010100 6
b1111100000001000000010011010100 >
0!
#885000
1!
#890000
bx 6
bx >
b101101 ;
b10110000 7
b10110000 <
b1001100100000000000110000110101 :
b1001100100000000000110000110101 =
0!
#895000
1!
#900000
b1001100100000000000110000110101 6
b1001100100000000000110000110101 >
0!
#905000
1!
#910000
bx 6
bx >
b101110 ;
b10110100 7
b10110100 <
b1111100000001000000010011010100 :
b1111100000001000000010011010100 =
0!
#915000
1!
#920000
b1111100000001000000010011010100 6
b1111100000001000000010011010100 >
0!
#925000
1!
#930000
bx 6
bx >
b101111 ;
b10111000 7
b10111000 <
b1001100100000000000110000110101 :
b1001100100000000000110000110101 =
0!
#935000
1!
#940000
b1001100100000000000110000110101 6
b1001100100000000000110000110101 >
0!
#945000
1!
#950000
bx 6
bx >
b110000 ;
b10111100 7
b10111100 <
b1111100100010001111010101011011 :
b1111100100010001111010101011011 =
0!
#955000
1!
#960000
b1111100100010001111010101011011 6
b1111100100010001111010101011011 >
0!
#965000
1!
#970000
bx 6
bx >
b110001 ;
b11000000 7
b11000000 <
b1001100000000000000010011010010 :
b1001100000000000000010011010010 =
0!
#975000
1!
#980000
b1001100000000000000010011010010 6
b1001100000000000000010011010010 >
0!
#985000
1!
#990000
bx 6
bx >
b110010 ;
b11000100 7
b11000100 <
b1001100010000000000000000000000 :
b1001100010000000000000000000000 =
0!
#995000
1!
#1000000
b1001100010000000000000000000000 6
b1001100010000000000000000000000 >
0!
#1005000
1!
#1010000
bx 6
bx >
b110011 ;
b11001000 7
b11001000 <
b1111100000001000000010011010100 :
b1111100000001000000010011010100 =
0!
#1015000
1!
#1020000
b1111100000001000000010011010100 6
b1111100000001000000010011010100 >
0!
#1025000
1!
#1030000
bx 6
bx >
b110100 ;
b11001100 7
b11001100 <
b1001100100000000000110000110101 :
b1001100100000000000110000110101 =
0!
#1035000
1!
#1040000
b1001100100000000000110000110101 6
b1001100100000000000110000110101 >
0!
#1045000
1!
#1050000
bx 6
bx >
b110101 ;
b11010000 7
b11010000 <
b1111100100010001111010101011011 :
b1111100100010001111010101011011 =
0!
#1055000
1!
#1060000
b1111100100010001111010101011011 6
b1111100100010001111010101011011 >
0!
#1065000
1!
#1070000
bx 6
bx >
b110110 ;
b11010100 7
b11010100 <
b1110111100001000000010011010100 :
b1110111100001000000010011010100 =
0!
#1075000
1!
#1080000
b1110111100001000000010011010100 6
b1110111100001000000010011010100 >
0!
#1085000
1!
#1090000
bx 6
bx >
b110111 ;
b11011000 7
b11011000 <
b1110111110010001111010101011011 :
b1110111110010001111010101011011 =
0!
#1095000
1!
#1100000
b1110111110010001111010101011011 6
b1110111110010001111010101011011 >
0!
#1105000
1!
#1110000
bx 6
bx >
b111000 ;
b11011100 7
b11011100 <
b1111100000001000000010011010100 :
b1111100000001000000010011010100 =
0!
#1115000
1!
#1120000
b1111100000001000000010011010100 6
b1111100000001000000010011010100 >
0!
#1125000
1!
#1130000
bx 6
bx >
b111001 ;
b11100000 7
b11100000 <
b1001100100000000000110000110101 :
b1001100100000000000110000110101 =
0!
#1135000
1!
#1140000
b1001100100000000000110000110101 6
b1001100100000000000110000110101 >
0!
#1145000
1!
#1150000
bx 6
bx >
b111010 ;
b11100100 7
b11100100 <
b1111100000001000000010011010100 :
b1111100000001000000010011010100 =
0!
#1155000
1!
#1160000
b1111100000001000000010011010100 6
b1111100000001000000010011010100 >
0!
#1165000
1!
#1170000
bx 6
bx >
b111011 ;
b11101000 7
b11101000 <
b1001100100000000000110000110101 :
b1001100100000000000110000110101 =
0!
#1175000
1!
#1180000
b1001100100000000000110000110101 6
b1001100100000000000110000110101 >
0!
#1185000
1!
#1190000
bx 6
bx >
b111100 ;
b11101100 7
b11101100 <
b1111100100010001111010101011011 :
b1111100100010001111010101011011 =
0!
#1195000
1!
#1200000
b1111100100010001111010101011011 6
b1111100100010001111010101011011 >
0!
#1205000
1!
#1210000
bx 6
bx >
b111101 ;
b11110000 7
b11110000 <
b1001100000000000000010011010010 :
b1001100000000000000010011010010 =
0!
#1215000
1!
#1220000
b1001100000000000000010011010010 6
b1001100000000000000010011010010 >
0!
#1225000
1!
#1230000
bx 6
bx >
b111110 ;
b11110100 7
b11110100 <
b1001100010000000000000000000000 :
b1001100010000000000000000000000 =
0!
#1235000
1!
#1240000
b1001100010000000000000000000000 6
b1001100010000000000000000000000 >
0!
#1245000
1!
#1250000
bx 6
bx >
b111111 ;
b11111000 7
b11111000 <
b1111100000001000000010011010100 :
b1111100000001000000010011010100 =
0!
#1255000
1!
#1260000
b1111100000001000000010011010100 6
b1111100000001000000010011010100 >
0!
#1265000
1!
#1270000
bx 6
bx >
b1000000 ;
b11111100 7
b11111100 <
b1001100100000000000110000110101 :
b1001100100000000000110000110101 =
0!
#1275000
1!
#1280000
b1001100100000000000110000110101 6
b1001100100000000000110000110101 >
0!
#1285000
1!
#1290000
bx 6
bx >
b1000001 ;
b100000000 7
b100000000 <
b1111100100010001111010101011011 :
b1111100100010001111010101011011 =
0!
#1295000
1!
#1300000
b1111100100010001111010101011011 6
b1111100100010001111010101011011 >
0!
#1305000
1!
#1310000
bx 6
bx >
b1000010 ;
b100000100 7
b100000100 <
b1110111100001000000010011010100 :
b1110111100001000000010011010100 =
0!
#1315000
1!
#1320000
b1110111100001000000010011010100 6
b1110111100001000000010011010100 >
0!
#1325000
1!
#1330000
bx 6
bx >
b1000011 ;
b100001000 7
b100001000 <
b1110111110010001111010101011011 :
b1110111110010001111010101011011 =
0!
#1335000
1!
#1340000
b1110111110010001111010101011011 6
b1110111110010001111010101011011 >
0!
#1345000
1!
#1350000
bx 6
bx >
b1000100 ;
b100001100 7
b100001100 <
b1111100000001000000010011010100 :
b1111100000001000000010011010100 =
0!
#1355000
1!
#1360000
b1111100000001000000010011010100 6
b1111100000001000000010011010100 >
0!
#1365000
1!
#1370000
bx 6
bx >
b1000101 ;
b100010000 7
b100010000 <
b1001100100000000000110000110101 :
b1001100100000000000110000110101 =
0!
#1375000
1!
#1380000
b1001100100000000000110000110101 6
b1001100100000000000110000110101 >
0!
#1385000
1!
#1390000
bx 6
bx >
b1000110 ;
b100010100 7
b100010100 <
b1111100000001000000010011010100 :
b1111100000001000000010011010100 =
0!
#1395000
1!
#1400000
b1111100000001000000010011010100 6
b1111100000001000000010011010100 >
0!
#1405000
1!
#1410000
bx 6
bx >
b1000111 ;
b100011000 7
b100011000 <
b1001100100000000000110000110101 :
b1001100100000000000110000110101 =
0!
#1415000
1!
#1420000
b1001100100000000000110000110101 6
b1001100100000000000110000110101 >
0!
#1425000
1!
#1430000
bx 6
bx >
b1001000 ;
b100011100 7
b100011100 <
b1111100100010001111010101011011 :
b1111100100010001111010101011011 =
0!
#1435000
1!
#1440000
b1111100100010001111010101011011 6
b1111100100010001111010101011011 >
0!
#1445000
1!
#1450000
bx 6
bx >
b1001001 ;
b100100000 7
b100100000 <
b1001100000000000000010011010010 :
b1001100000000000000010011010010 =
0!
#1455000
1!
#1460000
b1001100000000000000010011010010 6
b1001100000000000000010011010010 >
0!
#1465000
1!
#1470000
bx 6
bx >
b1001010 ;
b100100100 7
b100100100 <
b1001100010000000000000000000000 :
b1001100010000000000000000000000 =
0!
#1475000
1!
#1480000
b1001100010000000000000000000000 6
b1001100010000000000000000000000 >
0!
#1485000
1!
#1490000
bx 6
bx >
b1001011 ;
b100101000 7
b100101000 <
b1111100000001000000010011010100 :
b1111100000001000000010011010100 =
0!
#1495000
1!
#1500000
b1111100000001000000010011010100 6
b1111100000001000000010011010100 >
0!
#1505000
1!
#1510000
bx 6
bx >
b1001100 ;
b100101100 7
b100101100 <
b1001100100000000000110000110101 :
b1001100100000000000110000110101 =
0!
#1515000
1!
#1520000
b1001100100000000000110000110101 6
b1001100100000000000110000110101 >
0!
#1525000
1!
#1530000
bx 6
bx >
b1001101 ;
b100110000 7
b100110000 <
b1111100100010001111010101011011 :
b1111100100010001111010101011011 =
0!
#1535000
1!
#1540000
b1111100100010001111010101011011 6
b1111100100010001111010101011011 >
0!
#1545000
1!
#1550000
bx 6
bx >
b1001110 ;
b100110100 7
b100110100 <
b1110111100001000000010011010100 :
b1110111100001000000010011010100 =
0!
#1555000
1!
#1560000
b1110111100001000000010011010100 6
b1110111100001000000010011010100 >
0!
#1565000
1!
#1570000
bx 6
bx >
b1001111 ;
b100111000 7
b100111000 <
b1110111110010001111010101011011 :
b1110111110010001111010101011011 =
0!
#1575000
1!
#1580000
b1110111110010001111010101011011 6
b1110111110010001111010101011011 >
0!
#1585000
1!
#1590000
bx 6
bx >
b1010000 ;
b100111100 7
b100111100 <
b1111100000001000000010011010100 :
b1111100000001000000010011010100 =
0!
#1595000
1!
#1600000
b1111100000001000000010011010100 6
b1111100000001000000010011010100 >
0!
#1605000
1!
#1610000
bx 6
bx >
b1010001 ;
b101000000 7
b101000000 <
b1001100100000000000110000110101 :
b1001100100000000000110000110101 =
0!
#1615000
1!
#1620000
b1001100100000000000110000110101 6
b1001100100000000000110000110101 >
0!
#1625000
1!
#1630000
bx 6
bx >
b1010010 ;
b101000100 7
b101000100 <
b1111100000001000000010011010100 :
b1111100000001000000010011010100 =
0!
#1635000
1!
#1640000
b1111100000001000000010011010100 6
b1111100000001000000010011010100 >
0!
#1645000
1!
#1650000
bx 6
bx >
b1010011 ;
b101001000 7
b101001000 <
b1001100100000000000110000110101 :
b1001100100000000000110000110101 =
0!
#1655000
1!
#1660000
b1001100100000000000110000110101 6
b1001100100000000000110000110101 >
0!
#1665000
1!
#1670000
bx 6
bx >
b1010100 ;
b101001100 7
b101001100 <
b1111100100010001111010101011011 :
b1111100100010001111010101011011 =
0!
#1675000
1!
#1680000
b1111100100010001111010101011011 6
b1111100100010001111010101011011 >
0!
#1685000
1!
#1690000
bx 6
bx >
b1010101 ;
b101010000 7
b101010000 <
b1001100000000000000010011010010 :
b1001100000000000000010011010010 =
0!
#1695000
1!
#1700000
b1001100000000000000010011010010 6
b1001100000000000000010011010010 >
0!
#1705000
1!
#1710000
bx 6
bx >
b1010110 ;
b101010100 7
b101010100 <
b1001100010000000000000000000000 :
b1001100010000000000000000000000 =
0!
#1715000
1!
#1720000
b1001100010000000000000000000000 6
b1001100010000000000000000000000 >
0!
#1725000
1!
#1730000
bx 6
bx >
b1010111 ;
b101011000 7
b101011000 <
b1111100000001000000010011010100 :
b1111100000001000000010011010100 =
0!
#1735000
1!
#1740000
b1111100000001000000010011010100 6
b1111100000001000000010011010100 >
0!
#1745000
1!
#1750000
bx 6
bx >
b1011000 ;
b101011100 7
b101011100 <
b1001100100000000000110000110101 :
b1001100100000000000110000110101 =
0!
#1755000
1!
#1760000
b1001100100000000000110000110101 6
b1001100100000000000110000110101 >
0!
#1765000
1!
#1770000
bx 6
bx >
b1011001 ;
b101100000 7
b101100000 <
b1111100100010001111010101011011 :
b1111100100010001111010101011011 =
0!
#1775000
1!
#1780000
b1111100100010001111010101011011 6
b1111100100010001111010101011011 >
0!
#1785000
1!
#1790000
bx 6
bx >
b1011010 ;
b101100100 7
b101100100 <
b1110111100001000000010011010100 :
b1110111100001000000010011010100 =
0!
#1795000
1!
#1800000
b1110111100001000000010011010100 6
b1110111100001000000010011010100 >
0!
#1805000
1!
#1810000
bx 6
bx >
b1011011 ;
b101101000 7
b101101000 <
b1110111110010001111010101011011 :
b1110111110010001111010101011011 =
0!
#1815000
1!
#1820000
b1110111110010001111010101011011 6
b1110111110010001111010101011011 >
0!
#1825000
1!
#1830000
bx 6
bx >
b1011100 ;
b101101100 7
b101101100 <
b1111100000001000000010011010100 :
b1111100000001000000010011010100 =
0!
#1835000
1!
#1840000
b1111100000001000000010011010100 6
b1111100000001000000010011010100 >
0!
#1845000
1!
#1850000
bx 6
bx >
b1011101 ;
b101110000 7
b101110000 <
b1001100100000000000110000110101 :
b1001100100000000000110000110101 =
0!
#1855000
1!
#1860000
b1001100100000000000110000110101 6
b1001100100000000000110000110101 >
0!
#1865000
1!
#1870000
bx 6
bx >
b1011110 ;
b101110100 7
b101110100 <
b1111100000001000000010011010100 :
b1111100000001000000010011010100 =
0!
#1875000
1!
#1880000
b1111100000001000000010011010100 6
b1111100000001000000010011010100 >
0!
#1885000
1!
#1890000
bx 6
bx >
b1011111 ;
b101111000 7
b101111000 <
b1001100100000000000110000110101 :
b1001100100000000000110000110101 =
0!
#1895000
1!
#1900000
b1001100100000000000110000110101 6
b1001100100000000000110000110101 >
0!
#1905000
1!
#1910000
bx 6
bx >
b1100000 ;
b101111100 7
b101111100 <
b1111100100010001111010101011011 :
b1111100100010001111010101011011 =
0!
#1915000
1!
#1920000
b1111100100010001111010101011011 6
b1111100100010001111010101011011 >
0!
#1925000
1!
#1930000
bx 6
bx >
b1100001 ;
b110000000 7
b110000000 <
b1001100000000000000010011010010 :
b1001100000000000000010011010010 =
0!
#1935000
1!
#1940000
b1001100000000000000010011010010 6
b1001100000000000000010011010010 >
0!
#1945000
1!
#1950000
bx 6
bx >
b1100010 ;
b110000100 7
b110000100 <
b1001100010000000000000000000000 :
b1001100010000000000000000000000 =
0!
#1955000
1!
#1960000
b1001100010000000000000000000000 6
b1001100010000000000000000000000 >
0!
#1965000
1!
#1970000
bx 6
bx >
b1100011 ;
b110001000 7
b110001000 <
b1111100000001000000010011010100 :
b1111100000001000000010011010100 =
0!
#1975000
1!
#1980000
b1111100000001000000010011010100 6
b1111100000001000000010011010100 >
0!
#1985000
1!
#1990000
bx 6
bx >
b1100100 ;
b110001100 7
b110001100 <
b1001100100000000000110000110101 :
b1001100100000000000110000110101 =
0!
#1995000
1!
#2000000
b1001100100000000000110000110101 6
b1001100100000000000110000110101 >
0!
