processor.vcd
$date
	Fri Nov 01 11:31:24 2024
$end
$version
	Icarus Verilog
$end
$timescale
	1ps
$end
$scope module testbench $end
$var wire 1 ! reset $end
$var wire 32 " output_register_file [31:0] $end
$var wire 32 # output_OF_PC [31:0] $end
$var wire 32 $ output_OF_IR [31:0] $end
$var wire 22 % output_MA_controlBus [21:0] $end
$var wire 32 & output_MA_PC [31:0] $end
$var wire 32 ' output_MA_IR [31:0] $end
$var wire 32 ( output_MA_ALU_Result [31:0] $end
$var wire 22 ) output_EX_controlBus [21:0] $end
$var wire 32 * output_EX_PC [31:0] $end
$var wire 32 + output_EX_IR [31:0] $end
$var wire 32 , outputPC [31:0] $end
$var wire 32 - op2 [31:0] $end
$var wire 32 . op1 [31:0] $end
$var wire 1 / is_Branch_Taken $end
$var wire 4 0 isStore_result [3:0] $end
$var wire 4 1 isReturn_result [3:0] $end
$var wire 1 2 isDataInterLock $end
$var wire 22 3 input_RW_controlBus [21:0] $end
$var wire 32 4 input_RW_PC [31:0] $end
$var wire 32 5 input_RW_Ld_Result [31:0] $end
$var wire 32 6 input_RW_IR [31:0] $end
$var wire 32 7 input_RW_ALU_Result [31:0] $end
$var wire 32 8 input_OF_PC [31:0] $end
$var wire 32 9 input_MA_op2 [31:0] $end
$var wire 22 : input_MA_controlBus [21:0] $end
$var wire 32 ; input_MA_PC [31:0] $end
$var wire 32 < input_MA_IR [31:0] $end
$var wire 32 = input_MA_ALU_Result [31:0] $end
$var wire 32 > input_EX_PC [31:0] $end
$var wire 32 ? input_EX_IR [31:0] $end
$var wire 32 @ branchTarget [31:0] $end
$var wire 32 A branchPC [31:0] $end
$var wire 4 B RW_rd [3:0] $end
$var wire 1 C RW_isWb $end
$var wire 32 D RW_Data_value [31:0] $end
$var wire 32 E PC [31:0] $end
$var wire 22 F Output_OF_controlBus [21:0] $end
$var wire 32 G Operand_EX_B [31:0] $end
$var wire 32 H Operand_EX_A [31:0] $end
$var wire 32 I Operand_EX_2 [31:0] $end
$var wire 32 J Operand_B [31:0] $end
$var wire 32 K Operand_A [31:0] $end
$var wire 32 L Operand_2 [31:0] $end
$var wire 32 M MDR [31:0] $end
$var wire 1 N MA_writeEnable $end
$var wire 32 O MA_Ld_Result [31:0] $end
$var wire 22 P Input_OF_controlBus [21:0] $end
$var wire 32 Q Input_OF_IR [31:0] $end
$var wire 22 R Input_EX_controlBus [21:0] $end
$var wire 32 S IR [31:0] $end
$var wire 32 T EX_op2 [31:0] $end
$var wire 32 U EX_branchTarget [31:0] $end
$var wire 32 V ALU_Result [31:0] $end
$var reg 1 W clk $end
$scope module processor $end
$var wire 32 X EX_branchPC [31:0] $end
$var wire 1 Y EX_is_Branch_Taken $end
$var wire 32 Z address [31:0] $end
$var wire 1 W clk $end
$var wire 32 [ rdData1 [31:0] $end
$var wire 32 \ rdData2 [31:0] $end
$var wire 32 ] writeData [31:0] $end
$var wire 1 ^ writeEnable $end
$var wire 32 _ readData [31:0] $end
$var wire 32 ` output_register_file [31:0] $end
$var wire 32 a output_OF_PC [31:0] $end
$var wire 32 b output_OF_IR [31:0] $end
$var wire 22 c output_MA_controlBus [21:0] $end
$var wire 32 d output_MA_PC [31:0] $end
$var wire 32 e output_MA_IR [31:0] $end
$var wire 32 f output_MA_ALU_Result [31:0] $end
$var wire 32 g output_IF_PC [31:0] $end
$var wire 22 h output_EX_controlBus [21:0] $end
$var wire 32 i output_EX_PC [31:0] $end
$var wire 32 j output_EX_IR [31:0] $end
$var wire 32 k op2 [31:0] $end
$var wire 32 l op1 [31:0] $end
$var wire 1 / is_Branch_Taken $end
$var wire 4 m isStore_result [3:0] $end
$var wire 4 n isReturn_result [3:0] $end
$var wire 1 2 isDataInterLock $end
$var wire 22 o input_RW_controlBus [21:0] $end
$var wire 32 p input_RW_PC [31:0] $end
$var wire 32 q input_RW_Ld_Result [31:0] $end
$var wire 32 r input_RW_IR [31:0] $end
$var wire 32 s input_RW_ALU_Result [31:0] $end
$var wire 32 t input_OF_PC [31:0] $end
$var wire 32 u input_MA_op2 [31:0] $end
$var wire 22 v input_MA_controlBus [21:0] $end
$var wire 32 w input_MA_PC [31:0] $end
$var wire 32 x input_MA_IR [31:0] $end
$var wire 32 y input_MA_ALU_Result [31:0] $end
$var wire 32 z input_EX_PC [31:0] $end
$var wire 32 { input_EX_IR [31:0] $end
$var wire 32 | branchTarget [31:0] $end
$var wire 32 } branchPC [31:0] $end
$var wire 4 ~ RW_rd [3:0] $end
$var wire 1 C RW_isWb $end
$var wire 32 !" RW_Data_value [31:0] $end
$var wire 22 "" Output_OF_controlBus [21:0] $end
$var wire 32 #" Operand_OF_B [31:0] $end
$var wire 32 $" Operand_OF_A [31:0] $end
$var wire 32 %" Operand_EX_B [31:0] $end
$var wire 32 &" Operand_EX_A [31:0] $end
$var wire 32 '" Operand_EX_2 [31:0] $end
$var wire 32 (" Operand_2 [31:0] $end
$var wire 32 )" MDR [31:0] $end
$var wire 1 N MA_writeEnable $end
$var wire 32 *" MA_Ld_Result [31:0] $end
$var wire 22 +" Input_OF_controlBus [21:0] $end
$var wire 32 ," Input_OF_IR [31:0] $end
$var wire 22 -" Input_EX_controlBus [21:0] $end
$var wire 32 ." IR [31:0] $end
$var wire 32 /" EX_op2 [31:0] $end
$var wire 32 0" EX_branchTarget [31:0] $end
$var wire 32 1" ALU_Result [31:0] $end
$var reg 32 2" PC [31:0] $end
$var reg 1 ! reset $end
$scope module ALU_cycle $end
$var wire 32 3" input_EX_PC [31:0] $end
$var wire 32 4" input_EX_IR [31:0] $end
$var wire 2 5" flags [1:0] $end
$var wire 32 6" Operand_EX_B [31:0] $end
$var wire 32 7" Operand_EX_A [31:0] $end
$var wire 32 8" Operand_EX_2 [31:0] $end
$var wire 22 9" Input_EX_controlBus [21:0] $end
$var wire 1 / EX_is_Branch_Taken $end
$var wire 32 :" EX_branchTarget [31:0] $end
$var wire 32 ;" EX_branchPC [31:0] $end
$var wire 32 <" ALU_Result [31:0] $end
$var reg 32 =" EX_op2 [31:0] $end
$var reg 32 >" output_EX_IR [31:0] $end
$var reg 32 ?" output_EX_PC [31:0] $end
$var reg 22 @" output_EX_controlBus [21:0] $end
$scope module ALU_module $end
$var wire 13 A" ALU_Signals [21:9] $end
$var wire 32 B" Operand_EX_B [31:0] $end
$var wire 32 C" Operand_EX_A [31:0] $end
$var reg 32 D" EX_ALU_Result [31:0] $end
$var reg 2 E" flags [1:0] $end
$var reg 1 F" isAdd $end
$var reg 1 G" isAnd $end
$var reg 1 H" isAsr $end
$var reg 1 I" isCmp $end
$var reg 1 J" isDiv $end
$var reg 1 K" isLsl $end
$var reg 1 L" isLsr $end
$var reg 1 M" isMod $end
$var reg 1 N" isMov $end
$var reg 1 O" isMul $end
$var reg 1 P" isNot $end
$var reg 1 Q" isOr $end
$var reg 1 R" isSub $end
$upscope $end
$scope module branchUnit $end
$var wire 2 S" flags [1:0] $end
$var wire 32 T" Operand_EX_A [31:0] $end
$var wire 22 U" Input_EX_controlBus [21:0] $end
$var wire 32 V" EX_branchTarget [31:0] $end
$var wire 32 W" EX_branchPC [31:0] $end
$var reg 1 / EX_is_Branch_Taken $end
$var reg 1 X" isBeq $end
$var reg 1 Y" isBgt $end
$var reg 1 Z" isRet $end
$var reg 1 [" isUbranch $end
$scope module isReturn_mux $end
$var wire 1 Z" selectLine $end
$var wire 32 \" input1 [31:0] $end
$var wire 32 ]" input0 [31:0] $end
$var parameter 32 ^" regSize $end
$var reg 32 _" output_y [31:0] $end
$upscope $end
$upscope $end
$upscope $end
$scope module MA_cycle $end
$var wire 32 `" readData [31:0] $end
$var wire 32 a" input_MA_op2 [31:0] $end
$var wire 22 b" input_MA_controlBus [21:0] $end
$var wire 32 c" input_MA_PC [31:0] $end
$var wire 32 d" input_MA_IR [31:0] $end
$var wire 32 e" input_MA_ALU_Result [31:0] $end
$var reg 32 f" MAR [31:0] $end
$var reg 32 g" MA_Ld_Result [31:0] $end
$var reg 1 N MA_writeEnable $end
$var reg 32 h" MDR [31:0] $end
$var reg 1 i" isLd $end
$var reg 1 j" isSt $end
$var reg 32 k" output_MA_ALU_Result [31:0] $end
$var reg 32 l" output_MA_IR [31:0] $end
$var reg 32 m" output_MA_PC [31:0] $end
$var reg 22 n" output_MA_controlBus [21:0] $end
$upscope $end
$scope module OperandFetch $end
$var wire 32 o" op2 [31:0] $end
$var wire 32 p" op1 [31:0] $end
$var wire 4 q" isStore_result [3:0] $end
$var wire 4 r" isReturn_result [3:0] $end
$var wire 32 s" immediateVlaue [31:0] $end
$var wire 32 t" branchTarget [31:0] $end
$var wire 32 u" Operand_B [31:0] $end
$var wire 22 v" Input_OF_controlBus [21:0] $end
$var wire 32 w" Input_OF_PC [31:0] $end
$var wire 32 x" Input_OF_IR [31:0] $end
$var reg 32 y" Operand_2 [31:0] $end
$var reg 32 z" Operand_A [31:0] $end
$var reg 22 {" Output_OF_controlBus [21:0] $end
$var reg 1 |" isImmediate $end
$var reg 1 }" isReturn $end
$var reg 1 ~" isStore $end
$var reg 32 !# output_OF_IR [31:0] $end
$var reg 32 "# output_OF_PC [31:0] $end
$var reg 4 ## ra [3:0] $end
$var reg 4 $# rd [3:0] $end
$var reg 4 %# rs1 [3:0] $end
$var reg 4 &# rs2 [3:0] $end
$scope module calc_Immx_branchTarget $end
$var wire 1 '# uModifier $end
$var wire 32 (# instruction [31:0] $end
$var wire 32 )# input_OF_PC [31:0] $end
$var wire 1 *# hModifier $end
$var reg 32 +# Immx [31:0] $end
$var reg 32 ,# branchTarget [31:0] $end
$var reg 32 -# tempBranchTarget [31:0] $end
$upscope $end
$scope module isImmediate_mux $end
$var wire 32 .# input1 [31:0] $end
$var wire 1 |" selectLine $end
$var wire 32 /# input0 [31:0] $end
$var parameter 32 0# regSize $end
$var reg 32 1# output_y [31:0] $end
$upscope $end
$scope module isRet_Mux $end
$var wire 4 2# input0 [3:0] $end
$var wire 4 3# input1 [3:0] $end
$var wire 1 }" selectLine $end
$var parameter 32 4# regSize $end
$var reg 4 5# output_y [3:0] $end
$upscope $end
$scope module isStore_mux $end
$var wire 4 6# input0 [3:0] $end
$var wire 4 7# input1 [3:0] $end
$var wire 1 ~" selectLine $end
$var parameter 32 8# regSize $end
$var reg 4 9# output_y [3:0] $end
$upscope $end
$upscope $end
$scope module controlUnit $end
$var wire 1 ! reset $end
$var wire 32 :# Input_OF_IR [31:0] $end
$var reg 1 ;# I $end
$var reg 22 <# controlBus [21:0] $end
$var reg 1 =# isAdd $end
$var reg 1 ># isAnd $end
$var reg 1 ?# isAsr $end
$var reg 1 @# isBeq $end
$var reg 1 A# isBgt $end
$var reg 1 B# isCall $end
$var reg 1 C# isCmp $end
$var reg 1 D# isDiv $end
$var reg 1 E# isImmediate $end
$var reg 1 F# isLd $end
$var reg 1 G# isLsl $end
$var reg 1 H# isLsr $end
$var reg 1 I# isMod $end
$var reg 1 J# isMov $end
$var reg 1 K# isMul $end
$var reg 1 L# isNot $end
$var reg 1 M# isOr $end
$var reg 1 N# isRet $end
$var reg 1 O# isSt $end
$var reg 1 P# isSub $end
$var reg 1 Q# isUbranch $end
$var reg 1 R# isWb $end
$var reg 1 S# op1 $end
$var reg 1 T# op2 $end
$var reg 1 U# op3 $end
$var reg 1 V# op4 $end
$var reg 1 W# op5 $end
$upscope $end
$scope module data_memory $end
$var wire 32 X# address [31:0] $end
$var wire 1 W clk $end
$var wire 1 ! reset $end
$var wire 32 Y# writeData [31:0] $end
$var wire 1 N writeEnable $end
$var reg 32 Z# readData [31:0] $end
$var integer 32 [# i [31:0] $end
$upscope $end
$scope module ex_ma_latch $end
$var wire 32 \# ALU_Result [31:0] $end
$var wire 32 ]# EX_op2 [31:0] $end
$var wire 1 W clk $end
$var wire 32 ^# output_EX_IR [31:0] $end
$var wire 32 _# output_EX_PC [31:0] $end
$var wire 22 `# output_EX_controlBus [21:0] $end
$var reg 32 a# input_MA_ALU_Result [31:0] $end
$var reg 32 b# input_MA_IR [31:0] $end
$var reg 32 c# input_MA_PC [31:0] $end
$var reg 22 d# input_MA_controlBus [21:0] $end
$var reg 32 e# input_MA_op2 [31:0] $end
$upscope $end
$scope module forwarding_src1 $end
$var wire 32 f# input_MA_IR [31:0] $end
$var wire 32 g# input_RW_IR [31:0] $end
$var wire 32 h# input_OF_IR [31:0] $end
$var wire 32 i# input_EX_IR [31:0] $end
$var reg 5 j# EX_opcode [4:0] $end
$var reg 4 k# EX_src1 [3:0] $end
$var reg 4 l# MA_dest [3:0] $end
$var reg 5 m# MA_opcode [4:0] $end
$var reg 4 n# MA_src1 [3:0] $end
$var reg 5 o# OF_opcode [4:0] $end
$var reg 4 p# OF_src1 [3:0] $end
$var reg 4 q# RW_dest [3:0] $end
$var reg 5 r# RW_opcode [4:0] $end
$var reg 1 s# is_MA_EX_conflict_src1 $end
$var reg 1 t# is_RW_EX_conflict_src1 $end
$var reg 1 u# is_RW_MA_conflict_src1 $end
$var reg 1 v# is_RW_OF_conflict_src1 $end
$var reg 4 w# ra [3:0] $end
$upscope $end
$scope module forwarding_src2 $end
$var wire 32 x# input_MA_IR [31:0] $end
$var wire 32 y# input_RW_IR [31:0] $end
$var wire 32 z# input_OF_IR [31:0] $end
$var wire 32 {# input_EX_IR [31:0] $end
$var reg 5 |# EX_opcode [4:0] $end
$var reg 4 }# EX_src2 [3:0] $end
$var reg 4 ~# MA_dest [3:0] $end
$var reg 5 !$ MA_opcode [4:0] $end
$var reg 4 "$ MA_src2 [3:0] $end
$var reg 5 #$ OF_opcode [4:0] $end
$var reg 4 $$ OF_src2 [3:0] $end
$var reg 4 %$ RW_dest [3:0] $end
$var reg 5 &$ RW_opcode [4:0] $end
$var reg 1 '$ first_Done $end
$var reg 1 ($ is_MA_B_conflict $end
$var reg 1 )$ is_MA_EX_conflict_src2 $end
$var reg 1 *$ is_RW_B_conflict $end
$var reg 1 +$ is_RW_EX_conflict_src2 $end
$var reg 1 ,$ is_RW_MA_conflict_src2 $end
$var reg 1 -$ is_RW_OF_conflict_src2 $end
$var reg 4 .$ ra [3:0] $end
$upscope $end
$scope module iFetch $end
$var wire 32 /$ branchPC [31:0] $end
$var wire 1 W clk $end
$var wire 32 0$ inputPC [31:0] $end
$var wire 1 / is_Branch_Taken $end
$var wire 1 ! reset $end
$var wire 32 1$ mux_nextPC [31:0] $end
$var wire 1 2 isDataInterLock $end
$var wire 32 2$ IR [31:0] $end
$var reg 32 3$ PC [31:0] $end
$var reg 32 4$ address [31:0] $end
$var reg 32 5$ outputPC [31:0] $end
$scope module iMemory $end
$var wire 32 6$ address [31:0] $end
$var reg 32 7$ instruction [31:0] $end
$var reg 32 8$ temp [31:0] $end
$var integer 32 9$ file [31:0] $end
$var integer 32 :$ i [31:0] $end
$var integer 32 ;$ readResult [31:0] $end
$upscope $end
$scope module pc_mux $end
$var wire 32 <$ input0 [31:0] $end
$var wire 32 =$ input1 [31:0] $end
$var wire 1 / selectLine $end
$var parameter 32 >$ regSize $end
$var reg 32 ?$ output_y [31:0] $end
$upscope $end
$upscope $end
$scope module is_data_interlock $end
$var wire 32 @$ input_MA_IR [31:0] $end
$var wire 32 A$ input_RW_IR [31:0] $end
$var wire 32 B$ input_EX_IR [31:0] $end
$var wire 32 C$ OF_instruction [31:0] $end
$var reg 4 D$ EX_dest [3:0] $end
$var reg 5 E$ EX_opcode [4:0] $end
$var reg 4 F$ MA_dest [3:0] $end
$var reg 5 G$ MA_opcode [4:0] $end
$var reg 1 H$ OF_hasSrc1 $end
$var reg 1 I$ OF_hasSrc2 $end
$var reg 5 J$ OF_opcode [4:0] $end
$var reg 4 K$ RW_dest [3:0] $end
$var reg 5 L$ RW_opcode [4:0] $end
$var reg 1 2 isDataInterLock $end
$var reg 1 M$ is_EX_write $end
$var reg 1 N$ is_MA_write $end
$var reg 1 O$ is_OF_read $end
$var reg 1 P$ is_RW_write $end
$var reg 4 Q$ ra [3:0] $end
$var reg 4 R$ src1 [3:0] $end
$var reg 4 S$ src2 [3:0] $end
$upscope $end
$scope module latch_if_of $end
$var wire 32 T$ IF_instruction [31:0] $end
$var wire 1 W clk $end
$var wire 1 / isBranchInterLock $end
$var wire 1 2 isDataInterLock $end
$var wire 32 U$ output_IF_PC [31:0] $end
$var reg 32 V$ Input_OF_PC [31:0] $end
$var reg 32 W$ OF_instruction [31:0] $end
$upscope $end
$scope module ma_ra_latch $end
$var wire 32 X$ MA_Ld_Result [31:0] $end
$var wire 1 W clk $end
$var wire 32 Y$ output_MA_ALU_Result [31:0] $end
$var wire 32 Z$ output_MA_IR [31:0] $end
$var wire 32 [$ output_MA_PC [31:0] $end
$var wire 22 \$ output_MA_controlBus [21:0] $end
$var reg 32 ]$ input_RW_ALU_Result [31:0] $end
$var reg 32 ^$ input_RW_IR [31:0] $end
$var reg 32 _$ input_RW_Ld_Result [31:0] $end
$var reg 32 `$ input_RW_PC [31:0] $end
$var reg 22 a$ input_RW_controlBus [21:0] $end
$upscope $end
$scope module of_ex_latch $end
$var wire 32 b$ OF_branchTarget [31:0] $end
$var wire 32 c$ Operand_OF_2 [31:0] $end
$var wire 32 d$ Operand_OF_A [31:0] $end
$var wire 32 e$ Operand_OF_B [31:0] $end
$var wire 22 f$ Output_OF_controlBus [21:0] $end
$var wire 1 W clk $end
$var wire 1 / isBranchInterLock $end
$var wire 1 2 isDataInterLock $end
$var wire 32 g$ output_OF_IR [31:0] $end
$var wire 32 h$ output_OF_PC [31:0] $end
$var reg 32 i$ EX_branchTarget [31:0] $end
$var reg 22 j$ Input_EX_controlBus [21:0] $end
$var reg 32 k$ Operand_EX_2 [31:0] $end
$var reg 32 l$ Operand_EX_A [31:0] $end
$var reg 32 m$ Operand_EX_B [31:0] $end
$var reg 32 n$ input_EX_IR [31:0] $end
$var reg 32 o$ input_EX_PC [31:0] $end
$upscope $end
$scope module r_File_processor $end
$var wire 1 W clk $end
$var wire 4 p$ operand1 [3:0] $end
$var wire 4 q$ operand2 [3:0] $end
$var wire 1 ! reset $end
$var wire 1 C writeEnable $end
$var wire 32 r$ wrData [31:0] $end
$var wire 4 s$ dReg [3:0] $end
$var reg 32 t$ output_register_file [31:0] $end
$var reg 32 u$ rdData1 [31:0] $end
$var reg 32 v$ rdData2 [31:0] $end
$var reg 1 w$ temp $end
$var integer 32 x$ k [31:0] $end
$upscope $end
$scope module rw_stage $end
$var wire 32 y$ input_RW_ALU_Result [31:0] $end
$var wire 32 z$ input_RW_IR [31:0] $end
$var wire 32 {$ input_RW_Ld_Result [31:0] $end
$var wire 32 |$ input_RW_PC [31:0] $end
$var wire 22 }$ input_RW_controlBus [21:0] $end
$var wire 4 ~$ RW_rd [3:0] $end
$var wire 32 !% RW_Data_value [31:0] $end
$var reg 1 C RW_isWb $end
$var reg 1 "% isCall $end
$var reg 1 #% isLd $end
$var reg 2 $% mux_selectLines [1:0] $end
$var reg 4 %% ra [3:0] $end
$var reg 4 &% rd [3:0] $end
$scope module isCall_mux $end
$var wire 4 '% input0 [3:0] $end
$var wire 4 (% input1 [3:0] $end
$var wire 1 "% selectLine $end
$var parameter 32 )% regSize $end
$var reg 4 *% output_y [3:0] $end
$upscope $end
$scope module isLD_or_isCall_MUX $end
$var wire 32 +% input0 [31:0] $end
$var wire 32 ,% input1 [31:0] $end
$var wire 32 -% input2 [31:0] $end
$var wire 2 .% selectLine [1:0] $end
$var parameter 32 /% regSize $end
$var reg 32 0% output_y [31:0] $end
$upscope $end
$upscope $end
$upscope $end
$upscope $end
$enddefinitions $end
$comment Show the parameter values. $end
$dumpall
b100000 /%
b100 )%
b100000 >$
b100 8#
b100 4#
b100000 0#
b100000 ^"
$end
#0
$dumpvars
bx 0%
bx .%
bx -%
bx ,%
bx +%
bx *%
b1111 (%
bx '%
bx &%
b1111 %%
bx $%
x#%
x"%
bx !%
bx ~$
bx }$
bx |$
bx {$
bx z$
bx y$
bx x$
0w$
bx v$
bx u$
bx t$
bx s$
bx r$
bx q$
bx p$
bx o$
bx n$
bx m$
bx l$
bx k$
bx j$
bx i$
bx h$
bx g$
b0 f$
bx e$
bx d$
bx c$
bx b$
bx a$
bx `$
bx _$
bx ^$
bx ]$
bx \$
bx [$
bx Z$
bx Y$
bx X$
bx W$
bx V$
bx U$
bx T$
bx S$
bx R$
b1111 Q$
xP$
xO$
xN$
xM$
bx L$
bx K$
bx J$
xI$
xH$
bx G$
bx F$
bx E$
bx D$
bx C$
bx B$
bx A$
bx @$
b100 ?$
bx =$
b100 <$
b1 ;$
b111 :$
b10000000000000000000000000000011 9$
b1110111110010001111010101011011 8$
bx 7$
bx 6$
bx 5$
bx 4$
b0 3$
bx 2$
b100 1$
bx 0$
bx /$
b1111 .$
x-$
x,$
x+$
x*$
x)$
x($
0'$
bx &$
bx %$
bx $$
bx #$
bx "$
bx !$
bx ~#
bx }#
bx |#
bx {#
bx z#
bx y#
bx x#
b1111 w#
0v#
0u#
0t#
0s#
bx r#
bx q#
bx p#
bx o#
bx n#
bx m#
bx l#
bx k#
bx j#
bx i#
bx h#
bx g#
bx f#
bx e#
bx d#
bx c#
bx b#
bx a#
bx `#
bx _#
bx ^#
bx ]#
bx \#
b111110100000 [#
bx Z#
bx Y#
bx X#
xW#
xV#
xU#
xT#
xS#
xR#
xQ#
xP#
xO#
xN#
xM#
xL#
xK#
xJ#
xI#
xH#
xG#
xF#
xE#
xD#
xC#
xB#
xA#
x@#
x?#
x>#
x=#
b0 <#
x;#
bx :#
bx 9#
bx 7#
bx 6#
bx 5#
b1111 3#
bx 2#
bx 1#
bx /#
bx .#
bx -#
bx ,#
bx +#
x*#
bx )#
bx (#
x'#
bx &#
bx %#
bx $#
b1111 ##
bx "#
bx !#
0~"
0}"
0|"
b0 {"
bx z"
bx y"
bx x"
bx w"
b0 v"
bx u"
bx t"
bx s"
bx r"
bx q"
bx p"
bx o"
bx n"
bx m"
bx l"
bx k"
xj"
xi"
bx h"
bx g"
bx f"
bx e"
bx d"
bx c"
bx b"
bx a"
bx `"
bx _"
bx ]"
bx \"
x["
xZ"
xY"
xX"
bx W"
bx V"
bx U"
bx T"
bx S"
xR"
xQ"
xP"
xO"
xN"
xM"
xL"
xK"
xJ"
xI"
xH"
xG"
xF"
bx E"
bx D"
bx C"
bx B"
bx A"
bx @"
bx ?"
bx >"
bx ="
bx <"
bx ;"
bx :"
bx 9"
bx 8"
bx 7"
bx 6"
bx 5"
bx 4"
bx 3"
bx 2"
bx 1"
bx 0"
bx /"
bx ."
bx -"
bx ,"
b0 +"
bx *"
bx )"
bx ("
bx '"
bx &"
bx %"
bx $"
bx #"
b0 ""
bx !"
bx ~
bx }
bx |
bx {
bx z
bx y
bx x
bx w
bx v
bx u
bx t
bx s
bx r
bx q
bx p
bx o
bx n
bx m
bx l
bx k
bx j
bx i
bx h
bx g
bx f
bx e
bx d
bx c
bx b
bx a
bx `
bx _
z^
bz ]
bz \
bz [
bz Z
zY
bz X
1W
bx V
bx U
bx T
bx S
bx R
bx Q
b0 P
bx O
xN
bx M
bx L
bx K
bx J
bx I
bx H
bx G
b0 F
bx E
bx D
xC
bx B
bx A
bx @
bx ?
bx >
bx =
bx <
bx ;
bx :
bx 9
bx 8
bx 7
bx 6
bx 5
bx 4
bx 3
02
bx 1
bx 0
x/
bx .
bx -
bx ,
bx +
bx *
bx )
bx (
bx '
bx &
bx %
bx $
bx #
bx "
1!
$end
#2000
0!
#5000
0/
b0 )
b0 h
b0 @"
b0 `#
0["
0Y"
0X"
0Z"
b1001100000000000000010011010010 S
b1001100000000000000010011010010 ."
b1001100000000000000010011010010 2$
b1001100000000000000010011010010 7$
b1001100000000000000010011010010 T$
0N"
0P"
0G"
0Q"
0H"
0L"
0K"
0M"
0J"
0O"
0I"
0R"
0F"
b0 A"
b1000 1$
b1000 ?$
b0 R
b0 -"
b0 9"
b0 U"
b0 j$
b1000 <$
b100 3$
b0 ,
b0 g
b0 5$
b0 U$
b0 4$
b0 6$
0W
#10000
1W
#15000
b10011010010 J
b10011010010 #"
b10011010010 u"
b10011010010 1#
b10011010010 e$
b1000000000000001100000 F
b1000000000000001100000 ""
b1000000000000001100000 {"
b1000000000000001100000 f$
1|"
0}"
0~"
1J#
0L#
0>#
0M#
0?#
0H#
0G#
0I#
0D#
0K#
0C#
0P#
0=#
0B#
0Q#
1R#
1E#
0N#
0A#
0@#
0F#
0O#
b0 1
b0 n
b0 r"
b0 5#
b0 p$
b0 0
b0 m
b0 q"
b0 9#
b0 q$
b10011010010 s"
b10011010010 +#
b10011010010 .#
b0 %
b0 c
b0 n"
b0 \$
0i"
0j"
0N
b1000000000000001100000 P
b1000000000000001100000 +"
b1000000000000001100000 v"
b1000000000000001100000 <#
0W#
1V#
0U#
0T#
1S#
1;#
b1001100000000000000010011010010 $
b1001100000000000000010011010010 b
b1001100000000000000010011010010 !#
b1001100000000000000010011010010 g$
b0 #
b0 a
b0 "#
b0 h$
b0 &#
b0 6#
b0 %#
b0 2#
b0 $#
b0 7#
bx100000000000000010011010010xx -#
b1001100010000000000000000000000 S
b1001100010000000000000000000000 ."
b1001100010000000000000000000000 2$
b1001100010000000000000000000000 7$
b1001100010000000000000000000000 T$
0*#
0'#
b1001 o#
0)$
0,$
0+$
0-$
0($
0*$
b1001 #$
0I$
0H$
b0 S$
b0 R$
1O$
b1001 J$
b1100 1$
b1100 ?$
b0 :
b0 v
b0 b"
b0 d#
b1001100000000000000010011010010 Q
b1001100000000000000010011010010 ,"
b1001100000000000000010011010010 x"
b1001100000000000000010011010010 (#
b1001100000000000000010011010010 :#
b1001100000000000000010011010010 h#
b1001100000000000000010011010010 z#
b1001100000000000000010011010010 C$
b1001100000000000000010011010010 W$
b0 8
b0 t
b0 w"
b0 )#
b0 V$
b1100 <$
b1000 3$
b100 ,
b100 g
b100 5$
b100 U$
b100 4$
b100 6$
0W
#16000
b111100000000000000010011010010xx -#
#17000
b11110000000000000001001101001000 -#
#18000
b11110000000000000001001101001000 @
b11110000000000000001001101001000 |
b11110000000000000001001101001000 t"
b11110000000000000001001101001000 ,#
b11110000000000000001001101001000 b$
#20000
1W
#25000
b0 $%
b0 .%
b0 J
b0 #"
b0 u"
b0 1#
b0 e$
b0 s"
b0 +#
b0 .#
b1001100010000000000000000000000 $
b1001100010000000000000000000000 b
b1001100010000000000000000000000 !#
b1001100010000000000000000000000 g$
b100 #
b100 a
b100 "#
b100 h$
b1 $#
b1 7#
b11110001000000000000000000000000 -#
b1000000000000001100000 )
b1000000000000001100000 h
b1000000000000001100000 @"
b1000000000000001100000 `#
b1001100000000000000010011010010 +
b1001100000000000000010011010010 j
b1001100000000000000010011010010 >"
b1001100000000000000010011010010 ^#
b0 *
b0 i
b0 ?"
b0 _#
0C
0"%
0#%
b1111100000001000000010011010100 S
b1111100000001000000010011010100 ."
b1111100000001000000010011010100 2$
b1111100000001000000010011010100 7$
b1111100000001000000010011010100 T$
b10011010010 V
b10011010010 1"
b10011010010 <"
b10011010010 D"
b10011010010 \#
1N"
b11110000000000000001001101001000 A
b11110000000000000001001101001000 }
b11110000000000000001001101001000 ;"
b11110000000000000001001101001000 W"
b11110000000000000001001101001000 _"
b11110000000000000001001101001000 /$
b11110000000000000001001101001000 =$
b1001 j#
b1001 |#
b0 D$
0I$
0H$
1M$
b1001 E$
b1000000000000 A"
b10000 1$
b10000 ?$
b1001100010000000000000000000000 Q
b1001100010000000000000000000000 ,"
b1001100010000000000000000000000 x"
b1001100010000000000000000000000 (#
b1001100010000000000000000000000 :#
b1001100010000000000000000000000 h#
b1001100010000000000000000000000 z#
b1001100010000000000000000000000 C$
b1001100010000000000000000000000 W$
b100 8
b100 t
b100 w"
b100 )#
b100 V$
b10011010010 G
b10011010010 %"
b10011010010 6"
b10011010010 B"
b10011010010 m$
b11110000000000000001001101001000 U
b11110000000000000001001101001000 0"
b11110000000000000001001101001000 :"
b11110000000000000001001101001000 V"
b11110000000000000001001101001000 ]"
b11110000000000000001001101001000 i$
b0 >
b0 z
b0 3"
b0 o$
b1001100000000000000010011010010 ?
b1001100000000000000010011010010 {
b1001100000000000000010011010010 4"
b1001100000000000000010011010010 i#
b1001100000000000000010011010010 {#
b1001100000000000000010011010010 B$
b1001100000000000000010011010010 n$
b1000000000000001100000 R
b1000000000000001100000 -"
b1000000000000001100000 9"
b1000000000000001100000 U"
b1000000000000001100000 j$
b0 3
b0 o
b0 a$
b0 }$
b10000 <$
b1100 3$
b1000 ,
b1000 g
b1000 5$
b1000 U$
b1000 4$
b1000 6$
0W
#28000
b11110001000000000000000000000100 @
b11110001000000000000000000000100 |
b11110001000000000000000000000100 t"
b11110001000000000000000000000100 ,#
b11110001000000000000000000000100 b$
#30000
1W
