processor.vcd
$date
	Fri Oct 25 15:17:11 2024
$end
$version
	Icarus Verilog
$end
$timescale
	1ps
$end
$scope module testbench $end
$var wire 1 ! reset $end
$var wire 32 " output_OF_PC [31:0] $end
$var wire 32 # output_OF_IR [31:0] $end
$var wire 22 $ output_MA_controlBus [21:0] $end
$var wire 32 % output_MA_PC [31:0] $end
$var wire 32 & output_MA_IR [31:0] $end
$var wire 32 ' output_MA_ALU_Result [31:0] $end
$var wire 22 ( output_EX_controlBus [21:0] $end
$var wire 32 ) output_EX_PC [31:0] $end
$var wire 32 * output_EX_IR [31:0] $end
$var wire 32 + outputPC [31:0] $end
$var wire 1 , is_Branch_Taken $end
$var wire 4 - isStore_result [3:0] $end
$var wire 4 . isReturn_result [3:0] $end
$var wire 22 / input_RW_controlBus [21:0] $end
$var wire 32 0 input_RW_PC [31:0] $end
$var wire 32 1 input_RW_Ld_Result [31:0] $end
$var wire 32 2 input_RW_IR [31:0] $end
$var wire 32 3 input_RW_ALU_Result [31:0] $end
$var wire 32 4 input_OF_PC [31:0] $end
$var wire 32 5 input_MA_op2 [31:0] $end
$var wire 22 6 input_MA_controlBus [21:0] $end
$var wire 32 7 input_MA_PC [31:0] $end
$var wire 32 8 input_MA_IR [31:0] $end
$var wire 32 9 input_MA_ALU_Result [31:0] $end
$var wire 32 : input_EX_PC [31:0] $end
$var wire 32 ; input_EX_IR [31:0] $end
$var wire 32 < branchTarget [31:0] $end
$var wire 32 = branchPC [31:0] $end
$var wire 32 > PC [31:0] $end
$var wire 22 ? Output_OF_controlBus [21:0] $end
$var wire 32 @ Operand_EX_B [31:0] $end
$var wire 32 A Operand_EX_A [31:0] $end
$var wire 32 B Operand_EX_2 [31:0] $end
$var wire 32 C Operand_B [31:0] $end
$var wire 32 D Operand_A [31:0] $end
$var wire 32 E Operand_2 [31:0] $end
$var wire 32 F MDR [31:0] $end
$var wire 1 G MA_writeEnable $end
$var wire 32 H MA_Ld_Result [31:0] $end
$var wire 22 I Input_OF_controlBus [21:0] $end
$var wire 32 J Input_OF_IR [31:0] $end
$var wire 22 K Input_EX_controlBus [21:0] $end
$var wire 32 L IR [31:0] $end
$var wire 32 M EX_op2 [31:0] $end
$var wire 32 N EX_branchTarget [31:0] $end
$var wire 32 O ALU_Result [31:0] $end
$var reg 1 P clk $end
$scope module processor $end
$var wire 32 Q EX_branchPC [31:0] $end
$var wire 1 R EX_is_Branch_Taken $end
$var wire 32 S address [31:0] $end
$var wire 1 P clk $end
$var wire 32 T writeData [31:0] $end
$var wire 1 U writeEnable $end
$var wire 32 V readData [31:0] $end
$var wire 32 W output_OF_PC [31:0] $end
$var wire 32 X output_OF_IR [31:0] $end
$var wire 22 Y output_MA_controlBus [21:0] $end
$var wire 32 Z output_MA_PC [31:0] $end
$var wire 32 [ output_MA_IR [31:0] $end
$var wire 32 \ output_MA_ALU_Result [31:0] $end
$var wire 32 ] output_IF_PC [31:0] $end
$var wire 22 ^ output_EX_controlBus [21:0] $end
$var wire 32 _ output_EX_PC [31:0] $end
$var wire 32 ` output_EX_IR [31:0] $end
$var wire 32 a op2 [31:0] $end
$var wire 32 b op1 [31:0] $end
$var wire 1 , is_Branch_Taken $end
$var wire 4 c isStore_result [3:0] $end
$var wire 4 d isReturn_result [3:0] $end
$var wire 22 e input_RW_controlBus [21:0] $end
$var wire 32 f input_RW_PC [31:0] $end
$var wire 32 g input_RW_Ld_Result [31:0] $end
$var wire 32 h input_RW_IR [31:0] $end
$var wire 32 i input_RW_ALU_Result [31:0] $end
$var wire 32 j input_OF_PC [31:0] $end
$var wire 32 k input_MA_op2 [31:0] $end
$var wire 22 l input_MA_controlBus [21:0] $end
$var wire 32 m input_MA_PC [31:0] $end
$var wire 32 n input_MA_IR [31:0] $end
$var wire 32 o input_MA_ALU_Result [31:0] $end
$var wire 32 p input_EX_PC [31:0] $end
$var wire 32 q input_EX_IR [31:0] $end
$var wire 32 r branchTarget [31:0] $end
$var wire 32 s branchPC [31:0] $end
$var wire 22 t Output_OF_controlBus [21:0] $end
$var wire 32 u Operand_EX_B [31:0] $end
$var wire 32 v Operand_EX_A [31:0] $end
$var wire 32 w Operand_EX_2 [31:0] $end
$var wire 32 x Operand_B [31:0] $end
$var wire 32 y Operand_A [31:0] $end
$var wire 32 z Operand_2 [31:0] $end
$var wire 32 { MDR [31:0] $end
$var wire 1 G MA_writeEnable $end
$var wire 32 | MA_Ld_Result [31:0] $end
$var wire 22 } Input_OF_controlBus [21:0] $end
$var wire 32 ~ Input_OF_IR [31:0] $end
$var wire 22 !" Input_EX_controlBus [21:0] $end
$var wire 32 "" IR [31:0] $end
$var wire 32 #" EX_op2 [31:0] $end
$var wire 32 $" EX_branchTarget [31:0] $end
$var wire 32 %" ALU_Result [31:0] $end
$var reg 32 &" PC [31:0] $end
$var reg 1 ! reset $end
$scope module ALU_cycle $end
$var wire 32 '" input_EX_PC [31:0] $end
$var wire 32 (" input_EX_IR [31:0] $end
$var wire 2 )" flags [1:0] $end
$var wire 32 *" Operand_EX_B [31:0] $end
$var wire 32 +" Operand_EX_A [31:0] $end
$var wire 32 ," Operand_EX_2 [31:0] $end
$var wire 22 -" Input_EX_controlBus [21:0] $end
$var wire 1 , EX_is_Branch_Taken $end
$var wire 32 ." EX_branchTarget [31:0] $end
$var wire 32 /" EX_branchPC [31:0] $end
$var wire 32 0" ALU_Result [31:0] $end
$var reg 32 1" EX_op2 [31:0] $end
$var reg 32 2" output_EX_IR [31:0] $end
$var reg 32 3" output_EX_PC [31:0] $end
$var reg 22 4" output_EX_controlBus [21:0] $end
$scope module ALU_module $end
$var wire 13 5" ALU_Signals [21:9] $end
$var wire 32 6" Operand_EX_B [31:0] $end
$var wire 32 7" Operand_EX_A [31:0] $end
$var reg 32 8" EX_ALU_Result [31:0] $end
$var reg 2 9" flags [1:0] $end
$var reg 1 :" isAdd $end
$var reg 1 ;" isAnd $end
$var reg 1 <" isAsr $end
$var reg 1 =" isCmp $end
$var reg 1 >" isDiv $end
$var reg 1 ?" isLsl $end
$var reg 1 @" isLsr $end
$var reg 1 A" isMod $end
$var reg 1 B" isMov $end
$var reg 1 C" isMul $end
$var reg 1 D" isNot $end
$var reg 1 E" isOr $end
$var reg 1 F" isSub $end
$upscope $end
$scope module branchUnit $end
$var wire 2 G" flags [1:0] $end
$var wire 32 H" Operand_EX_A [31:0] $end
$var wire 22 I" Input_EX_controlBus [21:0] $end
$var wire 32 J" EX_branchTarget [31:0] $end
$var wire 32 K" EX_branchPC [31:0] $end
$var reg 1 , EX_is_Branch_Taken $end
$var reg 1 L" isBeq $end
$var reg 1 M" isBgt $end
$var reg 1 N" isRet $end
$var reg 1 O" isUbranch $end
$scope module isReturn_mux $end
$var wire 1 N" selectLine $end
$var wire 32 P" input1 [31:0] $end
$var wire 32 Q" input0 [31:0] $end
$var parameter 32 R" regSize $end
$var reg 32 S" output_y [31:0] $end
$upscope $end
$upscope $end
$upscope $end
$scope module MA_cycle $end
$var wire 32 T" readData [31:0] $end
$var wire 32 U" input_MA_op2 [31:0] $end
$var wire 22 V" input_MA_controlBus [21:0] $end
$var wire 32 W" input_MA_PC [31:0] $end
$var wire 32 X" input_MA_IR [31:0] $end
$var wire 32 Y" input_MA_ALU_Result [31:0] $end
$var reg 32 Z" MAR [31:0] $end
$var reg 32 [" MA_Ld_Result [31:0] $end
$var reg 1 G MA_writeEnable $end
$var reg 32 \" MDR [31:0] $end
$var reg 1 ]" isLd $end
$var reg 1 ^" isSt $end
$var reg 32 _" output_MA_ALU_Result [31:0] $end
$var reg 32 `" output_MA_IR [31:0] $end
$var reg 32 a" output_MA_PC [31:0] $end
$var reg 22 b" output_MA_controlBus [21:0] $end
$upscope $end
$scope module OperandFetch $end
$var wire 1 P clk $end
$var wire 32 c" op2 [31:0] $end
$var wire 32 d" op1 [31:0] $end
$var wire 4 e" isStore_result [3:0] $end
$var wire 4 f" isReturn_result [3:0] $end
$var wire 32 g" immediateVlaue [31:0] $end
$var wire 32 h" branchTarget [31:0] $end
$var wire 32 i" Operand_B [31:0] $end
$var wire 22 j" Input_OF_controlBus [21:0] $end
$var wire 32 k" Input_OF_PC [31:0] $end
$var wire 32 l" Input_OF_IR [31:0] $end
$var reg 32 m" Operand_2 [31:0] $end
$var reg 32 n" Operand_A [31:0] $end
$var reg 22 o" Output_OF_controlBus [21:0] $end
$var reg 1 p" isImmediate $end
$var reg 1 q" isReturn $end
$var reg 1 r" isStore $end
$var reg 32 s" output_OF_IR [31:0] $end
$var reg 32 t" output_OF_PC [31:0] $end
$var reg 4 u" ra [3:0] $end
$var reg 4 v" rd [3:0] $end
$var reg 4 w" rs1 [3:0] $end
$var reg 4 x" rs2 [3:0] $end
$scope module calc_Immx_branchTarget $end
$var wire 1 y" uModifier $end
$var wire 32 z" instruction [31:0] $end
$var wire 32 {" input_OF_PC [31:0] $end
$var wire 1 |" hModifier $end
$var reg 32 }" Immx [31:0] $end
$var reg 32 ~" branchTarget [31:0] $end
$var reg 32 !# tempBranchTarget [31:0] $end
$upscope $end
$scope module isImmediate_mux $end
$var wire 32 "# input1 [31:0] $end
$var wire 1 p" selectLine $end
$var wire 32 ## input0 [31:0] $end
$var parameter 32 $# regSize $end
$var reg 32 %# output_y [31:0] $end
$upscope $end
$scope module isRet_Mux $end
$var wire 4 &# input0 [3:0] $end
$var wire 4 '# input1 [3:0] $end
$var wire 1 q" selectLine $end
$var parameter 32 (# regSize $end
$var reg 4 )# output_y [3:0] $end
$upscope $end
$scope module isStore_mux $end
$var wire 4 *# input0 [3:0] $end
$var wire 4 +# input1 [3:0] $end
$var wire 1 r" selectLine $end
$var parameter 32 ,# regSize $end
$var reg 4 -# output_y [3:0] $end
$upscope $end
$upscope $end
$scope module controlUnit $end
$var wire 1 ! reset $end
$var wire 32 .# Input_OF_IR [31:0] $end
$var reg 1 /# I $end
$var reg 22 0# controlBus [21:0] $end
$var reg 1 1# isAdd $end
$var reg 1 2# isAnd $end
$var reg 1 3# isAsr $end
$var reg 1 4# isBeq $end
$var reg 1 5# isBgt $end
$var reg 1 6# isCall $end
$var reg 1 7# isCmp $end
$var reg 1 8# isDiv $end
$var reg 1 9# isImmediate $end
$var reg 1 :# isLd $end
$var reg 1 ;# isLsl $end
$var reg 1 <# isLsr $end
$var reg 1 =# isMod $end
$var reg 1 ># isMov $end
$var reg 1 ?# isMul $end
$var reg 1 @# isNot $end
$var reg 1 A# isOr $end
$var reg 1 B# isRet $end
$var reg 1 C# isSt $end
$var reg 1 D# isSub $end
$var reg 1 E# isUbranch $end
$var reg 1 F# isWb $end
$var reg 1 G# op1 $end
$var reg 1 H# op2 $end
$var reg 1 I# op3 $end
$var reg 1 J# op4 $end
$var reg 1 K# op5 $end
$upscope $end
$scope module data_memory $end
$var wire 32 L# address [31:0] $end
$var wire 1 P clk $end
$var wire 1 ! reset $end
$var wire 32 M# writeData [31:0] $end
$var wire 1 G writeEnable $end
$var reg 32 N# readData [31:0] $end
$var integer 32 O# i [31:0] $end
$upscope $end
$scope module ex_ma_latch $end
$var wire 32 P# ALU_Result [31:0] $end
$var wire 32 Q# EX_op2 [31:0] $end
$var wire 1 P clk $end
$var wire 32 R# output_EX_IR [31:0] $end
$var wire 32 S# output_EX_PC [31:0] $end
$var wire 22 T# output_EX_controlBus [21:0] $end
$var reg 32 U# input_MA_ALU_Result [31:0] $end
$var reg 32 V# input_MA_IR [31:0] $end
$var reg 32 W# input_MA_PC [31:0] $end
$var reg 22 X# input_MA_controlBus [21:0] $end
$var reg 32 Y# input_MA_op2 [31:0] $end
$upscope $end
$scope module iFetch $end
$var wire 32 Z# branchPC [31:0] $end
$var wire 1 P clk $end
$var wire 32 [# inputPC [31:0] $end
$var wire 1 , is_Branch_Taken $end
$var wire 1 ! reset $end
$var wire 32 \# mux_nextPC [31:0] $end
$var wire 32 ]# IR [31:0] $end
$var reg 32 ^# PC [31:0] $end
$var reg 32 _# address [31:0] $end
$var reg 32 `# outputPC [31:0] $end
$scope module iMemory $end
$var wire 32 a# address [31:0] $end
$var reg 32 b# instruction [31:0] $end
$var reg 32 c# temp [31:0] $end
$var integer 32 d# file [31:0] $end
$var integer 32 e# i [31:0] $end
$var integer 32 f# readResult [31:0] $end
$upscope $end
$scope module pc_mux $end
$var wire 32 g# input0 [31:0] $end
$var wire 32 h# input1 [31:0] $end
$var wire 1 , selectLine $end
$var parameter 32 i# regSize $end
$var reg 32 j# output_y [31:0] $end
$upscope $end
$upscope $end
$scope module latch_if_of $end
$var wire 32 k# IF_instruction [31:0] $end
$var wire 1 P clk $end
$var wire 32 l# output_IF_PC [31:0] $end
$var reg 32 m# Input_OF_PC [31:0] $end
$var reg 32 n# OF_instruction [31:0] $end
$upscope $end
$scope module ma_ra_latch $end
$var wire 32 o# MA_Ld_Result [31:0] $end
$var wire 1 P clk $end
$var wire 32 p# output_MA_ALU_Result [31:0] $end
$var wire 32 q# output_MA_IR [31:0] $end
$var wire 32 r# output_MA_PC [31:0] $end
$var wire 22 s# output_MA_controlBus [21:0] $end
$var reg 32 t# input_RW_ALU_Result [31:0] $end
$var reg 32 u# input_RW_IR [31:0] $end
$var reg 32 v# input_RW_Ld_Result [31:0] $end
$var reg 32 w# input_RW_PC [31:0] $end
$var reg 22 x# input_RW_controlBus [21:0] $end
$upscope $end
$scope module of_ex_latch $end
$var wire 32 y# OF_branchTarget [31:0] $end
$var wire 32 z# Operand_OF_2 [31:0] $end
$var wire 32 {# Operand_OF_A [31:0] $end
$var wire 32 |# Operand_OF_B [31:0] $end
$var wire 22 }# Output_OF_controlBus [21:0] $end
$var wire 1 P clk $end
$var wire 32 ~# output_OF_IR [31:0] $end
$var wire 32 !$ output_OF_PC [31:0] $end
$var reg 32 "$ EX_branchTarget [31:0] $end
$var reg 22 #$ Input_EX_controlBus [21:0] $end
$var reg 32 $$ Operand_EX_2 [31:0] $end
$var reg 32 %$ Operand_EX_A [31:0] $end
$var reg 32 &$ Operand_EX_B [31:0] $end
$var reg 32 '$ input_EX_IR [31:0] $end
$var reg 32 ($ input_EX_PC [31:0] $end
$upscope $end
$scope module r_File_processor $end
$var wire 1 P clk $end
$var wire 4 )$ dReg [3:0] $end
$var wire 4 *$ op1 [3:0] $end
$var wire 4 +$ op2 [3:0] $end
$var wire 1 ! reset $end
$var wire 32 ,$ wrData [31:0] $end
$var wire 1 -$ writeEnable $end
$var reg 32 .$ rdData1 [31:0] $end
$var reg 32 /$ rdData2 [31:0] $end
$var reg 1 0$ temp $end
$var integer 32 1$ k [31:0] $end
$upscope $end
$upscope $end
$upscope $end
$enddefinitions $end
$comment Show the parameter values. $end
$dumpall
b100000 i#
b100 ,#
b100 (#
b100000 $#
b100000 R"
$end
#0
$dumpvars
b10000 1$
00$
bx /$
bx .$
z-$
bz ,$
bx +$
bx *$
bz )$
bx ($
bx '$
bx &$
bx %$
bx $$
bx #$
bx "$
bx !$
bx ~#
b0 }#
bx |#
bx {#
bx z#
bx y#
bx x#
bx w#
bx v#
bx u#
bx t#
bx s#
bx r#
bx q#
bx p#
bx o#
bx n#
bx m#
bx l#
bx k#
b100 j#
bx h#
b100 g#
b1 f#
b111 e#
b10000000000000000000000000000011 d#
b1110111110010001111010101011011 c#
bx b#
bx a#
bx `#
bx _#
b0 ^#
bx ]#
b100 \#
bx [#
bx Z#
bx Y#
bx X#
bx W#
bx V#
bx U#
bx T#
bx S#
bx R#
bx Q#
bx P#
b111110100000 O#
bx N#
bx M#
bx L#
xK#
xJ#
xI#
xH#
xG#
xF#
xE#
xD#
xC#
xB#
xA#
x@#
x?#
x>#
x=#
x<#
x;#
x:#
x9#
x8#
x7#
x6#
x5#
x4#
x3#
x2#
x1#
b0 0#
x/#
bx .#
bx -#
bx +#
bx *#
bx )#
b1111 '#
bx &#
bx %#
bx ##
bx "#
bx !#
bx ~"
bx }"
x|"
bx {"
bx z"
xy"
bx x"
bx w"
bx v"
b1111 u"
bx t"
bx s"
0r"
0q"
0p"
b0 o"
bx n"
bx m"
bx l"
bx k"
b0 j"
bx i"
bx h"
bx g"
bx f"
bx e"
bx d"
bx c"
bx b"
bx a"
bx `"
bx _"
x^"
x]"
bx \"
bx ["
bx Z"
bx Y"
bx X"
bx W"
bx V"
bx U"
bx T"
bx S"
bx Q"
bx P"
xO"
xN"
xM"
xL"
bx K"
bx J"
bx I"
bx H"
bx G"
xF"
xE"
xD"
xC"
xB"
xA"
x@"
x?"
x>"
x="
x<"
x;"
x:"
bx 9"
bx 8"
bx 7"
bx 6"
bx 5"
bx 4"
bx 3"
bx 2"
bx 1"
bx 0"
bx /"
bx ."
bx -"
bx ,"
bx +"
bx *"
bx )"
bx ("
bx '"
bx &"
bx %"
bx $"
bx #"
bx ""
bx !"
bx ~
b0 }
bx |
bx {
bx z
bx y
bx x
bx w
bx v
bx u
b0 t
bx s
bx r
bx q
bx p
bx o
bx n
bx m
bx l
bx k
bx j
bx i
bx h
bx g
bx f
bx e
bx d
bx c
bx b
bx a
bx `
bx _
bx ^
bx ]
bx \
bx [
bx Z
bx Y
bx X
bx W
bx V
zU
bz T
bz S
zR
bz Q
1P
bx O
bx N
bx M
bx L
bx K
bx J
b0 I
bx H
xG
bx F
bx E
bx D
bx C
bx B
bx A
bx @
b0 ?
bx >
bx =
bx <
bx ;
bx :
bx 9
bx 8
bx 7
bx 6
bx 5
bx 4
bx 3
bx 2
bx 1
bx 0
bx /
bx .
bx -
x,
bx +
bx *
bx )
bx (
bx '
bx &
bx %
bx $
bx #
bx "
1!
$end
#2000
0!
#5000
0,
b0 (
b0 ^
b0 4"
b0 T#
0O"
0M"
0L"
0N"
b1001100000000000000010011010010 L
b1001100000000000000010011010010 ""
b1001100000000000000010011010010 ]#
b1001100000000000000010011010010 b#
b1001100000000000000010011010010 k#
b0 )"
b0 9"
b0 G"
b0 O
b0 %"
b0 0"
b0 8"
b0 P#
0B"
0D"
0;"
0E"
0<"
0@"
0?"
0A"
0>"
0C"
0="
0F"
0:"
b0 5"
b1000 \#
b1000 j#
b0 K
b0 !"
b0 -"
b0 I"
b0 #$
b1000 g#
b100 ^#
b0 +
b0 ]
b0 `#
b0 l#
b0 _#
b0 a#
0P
#10000
1P
#15000
b0 D
b0 y
b0 n"
b0 {#
b0 E
b0 z
b0 m"
b0 z#
b1000000000000001100000 ?
b1000000000000001100000 t
b1000000000000001100000 o"
b1000000000000001100000 }#
1p"
0q"
0r"
1>#
0@#
02#
0A#
03#
0<#
0;#
0=#
08#
0?#
07#
0D#
01#
06#
0E#
1F#
19#
0B#
05#
04#
0:#
0C#
b10011010010 C
b10011010010 x
b10011010010 i"
b10011010010 %#
b10011010010 |#
b0 a
b0 c"
b0 ##
b0 /$
b0 b
b0 d"
b0 .$
b0 .
b0 d
b0 f"
b0 )#
b0 *$
b0 -
b0 c
b0 e"
b0 -#
b0 +$
b10011010010 g"
b10011010010 }"
b10011010010 "#
b0 $
b0 Y
b0 b"
b0 s#
b0 '
b0 \
b0 _"
b0 L#
b0 p#
b0 Z"
0]"
0^"
0G
b1000000000000001100000 I
b1000000000000001100000 }
b1000000000000001100000 j"
b1000000000000001100000 0#
0K#
1J#
0I#
0H#
1G#
1/#
b1001100000000000000010011010010 #
b1001100000000000000010011010010 X
b1001100000000000000010011010010 s"
b1001100000000000000010011010010 ~#
b0 "
b0 W
b0 t"
b0 !$
b0 x"
b0 *#
b0 w"
b0 &#
b0 v"
b0 +#
bx100000000000000010011010010xx !#
b1001100010000000000000000000000 L
b1001100010000000000000000000000 ""
b1001100010000000000000000000000 ]#
b1001100010000000000000000000000 b#
b1001100010000000000000000000000 k#
0|"
0y"
b1100 \#
b1100 j#
b0 6
b0 l
b0 V"
b0 X#
b0 9
b0 o
b0 Y"
b0 U#
b1001100000000000000010011010010 J
b1001100000000000000010011010010 ~
b1001100000000000000010011010010 l"
b1001100000000000000010011010010 z"
b1001100000000000000010011010010 .#
b1001100000000000000010011010010 n#
b0 4
b0 j
b0 k"
b0 {"
b0 m#
b1100 g#
b1000 ^#
b100 +
b100 ]
b100 `#
b100 l#
b100 _#
b100 a#
0P
#16000
b111100000000000000010011010010xx !#
#17000
b11110000000000000001001101001000 !#
#18000
b11110000000000000001001101001000 <
b11110000000000000001001101001000 r
b11110000000000000001001101001000 h"
b11110000000000000001001101001000 ~"
b11110000000000000001001101001000 y#
#20000
1P
#25000
b0 C
b0 x
b0 i"
b0 %#
b0 |#
b0 H
b0 |
b0 ["
b0 o#
b0 g"
b0 }"
b0 "#
b1001100010000000000000000000000 #
b1001100010000000000000000000000 X
b1001100010000000000000000000000 s"
b1001100010000000000000000000000 ~#
b100 "
b100 W
b100 t"
b100 !$
b1 v"
b1 +#
b11110001000000000000000000000000 !#
b0 M
b0 #"
b0 1"
b0 Q#
b1000000000000001100000 (
b1000000000000001100000 ^
b1000000000000001100000 4"
b1000000000000001100000 T#
b1001100000000000000010011010010 *
b1001100000000000000010011010010 `
b1001100000000000000010011010010 2"
b1001100000000000000010011010010 R#
b0 )
b0 _
b0 3"
b0 S#
b1111100000001000000010011010100 L
b1111100000001000000010011010100 ""
b1111100000001000000010011010100 ]#
b1111100000001000000010011010100 b#
b1111100000001000000010011010100 k#
b10011010010 O
b10011010010 %"
b10011010010 0"
b10011010010 8"
b10011010010 P#
1B"
b1000000000000 5"
b11110000000000000001001101001000 =
b11110000000000000001001101001000 s
b11110000000000000001001101001000 /"
b11110000000000000001001101001000 K"
b11110000000000000001001101001000 S"
b11110000000000000001001101001000 Z#
b11110000000000000001001101001000 h#
b10000 \#
b10000 j#
b0 V
b0 T"
b0 N#
b1001100010000000000000000000000 J
b1001100010000000000000000000000 ~
b1001100010000000000000000000000 l"
b1001100010000000000000000000000 z"
b1001100010000000000000000000000 .#
b1001100010000000000000000000000 n#
b100 4
b100 j
b100 k"
b100 {"
b100 m#
b1000000000000001100000 K
b1000000000000001100000 !"
b1000000000000001100000 -"
b1000000000000001100000 I"
b1000000000000001100000 #$
b1001100000000000000010011010010 ;
b1001100000000000000010011010010 q
b1001100000000000000010011010010 ("
b1001100000000000000010011010010 '$
b0 B
b0 w
b0 ,"
b0 $$
b10011010010 @
b10011010010 u
b10011010010 *"
b10011010010 6"
b10011010010 &$
b0 A
b0 v
b0 +"
b0 7"
b0 H"
b0 P"
b0 %$
b11110000000000000001001101001000 N
b11110000000000000001001101001000 $"
b11110000000000000001001101001000 ."
b11110000000000000001001101001000 J"
b11110000000000000001001101001000 Q"
b11110000000000000001001101001000 "$
b0 :
b0 p
b0 '"
b0 ($
b0 /
b0 e
b0 x#
b0 3
b0 i
b0 t#
b10000 g#
b1100 ^#
b1000 +
b1000 ]
b1000 `#
b1000 l#
b1000 _#
b1000 a#
0P
#28000
b11110001000000000000000000000100 <
b11110001000000000000000000000100 r
b11110001000000000000000000000100 h"
b11110001000000000000000000000100 ~"
b11110001000000000000000000000100 y#
#30000
1P
#35000
b1000100001 ?
b1000100001 t
b1000100001 o"
b1000100001 }#
1r"
b1000100001 I
b1000100001 }
b1000100001 j"
b1000100001 0#
b1 D
b1 y
b1 n"
b1 {#
0>#
11#
0F#
1C#
b1 b
b1 d"
b1 .$
b10011010100 C
b10011010100 x
b10011010100 i"
b10011010100 %#
b10011010100 |#
b1 .
b1 d
b1 f"
b1 )#
b1 *$
b1000000000000001100000 $
b1000000000000001100000 Y
b1000000000000001100000 b"
b1000000000000001100000 s#
b1001100000000000000010011010010 &
b1001100000000000000010011010010 [
b1001100000000000000010011010010 `"
b1001100000000000000010011010010 q#
b10011010010 '
b10011010010 \
b10011010010 _"
b10011010010 L#
b10011010010 p#
b0 %
b0 Z
b0 a"
b0 r#
b0 F
b0 {
b0 \"
b0 M#
b10011010010 Z"
b1001100010000000000000000000000 *
b1001100010000000000000000000000 `
b1001100010000000000000000000000 2"
b1001100010000000000000000000000 R#
b100 )
b100 _
b100 3"
b100 S#
b10011010100 g"
b10011010100 }"
b10011010100 "#
1I#
1H#
b1111100000001000000010011010100 #
b1111100000001000000010011010100 X
b1111100000001000000010011010100 s"
b1111100000001000000010011010100 ~#
b1000 "
b1000 W
b1000 t"
b1000 !$
b1 w"
b1 &#
b0 v"
b0 +#
b11110000000100000001001101010000 !#
b1001100100000000000110000110101 L
b1001100100000000000110000110101 ""
b1001100100000000000110000110101 ]#
b1001100100000000000110000110101 b#
b1001100100000000000110000110101 k#
b0 O
b0 %"
b0 0"
b0 8"
b0 P#
b11110001000000000000000000000100 =
b11110001000000000000000000000100 s
b11110001000000000000000000000100 /"
b11110001000000000000000000000100 K"
b11110001000000000000000000000100 S"
b11110001000000000000000000000100 Z#
b11110001000000000000000000000100 h#
b10100 \#
b10100 j#
b0 1
b0 g
b0 v#
b1000000000000001100000 6
b1000000000000001100000 l
b1000000000000001100000 V"
b1000000000000001100000 X#
b1001100000000000000010011010010 8
b1001100000000000000010011010010 n
b1001100000000000000010011010010 X"
b1001100000000000000010011010010 V#
b0 5
b0 k
b0 U"
b0 Y#
b10011010010 9
b10011010010 o
b10011010010 Y"
b10011010010 U#
b0 7
b0 m
b0 W"
b0 W#
b1001100010000000000000000000000 ;
b1001100010000000000000000000000 q
b1001100010000000000000000000000 ("
b1001100010000000000000000000000 '$
b0 @
b0 u
b0 *"
b0 6"
b0 &$
b11110001000000000000000000000100 N
b11110001000000000000000000000100 $"
b11110001000000000000000000000100 ."
b11110001000000000000000000000100 J"
b11110001000000000000000000000100 Q"
b11110001000000000000000000000100 "$
b100 :
b100 p
b100 '"
b100 ($
b1111100000001000000010011010100 J
b1111100000001000000010011010100 ~
b1111100000001000000010011010100 l"
b1111100000001000000010011010100 z"
b1111100000001000000010011010100 .#
b1111100000001000000010011010100 n#
b1000 4
b1000 j
b1000 k"
b1000 {"
b1000 m#
b10100 g#
b10000 ^#
b1100 +
b1100 ]
b1100 `#
b1100 l#
b1100 _#
b1100 a#
0P
#38000
b11110000000100000001001101011000 <
b11110000000100000001001101011000 r
b11110000000100000001001101011000 h"
b11110000000100000001001101011000 ~"
b11110000000100000001001101011000 y#
#40000
1P
#45000
b1000000000000001100000 ?
b1000000000000001100000 t
b1000000000000001100000 o"
b1000000000000001100000 }#
0r"
b1000000000000001100000 I
b1000000000000001100000 }
b1000000000000001100000 j"
b1000000000000001100000 0#
b0 D
b0 y
b0 n"
b0 {#
b0 E
b0 z
b0 m"
b0 z#
1>#
01#
1F#
0C#
b0 a
b0 c"
b0 ##
b0 /$
b0 b
b0 d"
b0 .$
b110000110101 C
b110000110101 x
b110000110101 i"
b110000110101 %#
b110000110101 |#
b0 .
b0 d
b0 f"
b0 )#
b0 *$
b0 -
b0 c
b0 e"
b0 -#
b0 +$
b110000110101 g"
b110000110101 }"
b110000110101 "#
0I#
0H#
b1001100100000000000110000110101 #
b1001100100000000000110000110101 X
b1001100100000000000110000110101 s"
b1001100100000000000110000110101 ~#
b1100 "
b1100 W
b1100 t"
b1100 !$
b0 w"
b0 &#
b10 v"
b10 +#
b11110010000000000011000011010100 !#
b1000100001 (
b1000100001 ^
b1000100001 4"
b1000100001 T#
b1111100000001000000010011010100 *
b1111100000001000000010011010100 `
b1111100000001000000010011010100 2"
b1111100000001000000010011010100 R#
b1000 )
b1000 _
b1000 3"
b1000 S#
b1001100010000000000000000000000 &
b1001100010000000000000000000000 [
b1001100010000000000000000000000 `"
b1001100010000000000000000000000 q#
b0 '
b0 \
b0 _"
b0 L#
b0 p#
b100 %
b100 Z
b100 a"
b100 r#
b0 Z"
b1111100100010001111010101011011 L
b1111100100010001111010101011011 ""
b1111100100010001111010101011011 ]#
b1111100100010001111010101011011 b#
b1111100100010001111010101011011 k#
0B"
1:"
b1 5"
b10011010101 O
b10011010101 %"
b10011010101 0"
b10011010101 8"
b10011010101 P#
b11110000000100000001001101011000 =
b11110000000100000001001101011000 s
b11110000000100000001001101011000 /"
b11110000000100000001001101011000 K"
b11110000000100000001001101011000 S"
b11110000000100000001001101011000 Z#
b11110000000100000001001101011000 h#
b11000 \#
b11000 j#
b1001100100000000000110000110101 J
b1001100100000000000110000110101 ~
b1001100100000000000110000110101 l"
b1001100100000000000110000110101 z"
b1001100100000000000110000110101 .#
b1001100100000000000110000110101 n#
b1100 4
b1100 j
b1100 k"
b1100 {"
b1100 m#
b1000100001 K
b1000100001 !"
b1000100001 -"
b1000100001 I"
b1000100001 #$
b1111100000001000000010011010100 ;
b1111100000001000000010011010100 q
b1111100000001000000010011010100 ("
b1111100000001000000010011010100 '$
b10011010100 @
b10011010100 u
b10011010100 *"
b10011010100 6"
b10011010100 &$
b1 A
b1 v
b1 +"
b1 7"
b1 H"
b1 P"
b1 %$
b11110000000100000001001101011000 N
b11110000000100000001001101011000 $"
b11110000000100000001001101011000 ."
b11110000000100000001001101011000 J"
b11110000000100000001001101011000 Q"
b11110000000100000001001101011000 "$
b1000 :
b1000 p
b1000 '"
b1000 ($
b1001100010000000000000000000000 8
b1001100010000000000000000000000 n
b1001100010000000000000000000000 X"
b1001100010000000000000000000000 V#
b0 9
b0 o
b0 Y"
b0 U#
b100 7
b100 m
b100 W"
b100 W#
b1000000000000001100000 /
b1000000000000001100000 e
b1000000000000001100000 x#
b1001100000000000000010011010010 2
b1001100000000000000010011010010 h
b1001100000000000000010011010010 u#
b10011010010 3
b10011010010 i
b10011010010 t#
b0 0
b0 f
b0 w#
b11000 g#
b10100 ^#
b10000 +
b10000 ]
b10000 `#
b10000 l#
b10000 _#
b10000 a#
0P
#48000
b11110010000000000011000011100000 <
b11110010000000000011000011100000 r
b11110010000000000011000011100000 h"
b11110010000000000011000011100000 ~"
b11110010000000000011000011100000 y#
#50000
1P
