processor.vcd
$date
	Fri Oct 25 01:36:04 2024
$end
$version
	Icarus Verilog
$end
$timescale
	1ps
$end
$scope module testbench $end
$var wire 1 ! reset $end
$var wire 32 " output_OF_PC [31:0] $end
$var wire 32 # output_OF_IR [31:0] $end
$var wire 22 $ output_EX_controlBus [21:0] $end
$var wire 32 % output_EX_PC [31:0] $end
$var wire 32 & output_EX_IR [31:0] $end
$var wire 32 ' outputPC [31:0] $end
$var wire 1 ( is_Branch_Taken $end
$var wire 4 ) isStore_result [3:0] $end
$var wire 4 * isReturn_result [3:0] $end
$var wire 32 + input_OF_PC [31:0] $end
$var wire 32 , input_MA_op2 [31:0] $end
$var wire 22 - input_MA_controlBus [21:0] $end
$var wire 32 . input_MA_PC [31:0] $end
$var wire 32 / input_MA_IR [31:0] $end
$var wire 32 0 input_MA_ALU_Result [31:0] $end
$var wire 32 1 input_EX_PC [31:0] $end
$var wire 32 2 input_EX_IR [31:0] $end
$var wire 32 3 branchTarget [31:0] $end
$var wire 32 4 branchPC [31:0] $end
$var wire 32 5 PC [31:0] $end
$var wire 22 6 Output_OF_controlBus [21:0] $end
$var wire 32 7 Operand_EX_B [31:0] $end
$var wire 32 8 Operand_EX_A [31:0] $end
$var wire 32 9 Operand_EX_2 [31:0] $end
$var wire 32 : Operand_B [31:0] $end
$var wire 32 ; Operand_A [31:0] $end
$var wire 32 < Operand_2 [31:0] $end
$var wire 22 = Input_OF_controlBus [21:0] $end
$var wire 32 > Input_OF_IR [31:0] $end
$var wire 22 ? Input_EX_controlBus [21:0] $end
$var wire 32 @ IR [31:0] $end
$var wire 32 A EX_op2 [31:0] $end
$var wire 32 B EX_branchTarget [31:0] $end
$var wire 32 C ALU_Result [31:0] $end
$var reg 1 D clk $end
$scope module processor $end
$var wire 32 E EX_branchPC [31:0] $end
$var wire 1 F EX_is_Branch_Taken $end
$var wire 32 G address [31:0] $end
$var wire 1 D clk $end
$var wire 32 H writeData [31:0] $end
$var wire 1 I writeEnable $end
$var wire 32 J readData [31:0] $end
$var wire 32 K output_OF_PC [31:0] $end
$var wire 32 L output_OF_IR [31:0] $end
$var wire 22 M output_MA_controlBus [21:0] $end
$var wire 32 N output_MA_PC [31:0] $end
$var wire 32 O output_MA_IR [31:0] $end
$var wire 32 P output_MA_ALU_Result [31:0] $end
$var wire 32 Q output_IF_PC [31:0] $end
$var wire 22 R output_EX_controlBus [21:0] $end
$var wire 32 S output_EX_PC [31:0] $end
$var wire 32 T output_EX_IR [31:0] $end
$var wire 32 U op2 [31:0] $end
$var wire 32 V op1 [31:0] $end
$var wire 1 ( is_Branch_Taken $end
$var wire 4 W isStore_result [3:0] $end
$var wire 4 X isReturn_result [3:0] $end
$var wire 32 Y input_OF_PC [31:0] $end
$var wire 32 Z input_MA_op2 [31:0] $end
$var wire 22 [ input_MA_controlBus [21:0] $end
$var wire 32 \ input_MA_PC [31:0] $end
$var wire 32 ] input_MA_IR [31:0] $end
$var wire 32 ^ input_MA_ALU_Result [31:0] $end
$var wire 32 _ input_EX_PC [31:0] $end
$var wire 32 ` input_EX_IR [31:0] $end
$var wire 32 a branchTarget [31:0] $end
$var wire 32 b branchPC [31:0] $end
$var wire 22 c Output_OF_controlBus [21:0] $end
$var wire 32 d Operand_EX_B [31:0] $end
$var wire 32 e Operand_EX_A [31:0] $end
$var wire 32 f Operand_EX_2 [31:0] $end
$var wire 32 g Operand_B [31:0] $end
$var wire 32 h Operand_A [31:0] $end
$var wire 32 i Operand_2 [31:0] $end
$var wire 32 j MDR [31:0] $end
$var wire 1 k MA_writeEnable $end
$var wire 32 l MA_Ld_Result [31:0] $end
$var wire 22 m Input_OF_controlBus [21:0] $end
$var wire 32 n Input_OF_IR [31:0] $end
$var wire 22 o Input_EX_controlBus [21:0] $end
$var wire 32 p IR [31:0] $end
$var wire 32 q EX_op2 [31:0] $end
$var wire 32 r EX_branchTarget [31:0] $end
$var wire 32 s ALU_Result [31:0] $end
$var reg 32 t PC [31:0] $end
$var reg 1 ! reset $end
$scope module ALU_cycle $end
$var wire 32 u input_EX_PC [31:0] $end
$var wire 32 v input_EX_IR [31:0] $end
$var wire 2 w flags [1:0] $end
$var wire 32 x Operand_EX_B [31:0] $end
$var wire 32 y Operand_EX_A [31:0] $end
$var wire 32 z Operand_EX_2 [31:0] $end
$var wire 22 { Input_EX_controlBus [21:0] $end
$var wire 1 ( EX_is_Branch_Taken $end
$var wire 32 | EX_branchTarget [31:0] $end
$var wire 32 } EX_branchPC [31:0] $end
$var wire 32 ~ ALU_Result [31:0] $end
$var reg 32 !" EX_op2 [31:0] $end
$var reg 32 "" output_EX_IR [31:0] $end
$var reg 32 #" output_EX_PC [31:0] $end
$var reg 22 $" output_EX_controlBus [21:0] $end
$scope module ALU_module $end
$var wire 13 %" ALU_Signals [21:9] $end
$var wire 32 &" Operand_EX_B [31:0] $end
$var wire 32 '" Operand_EX_A [31:0] $end
$var reg 32 (" EX_ALU_Result [31:0] $end
$var reg 2 )" flags [1:0] $end
$var reg 1 *" isAdd $end
$var reg 1 +" isAnd $end
$var reg 1 ," isAsr $end
$var reg 1 -" isCmp $end
$var reg 1 ." isDiv $end
$var reg 1 /" isLsl $end
$var reg 1 0" isLsr $end
$var reg 1 1" isMod $end
$var reg 1 2" isMov $end
$var reg 1 3" isMul $end
$var reg 1 4" isNot $end
$var reg 1 5" isOr $end
$var reg 1 6" isSub $end
$upscope $end
$scope module branchUnit $end
$var wire 2 7" flags [1:0] $end
$var wire 32 8" Operand_EX_A [31:0] $end
$var wire 22 9" Input_EX_controlBus [21:0] $end
$var wire 32 :" EX_branchTarget [31:0] $end
$var wire 32 ;" EX_branchPC [31:0] $end
$var reg 1 ( EX_is_Branch_Taken $end
$var reg 1 <" isBeq $end
$var reg 1 =" isBgt $end
$var reg 1 >" isRet $end
$var reg 1 ?" isUbranch $end
$scope module isReturn_mux $end
$var wire 1 >" selectLine $end
$var wire 32 @" input1 [31:0] $end
$var wire 32 A" input0 [31:0] $end
$var parameter 32 B" regSize $end
$var reg 32 C" output_y [31:0] $end
$upscope $end
$upscope $end
$upscope $end
$scope module MA_cycle $end
$var wire 32 D" input_MA_op2 [31:0] $end
$var wire 22 E" input_MA_controlBus [21:0] $end
$var wire 32 F" input_MA_PC [31:0] $end
$var wire 32 G" input_MA_IR [31:0] $end
$var wire 32 H" input_MA_ALU_Result [31:0] $end
$var reg 32 I" MAR [31:0] $end
$var reg 32 J" MA_Ld_Result [31:0] $end
$var reg 1 k MA_writeEnable $end
$var reg 32 K" MDR [31:0] $end
$var reg 1 L" isLd $end
$var reg 1 M" isSt $end
$var reg 32 N" output_MA_ALU_Result [31:0] $end
$var reg 32 O" output_MA_IR [31:0] $end
$var reg 32 P" output_MA_PC [31:0] $end
$var reg 22 Q" output_MA_controlBus [21:0] $end
$upscope $end
$scope module OperandFetch $end
$var wire 1 D clk $end
$var wire 32 R" op2 [31:0] $end
$var wire 32 S" op1 [31:0] $end
$var wire 4 T" isStore_result [3:0] $end
$var wire 4 U" isReturn_result [3:0] $end
$var wire 32 V" immediateVlaue [31:0] $end
$var wire 32 W" branchTarget [31:0] $end
$var wire 32 X" Operand_B [31:0] $end
$var wire 22 Y" Input_OF_controlBus [21:0] $end
$var wire 32 Z" Input_OF_PC [31:0] $end
$var wire 32 [" Input_OF_IR [31:0] $end
$var reg 32 \" Operand_2 [31:0] $end
$var reg 32 ]" Operand_A [31:0] $end
$var reg 22 ^" Output_OF_controlBus [21:0] $end
$var reg 1 _" isImmediate $end
$var reg 1 `" isReturn $end
$var reg 1 a" isStore $end
$var reg 32 b" output_OF_IR [31:0] $end
$var reg 32 c" output_OF_PC [31:0] $end
$var reg 4 d" ra [3:0] $end
$var reg 4 e" rd [3:0] $end
$var reg 4 f" rs1 [3:0] $end
$var reg 4 g" rs2 [3:0] $end
$scope module calc_Immx_branchTarget $end
$var wire 1 h" uModifier $end
$var wire 32 i" instruction [31:0] $end
$var wire 32 j" input_OF_PC [31:0] $end
$var wire 1 k" hModifier $end
$var reg 32 l" Immx [31:0] $end
$var reg 32 m" branchTarget [31:0] $end
$var reg 32 n" tempBranchTarget [31:0] $end
$upscope $end
$scope module isImmediate_mux $end
$var wire 32 o" input1 [31:0] $end
$var wire 1 _" selectLine $end
$var wire 32 p" input0 [31:0] $end
$var parameter 32 q" regSize $end
$var reg 32 r" output_y [31:0] $end
$upscope $end
$scope module isRet_Mux $end
$var wire 4 s" input0 [3:0] $end
$var wire 4 t" input1 [3:0] $end
$var wire 1 `" selectLine $end
$var parameter 32 u" regSize $end
$var reg 4 v" output_y [3:0] $end
$upscope $end
$scope module isStore_mux $end
$var wire 4 w" input0 [3:0] $end
$var wire 4 x" input1 [3:0] $end
$var wire 1 a" selectLine $end
$var parameter 32 y" regSize $end
$var reg 4 z" output_y [3:0] $end
$upscope $end
$upscope $end
$scope module controlUnit $end
$var wire 1 ! reset $end
$var wire 32 {" Input_OF_IR [31:0] $end
$var reg 1 |" I $end
$var reg 22 }" controlBus [21:0] $end
$var reg 1 ~" isAdd $end
$var reg 1 !# isAnd $end
$var reg 1 "# isAsr $end
$var reg 1 ## isBeq $end
$var reg 1 $# isBgt $end
$var reg 1 %# isCall $end
$var reg 1 &# isCmp $end
$var reg 1 '# isDiv $end
$var reg 1 (# isImmediate $end
$var reg 1 )# isLd $end
$var reg 1 *# isLsl $end
$var reg 1 +# isLsr $end
$var reg 1 ,# isMod $end
$var reg 1 -# isMov $end
$var reg 1 .# isMul $end
$var reg 1 /# isNot $end
$var reg 1 0# isOr $end
$var reg 1 1# isRet $end
$var reg 1 2# isSt $end
$var reg 1 3# isSub $end
$var reg 1 4# isUbranch $end
$var reg 1 5# isWb $end
$var reg 1 6# op1 $end
$var reg 1 7# op2 $end
$var reg 1 8# op3 $end
$var reg 1 9# op4 $end
$var reg 1 :# op5 $end
$upscope $end
$scope module data_memory $end
$var wire 32 ;# address [31:0] $end
$var wire 1 D clk $end
$var wire 1 ! reset $end
$var wire 32 <# writeData [31:0] $end
$var wire 1 k writeEnable $end
$var reg 32 =# readData [31:0] $end
$var integer 32 ># i [31:0] $end
$upscope $end
$scope module ex_ma_latch $end
$var wire 32 ?# ALU_Result [31:0] $end
$var wire 32 @# EX_op2 [31:0] $end
$var wire 1 D clk $end
$var wire 32 A# output_EX_IR [31:0] $end
$var wire 32 B# output_EX_PC [31:0] $end
$var wire 22 C# output_EX_controlBus [21:0] $end
$var reg 32 D# input_MA_ALU_Result [31:0] $end
$var reg 32 E# input_MA_IR [31:0] $end
$var reg 32 F# input_MA_PC [31:0] $end
$var reg 22 G# input_MA_controlBus [21:0] $end
$var reg 32 H# input_MA_op2 [31:0] $end
$upscope $end
$scope module iFetch $end
$var wire 32 I# branchPC [31:0] $end
$var wire 1 D clk $end
$var wire 32 J# inputPC [31:0] $end
$var wire 1 ( is_Branch_Taken $end
$var wire 1 ! reset $end
$var wire 32 K# mux_nextPC [31:0] $end
$var wire 32 L# IR [31:0] $end
$var reg 32 M# PC [31:0] $end
$var reg 32 N# address [31:0] $end
$var reg 32 O# outputPC [31:0] $end
$scope module iMemory $end
$var wire 32 P# address [31:0] $end
$var reg 32 Q# instruction [31:0] $end
$var reg 32 R# temp [31:0] $end
$var integer 32 S# file [31:0] $end
$var integer 32 T# i [31:0] $end
$var integer 32 U# readResult [31:0] $end
$upscope $end
$scope module pc_mux $end
$var wire 32 V# input0 [31:0] $end
$var wire 32 W# input1 [31:0] $end
$var wire 1 ( selectLine $end
$var parameter 32 X# regSize $end
$var reg 32 Y# output_y [31:0] $end
$upscope $end
$upscope $end
$scope module latch_if_of $end
$var wire 32 Z# IF_instruction [31:0] $end
$var wire 1 D clk $end
$var wire 32 [# output_IF_PC [31:0] $end
$var reg 32 \# Input_OF_PC [31:0] $end
$var reg 32 ]# OF_instruction [31:0] $end
$upscope $end
$scope module of_ex_latch $end
$var wire 32 ^# OF_branchTarget [31:0] $end
$var wire 32 _# Operand_OF_2 [31:0] $end
$var wire 32 `# Operand_OF_A [31:0] $end
$var wire 32 a# Operand_OF_B [31:0] $end
$var wire 22 b# Output_OF_controlBus [21:0] $end
$var wire 1 D clk $end
$var wire 32 c# output_OF_IR [31:0] $end
$var wire 32 d# output_OF_PC [31:0] $end
$var reg 32 e# EX_branchTarget [31:0] $end
$var reg 22 f# Input_EX_controlBus [21:0] $end
$var reg 32 g# Operand_EX_2 [31:0] $end
$var reg 32 h# Operand_EX_A [31:0] $end
$var reg 32 i# Operand_EX_B [31:0] $end
$var reg 32 j# input_EX_IR [31:0] $end
$var reg 32 k# input_EX_PC [31:0] $end
$upscope $end
$scope module r_File_processor $end
$var wire 1 D clk $end
$var wire 4 l# dReg [3:0] $end
$var wire 4 m# op1 [3:0] $end
$var wire 4 n# op2 [3:0] $end
$var wire 1 ! reset $end
$var wire 32 o# wrData [31:0] $end
$var wire 1 p# writeEnable $end
$var reg 32 q# rdData1 [31:0] $end
$var reg 32 r# rdData2 [31:0] $end
$var reg 1 s# temp $end
$var integer 32 t# k [31:0] $end
$upscope $end
$upscope $end
$upscope $end
$enddefinitions $end
$comment Show the parameter values. $end
$dumpall
b100000 X#
b100 y"
b100 u"
b100000 q"
b100000 B"
$end
#0
$dumpvars
b10000 t#
0s#
bx r#
bx q#
zp#
bz o#
bx n#
bx m#
bz l#
bx k#
bx j#
bx i#
bx h#
bx g#
bx f#
bx e#
bx d#
bx c#
b0 b#
bx a#
bx `#
bx _#
bx ^#
bx ]#
bx \#
bx [#
bx Z#
b100 Y#
bx W#
b100 V#
b1 U#
b1000 T#
b10000000000000000000000000000011 S#
b1110111110010000000110000110101 R#
bx Q#
bx P#
bx O#
bx N#
b0 M#
bx L#
b100 K#
bx J#
bx I#
bx H#
bx G#
bx F#
bx E#
bx D#
bx C#
bx B#
bx A#
bx @#
bx ?#
b111110100000 >#
bx =#
bx <#
bx ;#
x:#
x9#
x8#
x7#
x6#
x5#
x4#
x3#
x2#
x1#
x0#
x/#
x.#
x-#
x,#
x+#
x*#
x)#
x(#
x'#
x&#
x%#
x$#
x##
x"#
x!#
x~"
b0 }"
x|"
bx {"
bx z"
bx x"
bx w"
bx v"
b1111 t"
bx s"
bx r"
bx p"
bx o"
bx n"
bx m"
bx l"
xk"
bx j"
bx i"
xh"
bx g"
bx f"
bx e"
b1111 d"
bx c"
bx b"
0a"
0`"
0_"
b0 ^"
bx ]"
bx \"
bx ["
bx Z"
b0 Y"
bx X"
bx W"
bx V"
bx U"
bx T"
bx S"
bx R"
bx Q"
bx P"
bx O"
bx N"
xM"
xL"
bx K"
bx J"
bx I"
bx H"
bx G"
bx F"
bx E"
bx D"
bx C"
bx A"
bx @"
x?"
x>"
x="
x<"
bx ;"
bx :"
bx 9"
bx 8"
bx 7"
x6"
x5"
x4"
x3"
x2"
x1"
x0"
x/"
x."
x-"
x,"
x+"
x*"
bx )"
bx ("
bx '"
bx &"
bx %"
bx $"
bx #"
bx ""
bx !"
bx ~
bx }
bx |
bx {
bx z
bx y
bx x
bx w
bx v
bx u
bx t
bx s
bx r
bx q
bx p
bx o
bx n
b0 m
bx l
xk
bx j
bx i
bx h
bx g
bx f
bx e
bx d
b0 c
bx b
bx a
bx `
bx _
bx ^
bx ]
bx \
bx [
bx Z
bx Y
bx X
bx W
bx V
bx U
bx T
bx S
bx R
bx Q
bx P
bx O
bx N
bx M
bx L
bx K
bx J
zI
bz H
bz G
zF
bz E
1D
bx C
bx B
bx A
bx @
bx ?
bx >
b0 =
bx <
bx ;
bx :
bx 9
bx 8
bx 7
b0 6
bx 5
bx 4
bx 3
bx 2
bx 1
bx 0
bx /
bx .
bx -
bx ,
bx +
bx *
bx )
x(
bx '
bx &
bx %
bx $
bx #
bx "
1!
$end
#2000
0!
#5000
0(
b0 $
b0 R
b0 $"
b0 C#
0?"
0="
0<"
0>"
b1001100000000000000010011010010 @
b1001100000000000000010011010010 p
b1001100000000000000010011010010 L#
b1001100000000000000010011010010 Q#
b1001100000000000000010011010010 Z#
b0 w
b0 )"
b0 7"
b0 C
b0 s
b0 ~
b0 ("
b0 ?#
02"
04"
0+"
05"
0,"
00"
0/"
01"
0."
03"
0-"
06"
0*"
b0 %"
b1000 K#
b1000 Y#
b0 ?
b0 o
b0 {
b0 9"
b0 f#
b1000 V#
b100 M#
b0 '
b0 Q
b0 O#
b0 [#
b0 N#
b0 P#
0D
#10000
1D
#15000
b0 ;
b0 h
b0 ]"
b0 `#
b0 <
b0 i
b0 \"
b0 _#
b1000000000000001100000 6
b1000000000000001100000 c
b1000000000000001100000 ^"
b1000000000000001100000 b#
1_"
0`"
0a"
1-#
0/#
0!#
00#
0"#
0+#
0*#
0,#
0'#
0.#
0&#
03#
0~"
0%#
04#
15#
1(#
01#
0$#
0##
0)#
02#
b10011010010 :
b10011010010 g
b10011010010 X"
b10011010010 r"
b10011010010 a#
b0 U
b0 R"
b0 p"
b0 r#
b0 V
b0 S"
b0 q#
b0 *
b0 X
b0 U"
b0 v"
b0 m#
b0 )
b0 W
b0 T"
b0 z"
b0 n#
b10011010010 V"
b10011010010 l"
b10011010010 o"
b0 M
b0 Q"
b0 P
b0 N"
b0 ;#
b0 I"
0L"
0M"
0k
b1000000000000001100000 =
b1000000000000001100000 m
b1000000000000001100000 Y"
b1000000000000001100000 }"
0:#
19#
08#
07#
16#
1|"
b1001100000000000000010011010010 #
b1001100000000000000010011010010 L
b1001100000000000000010011010010 b"
b1001100000000000000010011010010 c#
b0 "
b0 K
b0 c"
b0 d#
b0 g"
b0 w"
b0 f"
b0 s"
b0 e"
b0 x"
bx100000000000000010011010010xx n"
b1001100010000000000000000000000 @
b1001100010000000000000000000000 p
b1001100010000000000000000000000 L#
b1001100010000000000000000000000 Q#
b1001100010000000000000000000000 Z#
0k"
0h"
b1100 K#
b1100 Y#
b0 -
b0 [
b0 E"
b0 G#
b0 0
b0 ^
b0 H"
b0 D#
b1001100000000000000010011010010 >
b1001100000000000000010011010010 n
b1001100000000000000010011010010 ["
b1001100000000000000010011010010 i"
b1001100000000000000010011010010 {"
b1001100000000000000010011010010 ]#
b0 +
b0 Y
b0 Z"
b0 j"
b0 \#
b1100 V#
b1000 M#
b100 '
b100 Q
b100 O#
b100 [#
b100 N#
b100 P#
0D
#16000
b111100000000000000010011010010xx n"
#17000
b11110000000000000001001101001000 n"
#18000
b11110000000000000001001101001000 3
b11110000000000000001001101001000 a
b11110000000000000001001101001000 W"
b11110000000000000001001101001000 m"
b11110000000000000001001101001000 ^#
#20000
1D
#25000
b0 :
b0 g
b0 X"
b0 r"
b0 a#
b0 V"
b0 l"
b0 o"
b1001100010000000000000000000000 #
b1001100010000000000000000000000 L
b1001100010000000000000000000000 b"
b1001100010000000000000000000000 c#
b100 "
b100 K
b100 c"
b100 d#
b1 e"
b1 x"
b11110001000000000000000000000000 n"
b0 A
b0 q
b0 !"
b0 @#
b1000000000000001100000 $
b1000000000000001100000 R
b1000000000000001100000 $"
b1000000000000001100000 C#
b1001100000000000000010011010010 &
b1001100000000000000010011010010 T
b1001100000000000000010011010010 ""
b1001100000000000000010011010010 A#
b0 %
b0 S
b0 #"
b0 B#
b1111100000001000000010011010100 @
b1111100000001000000010011010100 p
b1111100000001000000010011010100 L#
b1111100000001000000010011010100 Q#
b1111100000001000000010011010100 Z#
b10011010010 C
b10011010010 s
b10011010010 ~
b10011010010 ("
b10011010010 ?#
12"
b1000000000000 %"
b11110000000000000001001101001000 4
b11110000000000000001001101001000 b
b11110000000000000001001101001000 }
b11110000000000000001001101001000 ;"
b11110000000000000001001101001000 C"
b11110000000000000001001101001000 I#
b11110000000000000001001101001000 W#
b10000 K#
b10000 Y#
b0 J
b0 =#
b1001100010000000000000000000000 >
b1001100010000000000000000000000 n
b1001100010000000000000000000000 ["
b1001100010000000000000000000000 i"
b1001100010000000000000000000000 {"
b1001100010000000000000000000000 ]#
b100 +
b100 Y
b100 Z"
b100 j"
b100 \#
b1000000000000001100000 ?
b1000000000000001100000 o
b1000000000000001100000 {
b1000000000000001100000 9"
b1000000000000001100000 f#
b1001100000000000000010011010010 2
b1001100000000000000010011010010 `
b1001100000000000000010011010010 v
b1001100000000000000010011010010 j#
b0 9
b0 f
b0 z
b0 g#
b10011010010 7
b10011010010 d
b10011010010 x
b10011010010 &"
b10011010010 i#
b0 8
b0 e
b0 y
b0 '"
b0 8"
b0 @"
b0 h#
b11110000000000000001001101001000 B
b11110000000000000001001101001000 r
b11110000000000000001001101001000 |
b11110000000000000001001101001000 :"
b11110000000000000001001101001000 A"
b11110000000000000001001101001000 e#
b0 1
b0 _
b0 u
b0 k#
b10000 V#
b1100 M#
b1000 '
b1000 Q
b1000 O#
b1000 [#
b1000 N#
b1000 P#
0D
#28000
b11110001000000000000000000000100 3
b11110001000000000000000000000100 a
b11110001000000000000000000000100 W"
b11110001000000000000000000000100 m"
b11110001000000000000000000000100 ^#
#30000
1D
#35000
b1000100001 6
b1000100001 c
b1000100001 ^"
b1000100001 b#
1a"
b1000100001 =
b1000100001 m
b1000100001 Y"
b1000100001 }"
b1 ;
b1 h
b1 ]"
b1 `#
0-#
1~"
05#
12#
b1 V
b1 S"
b1 q#
b10011010100 :
b10011010100 g
b10011010100 X"
b10011010100 r"
b10011010100 a#
b1 *
b1 X
b1 U"
b1 v"
b1 m#
b1000000000000001100000 M
b1000000000000001100000 Q"
b1001100000000000000010011010010 O
b1001100000000000000010011010010 O"
b10011010010 P
b10011010010 N"
b10011010010 ;#
b0 N
b0 P"
b0 j
b0 K"
b0 <#
b10011010010 I"
b1001100010000000000000000000000 &
b1001100010000000000000000000000 T
b1001100010000000000000000000000 ""
b1001100010000000000000000000000 A#
b100 %
b100 S
b100 #"
b100 B#
b10011010100 V"
b10011010100 l"
b10011010100 o"
18#
17#
b1111100000001000000010011010100 #
b1111100000001000000010011010100 L
b1111100000001000000010011010100 b"
b1111100000001000000010011010100 c#
b1000 "
b1000 K
b1000 c"
b1000 d#
b1 f"
b1 s"
b0 e"
b0 x"
b11110000000100000001001101010000 n"
b1001100100000000000110000110101 @
b1001100100000000000110000110101 p
b1001100100000000000110000110101 L#
b1001100100000000000110000110101 Q#
b1001100100000000000110000110101 Z#
b0 C
b0 s
b0 ~
b0 ("
b0 ?#
b11110001000000000000000000000100 4
b11110001000000000000000000000100 b
b11110001000000000000000000000100 }
b11110001000000000000000000000100 ;"
b11110001000000000000000000000100 C"
b11110001000000000000000000000100 I#
b11110001000000000000000000000100 W#
b10100 K#
b10100 Y#
b1000000000000001100000 -
b1000000000000001100000 [
b1000000000000001100000 E"
b1000000000000001100000 G#
b1001100000000000000010011010010 /
b1001100000000000000010011010010 ]
b1001100000000000000010011010010 G"
b1001100000000000000010011010010 E#
b0 ,
b0 Z
b0 D"
b0 H#
b10011010010 0
b10011010010 ^
b10011010010 H"
b10011010010 D#
b0 .
b0 \
b0 F"
b0 F#
b1001100010000000000000000000000 2
b1001100010000000000000000000000 `
b1001100010000000000000000000000 v
b1001100010000000000000000000000 j#
b0 7
b0 d
b0 x
b0 &"
b0 i#
b11110001000000000000000000000100 B
b11110001000000000000000000000100 r
b11110001000000000000000000000100 |
b11110001000000000000000000000100 :"
b11110001000000000000000000000100 A"
b11110001000000000000000000000100 e#
b100 1
b100 _
b100 u
b100 k#
b1111100000001000000010011010100 >
b1111100000001000000010011010100 n
b1111100000001000000010011010100 ["
b1111100000001000000010011010100 i"
b1111100000001000000010011010100 {"
b1111100000001000000010011010100 ]#
b1000 +
b1000 Y
b1000 Z"
b1000 j"
b1000 \#
b10100 V#
b10000 M#
b1100 '
b1100 Q
b1100 O#
b1100 [#
b1100 N#
b1100 P#
0D
#38000
b11110000000100000001001101011000 3
b11110000000100000001001101011000 a
b11110000000100000001001101011000 W"
b11110000000100000001001101011000 m"
b11110000000100000001001101011000 ^#
#40000
1D
#45000
b1000000000000001100000 6
b1000000000000001100000 c
b1000000000000001100000 ^"
b1000000000000001100000 b#
0a"
b1000000000000001100000 =
b1000000000000001100000 m
b1000000000000001100000 Y"
b1000000000000001100000 }"
b0 ;
b0 h
b0 ]"
b0 `#
b0 <
b0 i
b0 \"
b0 _#
1-#
0~"
15#
02#
b0 U
b0 R"
b0 p"
b0 r#
b0 V
b0 S"
b0 q#
b110000110101 :
b110000110101 g
b110000110101 X"
b110000110101 r"
b110000110101 a#
b0 *
b0 X
b0 U"
b0 v"
b0 m#
b0 )
b0 W
b0 T"
b0 z"
b0 n#
b110000110101 V"
b110000110101 l"
b110000110101 o"
08#
07#
b1001100100000000000110000110101 #
b1001100100000000000110000110101 L
b1001100100000000000110000110101 b"
b1001100100000000000110000110101 c#
b1100 "
b1100 K
b1100 c"
b1100 d#
b0 f"
b0 s"
b10 e"
b10 x"
b11110010000000000011000011010100 n"
b1000100001 $
b1000100001 R
b1000100001 $"
b1000100001 C#
b1111100000001000000010011010100 &
b1111100000001000000010011010100 T
b1111100000001000000010011010100 ""
b1111100000001000000010011010100 A#
b1000 %
b1000 S
b1000 #"
b1000 B#
b1001100010000000000000000000000 O
b1001100010000000000000000000000 O"
b0 P
b0 N"
b0 ;#
b100 N
b100 P"
b0 I"
b1111100100010001111010101011011 @
b1111100100010001111010101011011 p
b1111100100010001111010101011011 L#
b1111100100010001111010101011011 Q#
b1111100100010001111010101011011 Z#
02"
1*"
b1 %"
b10011010101 C
b10011010101 s
b10011010101 ~
b10011010101 ("
b10011010101 ?#
b11110000000100000001001101011000 4
b11110000000100000001001101011000 b
b11110000000100000001001101011000 }
b11110000000100000001001101011000 ;"
b11110000000100000001001101011000 C"
b11110000000100000001001101011000 I#
b11110000000100000001001101011000 W#
b11000 K#
b11000 Y#
b1001100100000000000110000110101 >
b1001100100000000000110000110101 n
b1001100100000000000110000110101 ["
b1001100100000000000110000110101 i"
b1001100100000000000110000110101 {"
b1001100100000000000110000110101 ]#
b1100 +
b1100 Y
b1100 Z"
b1100 j"
b1100 \#
b1000100001 ?
b1000100001 o
b1000100001 {
b1000100001 9"
b1000100001 f#
b1111100000001000000010011010100 2
b1111100000001000000010011010100 `
b1111100000001000000010011010100 v
b1111100000001000000010011010100 j#
b10011010100 7
b10011010100 d
b10011010100 x
b10011010100 &"
b10011010100 i#
b1 8
b1 e
b1 y
b1 '"
b1 8"
b1 @"
b1 h#
b11110000000100000001001101011000 B
b11110000000100000001001101011000 r
b11110000000100000001001101011000 |
b11110000000100000001001101011000 :"
b11110000000100000001001101011000 A"
b11110000000100000001001101011000 e#
b1000 1
b1000 _
b1000 u
b1000 k#
b1001100010000000000000000000000 /
b1001100010000000000000000000000 ]
b1001100010000000000000000000000 G"
b1001100010000000000000000000000 E#
b0 0
b0 ^
b0 H"
b0 D#
b100 .
b100 \
b100 F"
b100 F#
b11000 V#
b10100 M#
b10000 '
b10000 Q
b10000 O#
b10000 [#
b10000 N#
b10000 P#
0D
#48000
b11110010000000000011000011100000 3
b11110010000000000011000011100000 a
b11110010000000000011000011100000 W"
b11110010000000000011000011100000 m"
b11110010000000000011000011100000 ^#
#50000
1D
