processor.vcd
$date
	Tue Oct 29 01:01:29 2024
$end
$version
	Icarus Verilog
$end
$timescale
	1ps
$end
$scope module testbench $end
$var wire 1 ! reset $end
$var wire 32 " output_register_file [31:0] $end
$var wire 32 # output_OF_PC [31:0] $end
$var wire 32 $ output_OF_IR [31:0] $end
$var wire 22 % output_MA_controlBus [21:0] $end
$var wire 32 & output_MA_PC [31:0] $end
$var wire 32 ' output_MA_IR [31:0] $end
$var wire 32 ( output_MA_ALU_Result [31:0] $end
$var wire 22 ) output_EX_controlBus [21:0] $end
$var wire 32 * output_EX_PC [31:0] $end
$var wire 32 + output_EX_IR [31:0] $end
$var wire 32 , outputPC [31:0] $end
$var wire 32 - op2 [31:0] $end
$var wire 32 . op1 [31:0] $end
$var wire 1 / is_Branch_Taken $end
$var wire 4 0 isStore_result [3:0] $end
$var wire 4 1 isReturn_result [3:0] $end
$var wire 1 2 isDataInterLock $end
$var wire 22 3 input_RW_controlBus [21:0] $end
$var wire 32 4 input_RW_PC [31:0] $end
$var wire 32 5 input_RW_Ld_Result [31:0] $end
$var wire 32 6 input_RW_IR [31:0] $end
$var wire 32 7 input_RW_ALU_Result [31:0] $end
$var wire 32 8 input_OF_PC [31:0] $end
$var wire 32 9 input_MA_op2 [31:0] $end
$var wire 22 : input_MA_controlBus [21:0] $end
$var wire 32 ; input_MA_PC [31:0] $end
$var wire 32 < input_MA_IR [31:0] $end
$var wire 32 = input_MA_ALU_Result [31:0] $end
$var wire 32 > input_EX_PC [31:0] $end
$var wire 32 ? input_EX_IR [31:0] $end
$var wire 32 @ branchTarget [31:0] $end
$var wire 32 A branchPC [31:0] $end
$var wire 4 B RW_rd [3:0] $end
$var wire 1 C RW_isWb $end
$var wire 32 D RW_Data_value [31:0] $end
$var wire 32 E PC [31:0] $end
$var wire 22 F Output_OF_controlBus [21:0] $end
$var wire 32 G Operand_EX_B [31:0] $end
$var wire 32 H Operand_EX_A [31:0] $end
$var wire 32 I Operand_EX_2 [31:0] $end
$var wire 32 J Operand_B [31:0] $end
$var wire 32 K Operand_A [31:0] $end
$var wire 32 L Operand_2 [31:0] $end
$var wire 32 M MDR [31:0] $end
$var wire 1 N MA_writeEnable $end
$var wire 32 O MA_Ld_Result [31:0] $end
$var wire 22 P Input_OF_controlBus [21:0] $end
$var wire 32 Q Input_OF_IR [31:0] $end
$var wire 22 R Input_EX_controlBus [21:0] $end
$var wire 32 S IR [31:0] $end
$var wire 32 T EX_op2 [31:0] $end
$var wire 32 U EX_branchTarget [31:0] $end
$var wire 32 V ALU_Result [31:0] $end
$var reg 1 W clk $end
$scope module processor $end
$var wire 32 X EX_branchPC [31:0] $end
$var wire 1 Y EX_is_Branch_Taken $end
$var wire 32 Z address [31:0] $end
$var wire 1 W clk $end
$var wire 32 [ rdData1 [31:0] $end
$var wire 32 \ rdData2 [31:0] $end
$var wire 32 ] writeData [31:0] $end
$var wire 1 ^ writeEnable $end
$var wire 32 _ readData [31:0] $end
$var wire 32 ` output_register_file [31:0] $end
$var wire 32 a output_OF_PC [31:0] $end
$var wire 32 b output_OF_IR [31:0] $end
$var wire 22 c output_MA_controlBus [21:0] $end
$var wire 32 d output_MA_PC [31:0] $end
$var wire 32 e output_MA_IR [31:0] $end
$var wire 32 f output_MA_ALU_Result [31:0] $end
$var wire 32 g output_IF_PC [31:0] $end
$var wire 22 h output_EX_controlBus [21:0] $end
$var wire 32 i output_EX_PC [31:0] $end
$var wire 32 j output_EX_IR [31:0] $end
$var wire 32 k op2 [31:0] $end
$var wire 32 l op1 [31:0] $end
$var wire 1 / is_Branch_Taken $end
$var wire 4 m isStore_result [3:0] $end
$var wire 4 n isReturn_result [3:0] $end
$var wire 1 2 isDataInterLock $end
$var wire 22 o input_RW_controlBus [21:0] $end
$var wire 32 p input_RW_PC [31:0] $end
$var wire 32 q input_RW_Ld_Result [31:0] $end
$var wire 32 r input_RW_IR [31:0] $end
$var wire 32 s input_RW_ALU_Result [31:0] $end
$var wire 32 t input_OF_PC [31:0] $end
$var wire 32 u input_MA_op2 [31:0] $end
$var wire 22 v input_MA_controlBus [21:0] $end
$var wire 32 w input_MA_PC [31:0] $end
$var wire 32 x input_MA_IR [31:0] $end
$var wire 32 y input_MA_ALU_Result [31:0] $end
$var wire 32 z input_EX_PC [31:0] $end
$var wire 32 { input_EX_IR [31:0] $end
$var wire 32 | branchTarget [31:0] $end
$var wire 32 } branchPC [31:0] $end
$var wire 4 ~ RW_rd [3:0] $end
$var wire 1 C RW_isWb $end
$var wire 32 !" RW_Data_value [31:0] $end
$var wire 22 "" Output_OF_controlBus [21:0] $end
$var wire 32 #" Operand_OF_B [31:0] $end
$var wire 32 $" Operand_OF_A [31:0] $end
$var wire 32 %" Operand_EX_B [31:0] $end
$var wire 32 &" Operand_EX_A [31:0] $end
$var wire 32 '" Operand_EX_2 [31:0] $end
$var wire 32 (" Operand_2 [31:0] $end
$var wire 32 )" MDR [31:0] $end
$var wire 1 N MA_writeEnable $end
$var wire 32 *" MA_Ld_Result [31:0] $end
$var wire 22 +" Input_OF_controlBus [21:0] $end
$var wire 32 ," Input_OF_IR [31:0] $end
$var wire 22 -" Input_EX_controlBus [21:0] $end
$var wire 32 ." IR [31:0] $end
$var wire 32 /" EX_op2 [31:0] $end
$var wire 32 0" EX_branchTarget [31:0] $end
$var wire 32 1" ALU_Result [31:0] $end
$var reg 32 2" PC [31:0] $end
$var reg 1 ! reset $end
$scope module ALU_cycle $end
$var wire 32 3" input_EX_PC [31:0] $end
$var wire 32 4" input_EX_IR [31:0] $end
$var wire 2 5" flags [1:0] $end
$var wire 32 6" Operand_EX_B [31:0] $end
$var wire 32 7" Operand_EX_A [31:0] $end
$var wire 32 8" Operand_EX_2 [31:0] $end
$var wire 22 9" Input_EX_controlBus [21:0] $end
$var wire 1 / EX_is_Branch_Taken $end
$var wire 32 :" EX_branchTarget [31:0] $end
$var wire 32 ;" EX_branchPC [31:0] $end
$var wire 32 <" ALU_Result [31:0] $end
$var reg 32 =" EX_op2 [31:0] $end
$var reg 32 >" output_EX_IR [31:0] $end
$var reg 32 ?" output_EX_PC [31:0] $end
$var reg 22 @" output_EX_controlBus [21:0] $end
$scope module ALU_module $end
$var wire 13 A" ALU_Signals [21:9] $end
$var wire 32 B" Operand_EX_B [31:0] $end
$var wire 32 C" Operand_EX_A [31:0] $end
$var reg 32 D" EX_ALU_Result [31:0] $end
$var reg 2 E" flags [1:0] $end
$var reg 1 F" isAdd $end
$var reg 1 G" isAnd $end
$var reg 1 H" isAsr $end
$var reg 1 I" isCmp $end
$var reg 1 J" isDiv $end
$var reg 1 K" isLsl $end
$var reg 1 L" isLsr $end
$var reg 1 M" isMod $end
$var reg 1 N" isMov $end
$var reg 1 O" isMul $end
$var reg 1 P" isNot $end
$var reg 1 Q" isOr $end
$var reg 1 R" isSub $end
$upscope $end
$scope module branchUnit $end
$var wire 2 S" flags [1:0] $end
$var wire 32 T" Operand_EX_A [31:0] $end
$var wire 22 U" Input_EX_controlBus [21:0] $end
$var wire 32 V" EX_branchTarget [31:0] $end
$var wire 32 W" EX_branchPC [31:0] $end
$var reg 1 / EX_is_Branch_Taken $end
$var reg 1 X" isBeq $end
$var reg 1 Y" isBgt $end
$var reg 1 Z" isRet $end
$var reg 1 [" isUbranch $end
$scope module isReturn_mux $end
$var wire 1 Z" selectLine $end
$var wire 32 \" input1 [31:0] $end
$var wire 32 ]" input0 [31:0] $end
$var parameter 32 ^" regSize $end
$var reg 32 _" output_y [31:0] $end
$upscope $end
$upscope $end
$upscope $end
$scope module MA_cycle $end
$var wire 32 `" readData [31:0] $end
$var wire 32 a" input_MA_op2 [31:0] $end
$var wire 22 b" input_MA_controlBus [21:0] $end
$var wire 32 c" input_MA_PC [31:0] $end
$var wire 32 d" input_MA_IR [31:0] $end
$var wire 32 e" input_MA_ALU_Result [31:0] $end
$var reg 32 f" MAR [31:0] $end
$var reg 32 g" MA_Ld_Result [31:0] $end
$var reg 1 N MA_writeEnable $end
$var reg 32 h" MDR [31:0] $end
$var reg 1 i" isLd $end
$var reg 1 j" isSt $end
$var reg 32 k" output_MA_ALU_Result [31:0] $end
$var reg 32 l" output_MA_IR [31:0] $end
$var reg 32 m" output_MA_PC [31:0] $end
$var reg 22 n" output_MA_controlBus [21:0] $end
$upscope $end
$scope module OperandFetch $end
$var wire 32 o" op2 [31:0] $end
$var wire 32 p" op1 [31:0] $end
$var wire 4 q" isStore_result [3:0] $end
$var wire 4 r" isReturn_result [3:0] $end
$var wire 32 s" immediateVlaue [31:0] $end
$var wire 32 t" branchTarget [31:0] $end
$var wire 32 u" Operand_B [31:0] $end
$var wire 22 v" Input_OF_controlBus [21:0] $end
$var wire 32 w" Input_OF_PC [31:0] $end
$var wire 32 x" Input_OF_IR [31:0] $end
$var reg 32 y" Operand_2 [31:0] $end
$var reg 32 z" Operand_A [31:0] $end
$var reg 22 {" Output_OF_controlBus [21:0] $end
$var reg 1 |" isImmediate $end
$var reg 1 }" isReturn $end
$var reg 1 ~" isStore $end
$var reg 32 !# output_OF_IR [31:0] $end
$var reg 32 "# output_OF_PC [31:0] $end
$var reg 4 ## ra [3:0] $end
$var reg 4 $# rd [3:0] $end
$var reg 4 %# rs1 [3:0] $end
$var reg 4 &# rs2 [3:0] $end
$scope module calc_Immx_branchTarget $end
$var wire 1 '# uModifier $end
$var wire 32 (# instruction [31:0] $end
$var wire 32 )# input_OF_PC [31:0] $end
$var wire 1 *# hModifier $end
$var reg 32 +# Immx [31:0] $end
$var reg 32 ,# branchTarget [31:0] $end
$var reg 32 -# tempBranchTarget [31:0] $end
$upscope $end
$scope module isImmediate_mux $end
$var wire 32 .# input1 [31:0] $end
$var wire 1 |" selectLine $end
$var wire 32 /# input0 [31:0] $end
$var parameter 32 0# regSize $end
$var reg 32 1# output_y [31:0] $end
$upscope $end
$scope module isRet_Mux $end
$var wire 4 2# input0 [3:0] $end
$var wire 4 3# input1 [3:0] $end
$var wire 1 }" selectLine $end
$var parameter 32 4# regSize $end
$var reg 4 5# output_y [3:0] $end
$upscope $end
$scope module isStore_mux $end
$var wire 4 6# input0 [3:0] $end
$var wire 4 7# input1 [3:0] $end
$var wire 1 ~" selectLine $end
$var parameter 32 8# regSize $end
$var reg 4 9# output_y [3:0] $end
$upscope $end
$upscope $end
$scope module controlUnit $end
$var wire 1 ! reset $end
$var wire 32 :# Input_OF_IR [31:0] $end
$var reg 1 ;# I $end
$var reg 22 <# controlBus [21:0] $end
$var reg 1 =# isAdd $end
$var reg 1 ># isAnd $end
$var reg 1 ?# isAsr $end
$var reg 1 @# isBeq $end
$var reg 1 A# isBgt $end
$var reg 1 B# isCall $end
$var reg 1 C# isCmp $end
$var reg 1 D# isDiv $end
$var reg 1 E# isImmediate $end
$var reg 1 F# isLd $end
$var reg 1 G# isLsl $end
$var reg 1 H# isLsr $end
$var reg 1 I# isMod $end
$var reg 1 J# isMov $end
$var reg 1 K# isMul $end
$var reg 1 L# isNot $end
$var reg 1 M# isOr $end
$var reg 1 N# isRet $end
$var reg 1 O# isSt $end
$var reg 1 P# isSub $end
$var reg 1 Q# isUbranch $end
$var reg 1 R# isWb $end
$var reg 1 S# op1 $end
$var reg 1 T# op2 $end
$var reg 1 U# op3 $end
$var reg 1 V# op4 $end
$var reg 1 W# op5 $end
$upscope $end
$scope module data_memory $end
$var wire 32 X# address [31:0] $end
$var wire 1 W clk $end
$var wire 1 ! reset $end
$var wire 32 Y# writeData [31:0] $end
$var wire 1 N writeEnable $end
$var reg 32 Z# readData [31:0] $end
$var integer 32 [# i [31:0] $end
$upscope $end
$scope module ex_ma_latch $end
$var wire 32 \# ALU_Result [31:0] $end
$var wire 32 ]# EX_op2 [31:0] $end
$var wire 1 W clk $end
$var wire 32 ^# output_EX_IR [31:0] $end
$var wire 32 _# output_EX_PC [31:0] $end
$var wire 22 `# output_EX_controlBus [21:0] $end
$var reg 32 a# input_MA_ALU_Result [31:0] $end
$var reg 32 b# input_MA_IR [31:0] $end
$var reg 32 c# input_MA_PC [31:0] $end
$var reg 22 d# input_MA_controlBus [21:0] $end
$var reg 32 e# input_MA_op2 [31:0] $end
$upscope $end
$scope module iFetch $end
$var wire 32 f# branchPC [31:0] $end
$var wire 1 W clk $end
$var wire 32 g# inputPC [31:0] $end
$var wire 1 / is_Branch_Taken $end
$var wire 1 ! reset $end
$var wire 32 h# mux_nextPC [31:0] $end
$var wire 1 2 isDataInterLock $end
$var wire 32 i# IR [31:0] $end
$var reg 32 j# PC [31:0] $end
$var reg 32 k# address [31:0] $end
$var reg 32 l# outputPC [31:0] $end
$scope module iMemory $end
$var wire 32 m# address [31:0] $end
$var reg 32 n# instruction [31:0] $end
$var reg 32 o# temp [31:0] $end
$var integer 32 p# file [31:0] $end
$var integer 32 q# i [31:0] $end
$var integer 32 r# readResult [31:0] $end
$upscope $end
$scope module pc_mux $end
$var wire 32 s# input0 [31:0] $end
$var wire 32 t# input1 [31:0] $end
$var wire 1 / selectLine $end
$var parameter 32 u# regSize $end
$var reg 32 v# output_y [31:0] $end
$upscope $end
$upscope $end
$scope module is_data_interlock $end
$var wire 32 w# input_MA_IR [31:0] $end
$var wire 32 x# input_RW_IR [31:0] $end
$var wire 32 y# input_EX_IR [31:0] $end
$var wire 32 z# OF_instruction [31:0] $end
$var reg 4 {# EX_dest [3:0] $end
$var reg 5 |# EX_opcode [4:0] $end
$var reg 4 }# MA_dest [3:0] $end
$var reg 5 ~# MA_opcode [4:0] $end
$var reg 1 !$ OF_hasSrc1 $end
$var reg 1 "$ OF_hasSrc2 $end
$var reg 5 #$ OF_opcode [4:0] $end
$var reg 4 $$ RW_dest [3:0] $end
$var reg 5 %$ RW_opcode [4:0] $end
$var reg 1 2 isDataInterLock $end
$var reg 1 &$ is_EX_write $end
$var reg 1 '$ is_MA_write $end
$var reg 1 ($ is_OF_read $end
$var reg 1 )$ is_RW_write $end
$var reg 4 *$ ra [3:0] $end
$var reg 4 +$ src1 [3:0] $end
$var reg 4 ,$ src2 [3:0] $end
$upscope $end
$scope module latch_if_of $end
$var wire 32 -$ IF_instruction [31:0] $end
$var wire 1 W clk $end
$var wire 1 / isBranchInterLock $end
$var wire 1 2 isDataInterLock $end
$var wire 32 .$ output_IF_PC [31:0] $end
$var reg 32 /$ Input_OF_PC [31:0] $end
$var reg 32 0$ OF_instruction [31:0] $end
$upscope $end
$scope module ma_ra_latch $end
$var wire 32 1$ MA_Ld_Result [31:0] $end
$var wire 1 W clk $end
$var wire 32 2$ output_MA_ALU_Result [31:0] $end
$var wire 32 3$ output_MA_IR [31:0] $end
$var wire 32 4$ output_MA_PC [31:0] $end
$var wire 22 5$ output_MA_controlBus [21:0] $end
$var reg 32 6$ input_RW_ALU_Result [31:0] $end
$var reg 32 7$ input_RW_IR [31:0] $end
$var reg 32 8$ input_RW_Ld_Result [31:0] $end
$var reg 32 9$ input_RW_PC [31:0] $end
$var reg 22 :$ input_RW_controlBus [21:0] $end
$upscope $end
$scope module of_ex_latch $end
$var wire 32 ;$ OF_branchTarget [31:0] $end
$var wire 32 <$ Operand_OF_2 [31:0] $end
$var wire 32 =$ Operand_OF_A [31:0] $end
$var wire 32 >$ Operand_OF_B [31:0] $end
$var wire 22 ?$ Output_OF_controlBus [21:0] $end
$var wire 1 W clk $end
$var wire 1 / isBranchInterLock $end
$var wire 1 2 isDataInterLock $end
$var wire 32 @$ output_OF_IR [31:0] $end
$var wire 32 A$ output_OF_PC [31:0] $end
$var reg 32 B$ EX_branchTarget [31:0] $end
$var reg 22 C$ Input_EX_controlBus [21:0] $end
$var reg 32 D$ Operand_EX_2 [31:0] $end
$var reg 32 E$ Operand_EX_A [31:0] $end
$var reg 32 F$ Operand_EX_B [31:0] $end
$var reg 32 G$ input_EX_IR [31:0] $end
$var reg 32 H$ input_EX_PC [31:0] $end
$upscope $end
$scope module r_File_processor $end
$var wire 1 W clk $end
$var wire 4 I$ operand1 [3:0] $end
$var wire 4 J$ operand2 [3:0] $end
$var wire 1 ! reset $end
$var wire 1 C writeEnable $end
$var wire 32 K$ wrData [31:0] $end
$var wire 4 L$ dReg [3:0] $end
$var reg 32 M$ output_register_file [31:0] $end
$var reg 32 N$ rdData1 [31:0] $end
$var reg 32 O$ rdData2 [31:0] $end
$var reg 1 P$ temp $end
$var integer 32 Q$ k [31:0] $end
$upscope $end
$scope module rw_stage $end
$var wire 32 R$ input_RW_ALU_Result [31:0] $end
$var wire 32 S$ input_RW_IR [31:0] $end
$var wire 32 T$ input_RW_Ld_Result [31:0] $end
$var wire 32 U$ input_RW_PC [31:0] $end
$var wire 22 V$ input_RW_controlBus [21:0] $end
$var wire 4 W$ RW_rd [3:0] $end
$var wire 32 X$ RW_Data_value [31:0] $end
$var reg 1 C RW_isWb $end
$var reg 1 Y$ isCall $end
$var reg 1 Z$ isLd $end
$var reg 2 [$ mux_selectLines [1:0] $end
$var reg 4 \$ ra [3:0] $end
$var reg 4 ]$ rd [3:0] $end
$scope module isCall_mux $end
$var wire 4 ^$ input0 [3:0] $end
$var wire 4 _$ input1 [3:0] $end
$var wire 1 Y$ selectLine $end
$var parameter 32 `$ regSize $end
$var reg 4 a$ output_y [3:0] $end
$upscope $end
$scope module isLD_or_isCall_MUX $end
$var wire 32 b$ input0 [31:0] $end
$var wire 32 c$ input1 [31:0] $end
$var wire 32 d$ input2 [31:0] $end
$var wire 2 e$ selectLine [1:0] $end
$var parameter 32 f$ regSize $end
$var reg 32 g$ output_y [31:0] $end
$upscope $end
$upscope $end
$upscope $end
$upscope $end
$enddefinitions $end
$comment Show the parameter values. $end
$dumpall
b100000 f$
b100 `$
b100000 u#
b100 8#
b100 4#
b100000 0#
b100000 ^"
$end
#0
$dumpvars
bx g$
bx e$
bx d$
bx c$
bx b$
bx a$
b1111 _$
bx ^$
bx ]$
b1111 \$
bx [$
xZ$
xY$
bx X$
bx W$
bx V$
bx U$
bx T$
bx S$
bx R$
bx Q$
0P$
bx O$
bx N$
bx M$
bx L$
bx K$
bx J$
bx I$
bx H$
bx G$
bx F$
bx E$
bx D$
bx C$
bx B$
bx A$
bx @$
b0 ?$
bx >$
bx =$
bx <$
bx ;$
bx :$
bx 9$
bx 8$
bx 7$
bx 6$
bx 5$
bx 4$
bx 3$
bx 2$
bx 1$
bx 0$
bx /$
bx .$
bx -$
bx ,$
bx +$
b1111 *$
x)$
x($
x'$
x&$
bx %$
bx $$
bx #$
x"$
x!$
bx ~#
bx }#
bx |#
bx {#
bx z#
bx y#
bx x#
bx w#
b100 v#
bx t#
b100 s#
b1 r#
b1000 q#
b10000000000000000000000000000011 p#
b10010111111111111111111111111100 o#
bx n#
bx m#
bx l#
bx k#
b0 j#
bx i#
b100 h#
bx g#
bx f#
bx e#
bx d#
bx c#
bx b#
bx a#
bx `#
bx _#
bx ^#
bx ]#
bx \#
b111110100000 [#
bx Z#
bx Y#
bx X#
xW#
xV#
xU#
xT#
xS#
xR#
xQ#
xP#
xO#
xN#
xM#
xL#
xK#
xJ#
xI#
xH#
xG#
xF#
xE#
xD#
xC#
xB#
xA#
x@#
x?#
x>#
x=#
b0 <#
x;#
bx :#
bx 9#
bx 7#
bx 6#
bx 5#
b1111 3#
bx 2#
bx 1#
bx /#
bx .#
bx -#
bx ,#
bx +#
x*#
bx )#
bx (#
x'#
bx &#
bx %#
bx $#
b1111 ##
bx "#
bx !#
0~"
0}"
0|"
b0 {"
bx z"
bx y"
bx x"
bx w"
b0 v"
bx u"
bx t"
bx s"
bx r"
bx q"
bx p"
bx o"
bx n"
bx m"
bx l"
bx k"
xj"
xi"
bx h"
bx g"
bx f"
bx e"
bx d"
bx c"
bx b"
bx a"
bx `"
bx _"
bx ]"
bx \"
x["
xZ"
xY"
xX"
bx W"
bx V"
bx U"
bx T"
bx S"
xR"
xQ"
xP"
xO"
xN"
xM"
xL"
xK"
xJ"
xI"
xH"
xG"
xF"
bx E"
bx D"
bx C"
bx B"
bx A"
bx @"
bx ?"
bx >"
bx ="
bx <"
bx ;"
bx :"
bx 9"
bx 8"
bx 7"
bx 6"
bx 5"
bx 4"
bx 3"
bx 2"
bx 1"
bx 0"
bx /"
bx ."
bx -"
bx ,"
b0 +"
bx *"
bx )"
bx ("
bx '"
bx &"
bx %"
bx $"
bx #"
b0 ""
bx !"
bx ~
bx }
bx |
bx {
bx z
bx y
bx x
bx w
bx v
bx u
bx t
bx s
bx r
bx q
bx p
bx o
bx n
bx m
bx l
bx k
bx j
bx i
bx h
bx g
bx f
bx e
bx d
bx c
bx b
bx a
bx `
bx _
z^
bz ]
bz \
bz [
bz Z
zY
bz X
1W
bx V
bx U
bx T
bx S
bx R
bx Q
b0 P
bx O
xN
bx M
bx L
bx K
bx J
bx I
bx H
bx G
b0 F
bx E
bx D
xC
bx B
bx A
bx @
bx ?
bx >
bx =
bx <
bx ;
bx :
bx 9
bx 8
bx 7
bx 6
bx 5
bx 4
bx 3
02
bx 1
bx 0
x/
bx .
bx -
bx ,
bx +
bx *
bx )
bx (
bx '
bx &
bx %
bx $
bx #
bx "
1!
$end
#2000
0!
#5000
0/
b0 )
b0 h
b0 @"
b0 `#
0["
0Y"
0X"
0Z"
b1001100000000000000000000000101 S
b1001100000000000000000000000101 ."
b1001100000000000000000000000101 i#
b1001100000000000000000000000101 n#
b1001100000000000000000000000101 -$
b0 V
b0 1"
b0 <"
b0 D"
b0 \#
0N"
0P"
0G"
0Q"
0H"
0L"
0K"
0M"
0J"
0O"
0I"
0R"
0F"
b0 A"
b1000 h#
b1000 v#
b0 R
b0 -"
b0 9"
b0 U"
b0 C$
b1000 s#
b100 j#
b0 ,
b0 g
b0 l#
b0 .$
b0 k#
b0 m#
0W
#10000
1W
#15000
b101 J
b101 #"
b101 u"
b101 1#
b101 >$
b0 O
b0 *"
b0 g"
b0 1$
b0 _
b0 `"
b0 Z#
b1000000000000001100000 F
b1000000000000001100000 ""
b1000000000000001100000 {"
b1000000000000001100000 ?$
1|"
0}"
0~"
1J#
0L#
0>#
0M#
0?#
0H#
0G#
0I#
0D#
0K#
0C#
0P#
0=#
0B#
0Q#
1R#
1E#
0N#
0A#
0@#
0F#
0O#
b0 1
b0 n
b0 r"
b0 5#
b0 I$
b0 0
b0 m
b0 q"
b0 9#
b0 J$
b101 s"
b101 +#
b101 .#
b0 %
b0 c
b0 n"
b0 5$
b0 (
b0 f
b0 k"
b0 X#
b0 2$
b0 f"
0i"
0j"
0N
b1000000000000001100000 P
b1000000000000001100000 +"
b1000000000000001100000 v"
b1000000000000001100000 <#
0W#
1V#
0U#
0T#
1S#
1;#
b1001100000000000000000000000101 $
b1001100000000000000000000000101 b
b1001100000000000000000000000101 !#
b1001100000000000000000000000101 @$
b0 #
b0 a
b0 "#
b0 A$
b0 &#
b0 6#
b0 %#
b0 2#
b0 $#
b0 7#
bx100000000000000000000000101xx -#
b1001100010000000000000000000001 S
b1001100010000000000000000000001 ."
b1001100010000000000000000000001 i#
b1001100010000000000000000000001 n#
b1001100010000000000000000000001 -$
0*#
0'#
0"$
0!$
b0 ,$
b0 +$
1($
b1001 #$
b1100 h#
b1100 v#
b0 :
b0 v
b0 b"
b0 d#
b0 =
b0 y
b0 e"
b0 a#
b1001100000000000000000000000101 Q
b1001100000000000000000000000101 ,"
b1001100000000000000000000000101 x"
b1001100000000000000000000000101 (#
b1001100000000000000000000000101 :#
b1001100000000000000000000000101 z#
b1001100000000000000000000000101 0$
b0 8
b0 t
b0 w"
b0 )#
b0 /$
b1100 s#
b1000 j#
b100 ,
b100 g
b100 l#
b100 .$
b100 k#
b100 m#
0W
#16000
b111100000000000000000000000101xx -#
#17000
b11110000000000000000000000010100 -#
#18000
b11110000000000000000000000010100 @
b11110000000000000000000000010100 |
b11110000000000000000000000010100 t"
b11110000000000000000000000010100 ,#
b11110000000000000000000000010100 ;$
#20000
1W
#25000
b0 D
b0 !"
b0 K$
b0 X$
b0 g$
b0 [$
b0 e$
b1 J
b1 #"
b1 u"
b1 1#
b1 >$
b1 s"
b1 +#
b1 .#
b1001100010000000000000000000001 $
b1001100010000000000000000000001 b
b1001100010000000000000000000001 !#
b1001100010000000000000000000001 @$
b100 #
b100 a
b100 "#
b100 A$
b1 $#
b1 7#
b11110001000000000000000000000100 -#
b1000000000000001100000 )
b1000000000000001100000 h
b1000000000000001100000 @"
b1000000000000001100000 `#
b1001100000000000000000000000101 +
b1001100000000000000000000000101 j
b1001100000000000000000000000101 >"
b1001100000000000000000000000101 ^#
b0 *
b0 i
b0 ?"
b0 _#
0C
0Y$
0Z$
b1001100100000000000000000000001 S
b1001100100000000000000000000001 ."
b1001100100000000000000000000001 i#
b1001100100000000000000000000001 n#
b1001100100000000000000000000001 -$
b101 V
b101 1"
b101 <"
b101 D"
b101 \#
1N"
b1000000000000 A"
b0 {#
0"$
0!$
1&$
b1001 |#
b11110000000000000000000000010100 A
b11110000000000000000000000010100 }
b11110000000000000000000000010100 ;"
b11110000000000000000000000010100 W"
b11110000000000000000000000010100 _"
b11110000000000000000000000010100 f#
b11110000000000000000000000010100 t#
b10000 h#
b10000 v#
b1001100010000000000000000000001 Q
b1001100010000000000000000000001 ,"
b1001100010000000000000000000001 x"
b1001100010000000000000000000001 (#
b1001100010000000000000000000001 :#
b1001100010000000000000000000001 z#
b1001100010000000000000000000001 0$
b100 8
b100 t
b100 w"
b100 )#
b100 /$
b1000000000000001100000 R
b1000000000000001100000 -"
b1000000000000001100000 9"
b1000000000000001100000 U"
b1000000000000001100000 C$
b1001100000000000000000000000101 ?
b1001100000000000000000000000101 {
b1001100000000000000000000000101 4"
b1001100000000000000000000000101 y#
b1001100000000000000000000000101 G$
b101 G
b101 %"
b101 6"
b101 B"
b101 F$
b11110000000000000000000000010100 U
b11110000000000000000000000010100 0"
b11110000000000000000000000010100 :"
b11110000000000000000000000010100 V"
b11110000000000000000000000010100 ]"
b11110000000000000000000000010100 B$
b0 >
b0 z
b0 3"
b0 H$
b0 3
b0 o
b0 :$
b0 V$
b0 7
b0 s
b0 6$
b0 R$
b0 b$
b0 5
b0 q
b0 8$
b0 T$
b0 c$
b10000 s#
b1100 j#
b1000 ,
b1000 g
b1000 l#
b1000 .$
b1000 k#
b1000 m#
0W
#28000
b11110001000000000000000000001000 @
b11110001000000000000000000001000 |
b11110001000000000000000000001000 t"
b11110001000000000000000000001000 ,#
b11110001000000000000000000001000 ;$
#30000
1W
#35000
b1000000000000001100000 %
b1000000000000001100000 c
b1000000000000001100000 n"
b1000000000000001100000 5$
b1001100000000000000000000000101 '
b1001100000000000000000000000101 e
b1001100000000000000000000000101 l"
b1001100000000000000000000000101 3$
b101 (
b101 f
b101 k"
b101 X#
b101 2$
b0 &
b0 d
b0 m"
b0 4$
b101 f"
b1001100010000000000000000000001 +
b1001100010000000000000000000001 j
b1001100010000000000000000000001 >"
b1001100010000000000000000000001 ^#
b100 *
b100 i
b100 ?"
b100 _#
b1001100100000000000000000000001 $
b1001100100000000000000000000001 b
b1001100100000000000000000000001 !#
b1001100100000000000000000000001 @$
b1000 #
b1000 a
b1000 "#
b1000 A$
b10 $#
b10 7#
b11110010000000000000000000000100 -#
b101000000010000000000000000000 S
b101000000010000000000000000000 ."
b101000000010000000000000000000 i#
b101000000010000000000000000000 n#
b101000000010000000000000000000 -$
b1 V
b1 1"
b1 <"
b1 D"
b1 \#
b11110001000000000000000000001000 A
b11110001000000000000000000001000 }
b11110001000000000000000000001000 ;"
b11110001000000000000000000001000 W"
b11110001000000000000000000001000 _"
b11110001000000000000000000001000 f#
b11110001000000000000000000001000 t#
b0 }#
b1 {#
0"$
0!$
1'$
b1001 ~#
b10100 h#
b10100 v#
b1000000000000001100000 :
b1000000000000001100000 v
b1000000000000001100000 b"
b1000000000000001100000 d#
b1001100000000000000000000000101 <
b1001100000000000000000000000101 x
b1001100000000000000000000000101 d"
b1001100000000000000000000000101 b#
b1001100000000000000000000000101 w#
b101 =
b101 y
b101 e"
b101 a#
b0 ;
b0 w
b0 c"
b0 c#
b1001100010000000000000000000001 ?
b1001100010000000000000000000001 {
b1001100010000000000000000000001 4"
b1001100010000000000000000000001 y#
b1001100010000000000000000000001 G$
b1 G
b1 %"
b1 6"
b1 B"
b1 F$
b11110001000000000000000000001000 U
b11110001000000000000000000001000 0"
b11110001000000000000000000001000 :"
b11110001000000000000000000001000 V"
b11110001000000000000000000001000 ]"
b11110001000000000000000000001000 B$
b100 >
b100 z
b100 3"
b100 H$
b1001100100000000000000000000001 Q
b1001100100000000000000000000001 ,"
b1001100100000000000000000000001 x"
b1001100100000000000000000000001 (#
b1001100100000000000000000000001 :#
b1001100100000000000000000000001 z#
b1001100100000000000000000000001 0$
b1000 8
b1000 t
b1000 w"
b1000 )#
b1000 /$
b10100 s#
b10000 j#
b1100 ,
b1100 g
b1100 l#
b1100 .$
b1100 k#
b1100 m#
0W
#38000
b11110010000000000000000000001100 @
b11110010000000000000000000001100 |
b11110010000000000000000000001100 t"
b11110010000000000000000000001100 ,#
b11110010000000000000000000001100 ;$
#40000
1W
